-#
20
5
-p
0
29
12
29
12
12
12
29
12
29
29
12
12
29
12
29
29
12
29
29
29
0
-M
11288
-st
0
0
8
0
0
0
7
9
4
0
0
3
0
0
9
5
0
0
1
0
6
0
-d
6960
3662
6960
4974
6960
6960
4724
6960
6960
3580
6960
4914
3581
6960
6960
3485
6960
3989
6960
6960
6960
6960
-s
0 29 0 29 0 0 0 29 0 29 29 0 0 29 0 29 29 0 29 29 29 0
29 0 29 29 29 29 29 29 29 29 29 29 29 29 29 29 29 29 29 29 29 29
12 29 0 29 12 12 12 29 12 29 29 12 12 29 12 29 29 12 29 29 29 12
29 29 29 0 29 29 29 29 29 29 29 29 29 29 29 29 29 29 29 29 29 29
12 29 12 29 0 12 12 29 12 29 29 12 12 29 12 29 29 12 29 29 29 12
12 29 12 29 12 0 12 29 12 29 29 12 12 29 12 29 29 12 29 29 29 12
12 29 12 29 12 12 0 29 12 29 29 12 12 29 12 29 29 12 29 29 29 12
29 29 29 29 29 29 29 0 29 29 29 29 29 29 29 29 29 29 29 29 29 29
12 29 12 29 12 12 12 29 0 29 29 12 12 29 12 29 29 12 29 29 29 12
29 29 29 29 29 29 29 29 29 0 29 29 29 29 29 29 29 29 29 29 29 29
29 29 29 29 29 29 29 29 29 29 0 29 29 29 29 29 29 29 29 29 29 29
12 29 12 29 12 12 12 29 12 29 29 0 12 29 12 29 29 12 29 29 29 12
12 29 12 29 12 12 12 29 12 29 29 12 0 29 12 29 29 12 29 29 29 12
29 29 29 29 29 29 29 29 29 29 29 29 29 0 29 29 29 29 29 29 29 29
12 29 12 29 12 12 12 29 12 29 29 12 12 29 0 29 29 12 29 29 29 12
29 29 29 29 29 29 29 29 29 29 29 29 29 29 29 0 29 29 29 29 29 29
29 29 29 29 29 29 29 29 29 29 29 29 29 29 29 29 0 29 29 29 29 29
12 29 12 29 12 12 12 29 12 29 29 12 12 29 12 29 29 0 29 29 29 12
29 29 29 29 29 29 29 29 29 29 29 29 29 29 29 29 29 29 0 29 29 29
29 29 29 29 29 29 29 29 29 29 29 29 29 29 29 29 29 29 29 0 29 29
29 29 29 29 29 29 29 29 29 29 29 29 29 29 29 29 29 29 29 29 0 29
0 29 0 29 0 0 0 29 0 29 29 0 0 29 0 29 29 0 29 29 29 0
-b
100
50
25
50
-l
100
100
100
100
100
-c
0
50
21
50
21
21
21
50
21
50
50
21
21
50
21
50
50
21
50
50
50
0
