-#
20
10
-p
0
20
12
12
20
20
20
12
20
12
20
12
12
20
20
12
12
12
12
20
20
0
-M
6160
-st
0
4
0
0
1
0
0
0
5
0
7
2
4
0
8
4
0
0
0
0
10
0
-d
4800
2394
2990
4800
3436
4800
3097
3062
3138
2671
2630
4800
2569
2948
2939
4800
4800
3533
2896
2832
4800
4800
-s
0 0 12 12 0 0 0 12 0 12 0 12 12 0 0 12 12 12 12 0 0 0
20 0 12 12 20 20 20 12 20 12 20 12 12 20 20 12 12 12 12 20 20 20
12 12 0 12 12 12 12 12 12 12 12 12 12 12 12 12 12 12 12 12 12 12
12 12 12 0 12 12 12 12 12 12 12 12 12 12 12 12 12 12 12 12 12 12
20 20 12 12 0 20 20 12 20 12 20 12 12 20 20 12 12 12 12 20 20 20
20 20 12 12 20 0 20 12 20 12 20 12 12 20 20 12 12 12 12 20 20 20
20 20 12 12 20 20 0 12 20 12 20 12 12 20 20 12 12 12 12 20 20 20
12 12 12 12 12 12 12 0 12 12 12 12 12 12 12 12 12 12 12 12 12 12
20 20 12 12 20 20 20 12 0 12 20 12 12 20 20 12 12 12 12 20 20 20
12 12 12 12 12 12 12 12 12 0 12 12 12 12 12 12 12 12 12 12 12 12
20 20 12 12 20 20 20 12 20 12 0 12 12 20 20 12 12 12 12 20 20 20
12 12 12 12 12 12 12 12 12 12 12 0 12 12 12 12 12 12 12 12 12 12
12 12 12 12 12 12 12 12 12 12 12 12 0 12 12 12 12 12 12 12 12 12
20 20 12 12 20 20 20 12 20 12 20 12 12 0 20 12 12 12 12 20 20 20
20 20 12 12 20 20 20 12 20 12 20 12 12 20 0 12 12 12 12 20 20 20
12 12 12 12 12 12 12 12 12 12 12 12 12 12 12 0 12 12 12 12 12 12
12 12 12 12 12 12 12 12 12 12 12 12 12 12 12 12 0 12 12 12 12 12
12 12 12 12 12 12 12 12 12 12 12 12 12 12 12 12 12 0 12 12 12 12
12 12 12 12 12 12 12 12 12 12 12 12 12 12 12 12 12 12 0 12 12 12
20 20 12 12 20 20 20 12 20 12 20 12 12 20 20 12 12 12 12 0 20 20
20 20 12 12 20 20 20 12 20 12 20 12 12 20 20 12 12 12 12 20 0 20
0 0 12 12 0 0 0 12 0 12 0 12 12 0 0 12 12 12 12 0 0 0
-b
100
50
25
50
-l
100
100
100
100
100
100
100
100
100
100
-c
0
35
21
21
35
35
35
21
35
21
35
21
21
35
35
21
21
21
21
35
35
0
