-#
5
5
-p
0
18
18
18
22
18
0
-M
884
-st
0
9
5
0
0
0
0
-d
1980
1980
1980
1404
1980
1003
1980
-s
0 18 18 18 0 18 0
18 0 30 30 18 30 18
18 30 0 30 18 30 18
18 30 30 0 18 30 18
22 30 30 30 0 30 22
18 30 30 30 18 0 18
0 18 18 18 0 18 0
-b
100
50
25
50
-l
100
100
100
100
100
-c
0
31
31
31
38
31
0
-mst
0
0
0
0
0
-re
1
5
