0 10 8 10 3 4 10 10 10 9
10 0 3 10 4 2 10 7 5 2
8 3 0 5 8 9 7 9 6 4
10 10 5 0 9 7 2 2 5 4
3 4 8 9 0 9 9 8 4 4
4 2 9 7 9 0 7 2 5 6
10 10 7 2 9 7 0 9 3 5
10 7 9 2 8 2 9 0 9 6
10 5 6 5 4 5 3 9 0 9
9 2 4 4 4 6 5 6 9 0
-t index kind start end origin dest ptime entry
0 g 0 480 7 3 11 0
1 g 0 480 6 1 8 0
2 g 0 480 3 2 7 0
3 g 0 480 8 0 9 0
4 g 0 480 6 1 8 0
5 g 0 480 1 8 7 0
6 g 0 480 3 7 11 0
7 g 0 480 4 2 4 0
8 g 0 480 6 5 4 0
9 g 0 480 3 5 9 0
10 g 0 480 2 3 11 0
11 g 0 480 0 6 11 0
12 g 0 480 0 5 7 0
13 g 0 480 0 5 7 0
14 g 0 480 5 9 12 0
15 g 0 480 1 6 4 0
16 g 0 480 1 8 7 0
17 g 0 480 7 1 4 0
18 g 0 480 9 8 8 0
19 g 0 480 2 0 4 0
20 g 0 480 1 9 12 0
21 g 0 480 6 9 7 0
22 g 0 480 9 5 4 0
23 g 0 480 3 5 10 0
24 g 0 480 8 9 10 0
25 g 0 480 5 3 10 0
26 g 0 480 2 6 8 0
27 g 0 480 3 5 10 0
28 g 0 480 2 0 5 0
29 g 0 480 3 9 7 0
30 g 0 480 3 9 4 0
31 g 0 480 0 4 6 0
32 g 0 480 2 4 10 0
33 g 0 480 6 2 3 0
34 g 0 480 5 2 11 0
35 g 0 480 1 7 8 0
36 g 0 480 1 2 10 0
37 g 0 480 2 4 3 0
38 g 0 480 1 2 4 0
39 g 0 480 5 4 8 0
40 g 0 480 0 2 7 0
41 g 0 480 8 9 9 0
42 g 0 480 5 1 12 0
43 g 0 480 7 3 6 0
44 g 0 480 2 0 7 0
45 g 0 480 3 5 7 0
46 g 0 480 8 1 6 0
47 g 0 480 2 5 9 0
48 g 0 480 8 0 4 0
49 g 0 480 8 7 3 0
50 g 0 480 2 7 9 0
51 g 0 480 7 5 4 0
52 g 0 480 6 0 11 0
53 g 0 480 9 8 4 0
54 g 0 480 6 4 7 0
55 g 0 480 7 0 6 0
56 g 0 480 0 2 12 0
57 g 0 480 3 7 11 0
58 g 0 480 6 4 3 0
59 g 0 480 8 4 8 0
60 g 0 480 3 9 7 0
61 g 0 480 4 7 7 0
62 g 0 480 9 2 11 0
63 g 0 480 0 7 3 0
64 g 0 480 9 1 4 0
65 g 0 480 6 4 8 0
66 g 0 480 8 5 4 0
67 g 0 480 3 9 5 0
68 g 0 480 9 0 12 0
69 g 0 480 3 6 4 0
70 g 0 480 5 3 4 0
71 g 0 480 0 6 3 0
72 g 0 480 6 4 11 0
73 g 0 480 2 0 4 0
74 g 0 480 1 2 4 0
75 g 0 480 6 8 8 0
76 g 0 480 0 2 10 0
77 g 0 480 7 5 10 0
78 g 0 480 5 6 7 0
79 g 0 480 8 0 12 0
80 g 0 480 1 4 4 0
81 g 0 480 3 0 11 0
82 g 0 480 3 6 7 0
83 g 0 480 4 5 5 0
84 g 0 480 8 5 11 0
85 g 0 480 6 3 7 0
86 g 0 480 1 2 4 0
87 g 0 480 0 4 11 0
88 g 0 480 9 0 10 0
89 g 0 480 4 2 5 0
90 g 0 480 2 5 9 0
91 g 0 480 5 9 4 0
92 g 0 480 0 6 12 0
93 g 0 480 1 3 8 0
94 g 0 480 6 7 7 0
95 g 0 480 7 6 5 0
96 g 0 480 2 6 8 0
97 g 0 480 7 9 4 0
98 g 0 480 7 0 6 0
99 g 0 480 7 1 12 0
100 g 0 480 2 1 4 0
101 g 0 480 0 7 8 0
102 g 0 480 5 4 4 0
103 g 0 480 0 4 5 0
104 g 0 480 3 1 8 0
105 g 0 480 0 6 4 0
106 g 0 480 3 2 4 0
107 g 0 480 2 9 5 0
108 g 0 480 9 1 7 0
109 g 0 480 6 2 4 0
110 g 0 480 3 9 11 0
111 g 0 480 9 3 3 0
112 g 0 480 5 1 6 0
113 g 0 480 0 3 12 0
114 g 0 480 2 7 7 0
115 g 0 480 1 2 10 0
116 g 0 480 6 0 7 0
117 g 0 480 6 2 7 0
118 g 0 480 5 3 10 0
119 g 0 480 1 9 5 0
120 g 0 480 9 2 9 0
121 g 0 480 1 4 12 0
122 g 0 480 4 5 6 0
123 g 0 480 0 4 4 0
124 g 0 480 6 5 3 0
125 g 0 480 2 3 11 0
126 g 0 480 2 3 11 0
127 g 0 480 2 7 8 0
128 g 0 480 2 9 4 0
129 g 0 480 4 0 4 0
130 g 0 480 3 0 4 0
131 g 0 480 3 2 4 0
132 g 0 480 2 1 5 0
133 g 0 480 4 5 8 0
134 g 0 480 7 6 4 0
135 g 0 480 9 1 7 0
136 g 0 480 0 9 4 0
137 g 0 480 3 2 11 0
138 g 0 480 6 3 12 0
139 g 0 480 7 9 8 0
140 g 0 480 6 4 4 0
141 g 0 480 2 6 7 0
142 g 0 480 7 1 8 0
143 g 0 480 9 7 8 0
144 g 0 480 3 6 6 0
145 g 0 480 8 6 9 0
146 g 0 480 3 0 7 0
147 g 0 480 7 4 4 0
148 g 0 480 6 0 8 0
149 g 0 480 2 9 9 0
150 g 0 480 6 5 6 0
151 g 0 480 8 9 3 0
152 g 0 480 5 1 4 0
153 l 484 1440 0 5 3 484
154 l 490 1440 0 7 11 490
155 l 490 1440 0 7 11 490
156 l 498 1440 0 1 6 498
157 m 505 1440 1 6 3 505
158 m 507 1440 4 5 6 507
159 l 513 1440 0 7 12 513
160 m 513 1440 0 4 8 513
161 l 514 1440 0 1 3 514
162 m 526 1440 6 7 6 526
163 m 541 1440 5 7 3 541
164 l 545 1440 0 5 6 545
165 l 546 1440 0 1 10 546
166 l 547 1440 0 8 11 547
167 m 547 1440 3 8 3 547
168 l 548 1440 0 4 7 548
169 l 549 1440 0 6 4 549
170 l 551 1440 0 1 11 551
171 l 557 1440 0 5 6 557
172 m 558 1440 0 2 5 558
173 l 560 1440 0 7 5 560
174 l 566 1440 0 8 3 566
175 l 568 1440 0 1 9 568
176 l 577 1440 0 9 7 577
177 l 582 1440 0 9 5 582
178 l 582 1440 0 9 9 582
179 m 585 1440 8 1 3 585
180 m 591 1440 5 7 3 591
181 m 592 1440 2 6 12 592
182 l 597 1440 0 6 8 597
183 m 604 1440 1 0 12 604
184 l 605 1440 0 2 7 605
185 l 609 1440 0 9 12 609
186 l 613 1440 0 6 8 613
187 l 617 1440 0 1 8 617
188 l 625 1440 0 7 5 625
189 l 627 1440 0 1 11 627
190 l 629 1440 0 6 11 629
191 l 631 1440 0 2 11 631
192 l 632 1440 0 3 5 632
193 l 653 1440 0 8 6 653
194 m 674 1440 9 0 3 674
195 l 686 1440 0 4 11 686
196 l 687 1440 0 6 3 687
197 l 689 1440 0 1 5 689
198 m 692 1440 8 1 10 692
199 l 697 1440 0 4 9 697
200 l 699 1440 0 4 3 699
201 l 702 1440 0 9 4 702
202 l 702 1440 0 6 11 702
203 l 710 1440 0 8 7 710
204 m 716 1440 3 0 10 716
205 l 722 1440 0 2 12 722
206 m 723 1440 1 8 7 723
207 l 726 1440 0 7 11 726
208 m 729 1440 6 0 5 729
209 l 736 1440 0 5 3 736
210 m 736 1440 0 7 10 736
211 l 739 1440 0 1 11 739
212 l 740 1440 0 9 7 740
213 m 742 1440 3 5 3 742
214 l 744 1440 0 8 10 744
215 l 746 1440 0 6 11 746
216 m 749 1440 5 1 11 749
217 m 752 1440 0 5 3 752
218 l 755 1440 0 6 7 755
219 l 762 1440 0 6 6 762
220 m 764 1440 7 4 3 764
221 l 767 1440 0 4 11 767
222 l 775 1440 0 7 7 775
223 l 775 1440 0 6 11 775
224 l 775 1440 0 2 3 775
225 l 780 1440 0 6 11 780
226 l 784 1440 0 5 7 784
227 m 787 1440 4 6 4 787
228 l 793 1440 0 4 12 793
229 l 799 1440 0 8 5 799
230 l 806 1440 0 2 4 806
231 l 806 1440 0 6 10 806
232 m 811 1440 2 0 7 811
233 l 813 1440 0 8 5 813
234 l 824 1440 0 9 9 824
235 m 836 1440 5 8 11 836
236 l 836 1440 0 1 11 836
237 l 842 1440 0 1 9 842
238 l 846 1440 0 5 3 846
239 l 848 1440 0 7 7 848
240 l 851 1440 0 4 7 851
241 l 859 1440 0 7 3 859
242 l 861 1440 0 4 8 861
243 l 862 1440 0 4 7 862
244 l 867 1440 0 6 5 867
245 l 872 1440 0 5 8 872
246 l 879 1440 0 2 11 879
247 l 886 1440 0 3 11 886
248 m 889 1440 4 1 3 889
249 l 892 1440 0 8 3 892
250 l 894 1440 0 6 5 894
251 l 895 1440 0 5 10 895
252 l 896 1440 0 5 9 896
253 l 903 1440 0 3 5 903
254 l 903 1440 0 2 5 903
255 l 909 1440 0 8 11 909
256 l 926 1440 0 9 12 926
257 l 928 1440 0 6 6 928
258 l 931 1440 0 5 5 931
259 m 932 1440 8 6 10 932
260 l 937 1440 0 2 5 937
261 l 937 1440 0 1 4 937
262 l 938 1440 0 1 11 938
263 m 938 1440 1 7 6 938
264 l 938 1440 0 8 7 938
265 l 943 1440 0 1 6 943
266 l 950 1440 0 1 9 950
267 m 956 1440 5 8 11 956
268 l 956 1440 0 7 5 956
269 l 956 1440 0 6 5 956
270 l 959 1440 0 2 9 959
271 m 966 1440 8 2 4 966
272 m 968 1440 4 3 4 968
273 l 969 1440 0 5 5 969
274 l 972 1440 0 7 5 972
275 l 978 1440 0 1 5 978
276 l 987 1440 0 5 5 987
277 m 989 1440 1 0 4 989
278 l 993 1440 0 7 3 993
279 l 1002 1440 0 8 9 1002
280 l 1006 1440 0 3 5 1006
281 l 1010 1440 0 9 6 1010
282 l 1014 1440 0 6 3 1014
283 l 1014 1440 0 6 11 1014
284 l 1015 1440 0 7 10 1015
285 l 1024 1440 0 7 6 1024
286 m 1030 1440 5 3 9 1030
287 l 1035 1440 0 9 9 1035
288 l 1037 1440 0 1 4 1037
289 l 1038 1440 0 2 6 1038
290 l 1040 1440 0 7 9 1040
291 l 1041 1440 0 4 4 1041
292 m 1041 1440 3 1 4 1041
293 l 1046 1440 0 1 3 1046
294 l 1052 1440 0 3 3 1052
295 m 1055 1440 5 3 3 1055
296 l 1055 1440 0 2 12 1055
297 l 1057 1440 0 2 6 1057
298 l 1061 1440 0 5 12 1061
299 l 1066 1440 0 1 6 1066
300 l 1071 1440 0 3 12 1071
301 m 1072 1440 9 6 9 1072
302 l 1074 1440 0 5 10 1074
303 m 1076 1440 5 7 9 1076
304 l 1079 1440 0 5 4 1079
305 l 1081 1440 0 3 6 1081
306 m 1082 1440 1 8 7 1082
307 m 1083 1440 8 1 7 1083
308 l 1089 1440 0 8 7 1089
309 l 1112 1440 0 1 8 1112
310 m 1124 1440 7 2 3 1124
311 l 1129 1440 0 3 4 1129
312 l 1135 1440 0 2 11 1135
313 m 1148 1440 2 1 4 1148
314 l 1150 1440 0 3 3 1150
315 l 1150 1440 0 6 9 1150
316 l 1152 1440 0 5 3 1152
317 m 1161 1440 1 0 3 1161
318 l 1169 1440 0 9 6 1169
319 l 1170 1440 0 1 3 1170
320 m 1171 1440 6 5 11 1171
321 m 1172 1440 0 3 6 1172
322 l 1175 1440 0 7 7 1175
323 l 1178 1440 0 9 3 1178
324 l 1188 1440 0 9 3 1188
325 l 1194 1440 0 7 5 1194
326 l 1195 1440 0 3 7 1195
327 m 1200 1440 5 3 4 1200
328 l 1205 1440 0 7 4 1205
329 l 1211 1440 0 7 12 1211
330 l 1215 1440 0 5 7 1215
331 l 1220 1440 0 5 12 1220
332 l 1221 1440 0 1 3 1221
333 l 1225 1440 0 8 3 1225
334 l 1231 1440 0 7 11 1231
335 l 1234 1440 0 5 9 1234
336 l 1236 1440 0 2 6 1236
337 l 1238 1440 0 4 9 1238
338 l 1239 1440 0 7 8 1239
339 l 1241 1440 0 8 11 1241
340 l 1244 1440 0 1 3 1244
341 l 1258 1440 0 6 5 1258
342 l 1261 1440 0 3 9 1261
343 l 1270 1440 0 2 7 1270
344 l 1274 1440 0 8 7 1274
345 l 1288 1440 0 8 10 1288
346 l 1290 1440 0 9 7 1290
347 l 1297 1440 0 1 9 1297
348 l 1297 1440 0 6 12 1297
349 l 1299 1440 0 5 10 1299
-m index pos blevel
0 0 500
1 0 500
2 0 500
3 0 500
4 0 500
5 0 500
6 0 500
7 0 500
-s index pos
0 0