nrtasks makespan solvetime timestep
131 484.0 3552.38916302 0
1 28.0 0.000104904174805 481
1 25.0 0.000109910964966 490
1 36.0 0.000105857849121 494
2 26.0 0.0013279914856 502
1 27.0 0.000104904174805 504
1 33.0 0.000108003616333 505
2 22.0 0.00180816650391 506
1 37.0 0.0001060962677 509
1 37.0 0.000114917755127 510
1 49.0 0.000113010406494 518
1 63.0 0.0001060962677 520
1 68.0 0.000104904174805 527
2 21.0 0.00202202796936 528
1 57.0 0.000107049942017 548
1 72.0 0.000107049942017 563
2 30.0 0.00179100036621 568
1 58.0 0.0001060962677 574
2 27.0 0.0022439956665 577
1 37.0 0.000107049942017 581
2 25.0 0.00148296356201 589
1 22.0 0.000119924545288 595
2 17.0 0.00221014022827 598
1 31.0 0.000116109848022 601
1 23.0 0.000108957290649 605
1 49.0 0.000113010406494 606
2 41.0 0.00194787979126 611
2 41.0 0.00213599205017 613
2 41.0 0.00220918655396 624
2 41.0 0.00216007232666 629
3 41.0 0.00351786613464 632
2 41.0 0.0021550655365 634
2 50.0 0.00212407112122 638
3 50.0 0.00243091583252 647
3 50.0 0.00320196151733 652
4 50.0 0.00331401824951 658
1 35.0 0.000117063522339 672
1 39.0 0.000113010406494 685
1 65.0 0.000118017196655 686
2 36.0 0.0025589466095 687
3 47.0 0.00283908843994 692
2 35.0 0.00224781036377 701
2 47.0 0.00218892097473 702
3 47.0 0.00265312194824 705
1 42.0 0.000107049942017 727
2 34.0 0.0024139881134 736
3 36.0 0.00269603729248 739
1 56.0 0.000113010406494 753
1 73.0 0.000123023986816 755
2 45.0 0.00231313705444 764
3 45.0 0.00288200378418 765
3 43.0 0.00265693664551 770
2 56.0 0.00150990486145 771
3 46.0 0.00365996360779 782
3 48.0 0.00245499610901 790
4 60.0 0.0033221244812 792
4 60.0 0.00289702415466 793
5 60.0 0.00296711921692 794
5 60.0 0.00377202033997 797
5 60.0 0.00384211540222 798
4 60.0 0.00379991531372 800
4 60.0 0.00323796272278 811
4 60.0 0.0032799243927 812
4 60.0 0.00334095954895 814
1 59.0 0.000191926956177 833
1 88.0 0.000115871429443 837
2 57.0 0.00192403793335 843
2 57.0 0.00209188461304 845
2 57.0 0.00240588188171 851
4 52.0 0.00368595123291 857
3 56.0 0.00327205657959 859
2 42.0 0.00184988975525 869
2 42.0 0.00205206871033 873
3 42.0 0.00383591651917 874
2 44.0 0.00215888023376 887
2 43.0 0.00194406509399 892
2 46.0 0.00197291374207 910
3 44.0 0.00252199172974 912
3 44.0 0.00243091583252 913
3 44.0 0.00255680084229 916
2 50.0 0.00213813781738 923
2 44.0 0.00213813781738 926
2 53.0 0.00208401679993 930
2 53.0 0.00170683860779 939
2 55.0 0.00167393684387 942
3 65.0 0.00250291824341 946
2 54.0 0.00291609764099 952
2 64.0 0.00252103805542 954
2 68.0 0.00255680084229 960
3 65.0 0.00296092033386 963
3 55.0 0.00258994102478 973
3 53.0 0.0044059753418 976
3 61.0 0.00274682044983 980
3 65.0 0.00249290466309 983
2 57.0 0.00218200683594 985
3 59.0 0.00335693359375 987
3 78.0 0.0024151802063 993
4 78.0 0.00429821014404 998
4 78.0 0.00267887115479 1000
5 79.0 0.00491809844971 1002
1 81.0 0.000118970870972 1020
2 39.0 0.00183796882629 1022
1 81.0 0.000108957290649 1036
2 36.0 0.0019052028656 1043
2 44.0 0.00196695327759 1049
2 35.0 0.00182414054871 1054
1 86.0 0.000112056732178 1073
1 89.0 0.000125885009766 1085
1 113.0 0.000113964080811 1086
2 35.0 0.00235414505005 1093
3 72.0 0.00251483917236 1096
4 72.0 0.00404500961304 1098
5 76.0 0.00414109230042 1100
4 75.0 0.00332283973694 1104
5 75.0 0.00363302230835 1107
4 75.0 0.0028088092804 1114
4 75.0 0.00420808792114 1116
4 75.0 0.00347185134888 1119
4 79.0 0.00333499908447 1124
4 75.0 0.00292801856995 1131
3 69.0 0.00268602371216 1139
3 77.0 0.00247406959534 1140
3 85.0 0.00248193740845 1141
2 56.0 0.00201606750488 1159
3 65.0 0.00338888168335 1160
3 72.0 0.00298500061035 1170
3 74.0 0.00272393226624 1175
4 68.0 0.00260019302368 1181
6 75.0 0.00991010665894 1183
4 56.0 0.0028989315033 1193
4 65.0 0.00344085693359 1200
4 77.0 0.00321888923645 1201
3 44.0 0.00228404998779 1217
4 79.0 0.00368094444275 1221
2 36.0 0.00173497200012 1225
3 39.0 0.00287413597107 1228
4 73.0 0.00360894203186 1229
1 92.0 0.000125885009766 1252
1 95.0 0.000113010406494 1262
2 18.0 0.00198793411255 1268
1 100.0 0.000107049942017 1269
1 127.0 0.000133037567139 1273
2 38.0 0.00218200683594 1274
2 38.0 0.0022120475769 1276
2 38.0 0.0023078918457 1281
3 47.0 0.00268983840942 1286
3 51.0 0.0029559135437 1288
3 62.0 0.00321507453918 1296
3 55.0 0.00247406959534 1299
3 64.0 0.00248384475708 1303
1 122.0 0.000139951705933 1327
2 50.0 0.00213694572449 1342
2 50.0 0.00202107429504 1343
2 40.0 0.00192594528198 1353
2 59.0 0.00205707550049 1356
