task entry start wait
0 0 22 22
1 0 178 178
2 0 48 48
3 0 147 147
4 0 156 156
5 0 34 34
6 0 169 169
7 0 40 40
8 0 0 0
9 0 101 101
10 0 87 87
11 0 112 112
12 0 16 16
13 0 0 0
14 0 148 148
15 0 96 96
16 0 89 89
17 0 105 105
18 0 28 28
19 0 124 124
20 0 47 47
21 0 152 152
22 0 0 0
23 0 0 0
24 0 0 0
25 0 110 110
26 0 25 25
27 0 79 79
28 0 40 40
29 0 12 12
30 0 153 153
31 0 145 145
32 0 151 151
33 0 191 191
34 0 53 53
35 0 80 80
36 0 163 163
37 0 162 162
38 0 6 6
39 0 137 137
40 0 18 18
41 0 61 61
42 0 141 141
43 0 170 170
44 0 107 107
45 0 150 150
46 0 0 0
47 0 34 34
48 0 25 25
49 0 139 139
50 0 118 118
51 0 105 105
52 0 107 107
53 0 92 92
54 0 94 94
55 0 115 115
56 0 23 23
57 0 70 70
58 0 97 97
59 0 20 20
60 0 33 33
61 0 45 45
62 0 156 156
63 0 119 119
64 0 98 98
65 0 13 13
66 0 149 149
67 0 170 170
68 0 196 196
69 0 58 58
70 0 118 118
71 0 157 157
72 0 81 81
73 0 25 25
74 0 147 147
75 0 106 106
76 0 61 61
77 0 143 143
78 0 130 130
79 0 101 101
80 0 156 156
81 0 0 0
82 0 49 49
83 0 101 101
84 0 28 28
85 0 23 23
86 0 69 69
87 0 73 73
88 0 74 74
89 0 67 67
90 0 178 178
91 0 48 48
92 0 43 43
93 0 122 122
94 0 90 90
95 0 130 130
96 0 90 90
97 0 180 180
98 0 72 72
99 0 187 187
100 0 38 38
101 0 46 46
102 0 59 59
103 0 137 137
104 0 59 59
105 0 134 134
106 0 120 120
107 0 143 143
108 0 118 118
109 0 85 85
110 0 161 161
111 0 12 12
112 0 150 150
113 0 120 120
114 0 71 71
115 0 87 87
116 0 0 0
117 0 138 138
118 0 52 52
119 0 159 159
120 0 135 135
121 0 17 17
122 0 88 88
123 0 34 34
124 0 138 138
125 0 89 89
126 0 77 77
127 0 9 9
128 0 164 164
129 0 76 76
130 0 31 31
131 481 481 0
132 490 490 0
133 494 494 0
134 502 502 0
135 502 502 0
136 504 504 0
137 505 505 0
138 506 506 0
139 509 509 0
140 510 510 0
141 518 518 0
142 520 520 0
143 527 527 0
144 528 528 0
145 548 548 0
146 563 564 1
147 568 568 0
148 574 574 0
149 577 577 0
150 581 581 0
151 589 589 0
152 595 595 0
153 598 598 0
154 601 601 0
155 605 605 0
156 606 658 52
157 611 611 0
158 613 613 0
159 624 639 15
160 629 638 9
161 632 638 6
162 632 632 0
163 634 700 66
164 638 658 20
165 647 647 0
166 652 652 0
167 658 658 0
168 658 658 0
169 672 685 13
170 685 689 4
171 686 705 19
172 687 764 77
173 692 692 0
174 692 692 0
175 701 701 0
176 702 708 6
177 705 705 0
178 727 814 87
179 736 878 142
180 739 782 43
181 753 753 0
182 755 755 0
183 764 814 50
184 765 765 0
185 770 770 0
186 771 814 43
187 782 833 51
188 790 792 2
189 792 793 1
190 792 814 22
191 793 831 38
192 794 873 79
193 794 797 3
194 797 798 1
195 798 798 0
196 800 800 0
197 811 812 1
198 812 862 50
199 814 814 0
200 833 845 12
201 837 903 66
202 843 939 96
203 845 865 20
204 851 887 36
205 857 872 15
206 857 859 2
207 859 892 33
208 869 892 23
209 873 873 0
210 874 876 2
211 887 887 0
212 892 892 0
213 910 1002 92
214 910 952 42
215 912 962 50
216 913 997 84
217 916 942 26
218 923 967 44
219 926 926 0
220 930 942 12
221 939 952 13
222 942 952 10
223 946 949 3
224 946 946 0
225 952 952 0
226 954 954 0
227 960 960 0
228 963 976 13
229 973 978 5
230 976 982 6
231 980 983 3
232 983 987 4
233 985 985 0
234 987 1002 15
235 993 1002 9
236 998 998 0
237 1000 1002 2
238 1002 1002 0
239 1020 1022 2
240 1022 1022 0
241 1036 1100 64
242 1043 1084 41
243 1043 1096 53
244 1049 1100 51
245 1054 1114 60
246 1073 1107 34
247 1085 1373 288
248 1086 1201 115
249 1093 1131 38
250 1096 1245 149
251 1098 1098 0
252 1100 1119 19
253 1100 1170 70
254 1104 1231 127
255 1107 1107 0
256 1114 1139 25
257 1116 1116 0
258 1119 1131 12
259 1124 1124 0
260 1131 1203 72
261 1139 1223 84
262 1140 1201 61
263 1141 1201 60
264 1159 1210 51
265 1160 1327 167
266 1170 1228 58
267 1170 1398 228
268 1175 1223 48
269 1181 1181 0
270 1183 1228 45
271 1183 1200 17
272 1193 1238 45
273 1200 1229 29
274 1201 1411 210
275 1217 1221 4
276 1221 1225 4
277 1225 1234 9
278 1228 1262 34
279 1229 1249 20
280 1252 1330 78
281 1262 1348 86
282 1268 1276 8
283 1268 1272 4
284 1269 1425 156
285 1273 1356 83
286 1274 1322 48
287 1276 1286 10
288 1281 1303 22
289 1286 1342 56
290 1288 1366 78
291 1296 1343 47
292 1299 1342 43
293 1303 1321 18
294 1327 1327 0
295 1342 1342 0
296 1342 1387 45
297 1343 1355 12
298 1353 1353 0
299 1356 1356 0
