task entry start wait
0 0 53 53
1 0 0 0
2 0 0 0
3 0 0 0
4 0 0 0
5 0 133 133
6 0 40 40
7 0 179 179
8 0 28 28
9 0 65 65
10 0 92 92
11 0 189 189
12 0 136 136
13 0 24 24
14 0 106 106
15 0 66 66
16 0 125 125
17 0 109 109
18 0 53 53
19 0 46 46
20 0 121 121
21 0 143 143
22 0 35 35
23 0 91 91
24 0 117 117
25 0 15 15
26 0 59 59
27 0 115 115
28 0 0 0
29 0 33 33
30 0 50 50
31 0 0 0
32 0 84 84
33 0 105 105
34 0 38 38
35 0 0 0
36 0 29 29
37 0 149 149
38 0 98 98
39 0 104 104
40 0 143 143
41 0 88 88
42 0 61 61
43 0 0 0
44 491 491 0
45 493 493 0
46 525 525 0
47 527 527 0
48 535 535 0
49 570 584 14
50 574 574 0
51 592 592 0
52 597 597 0
53 657 657 0
54 699 699 0
55 700 700 0
56 707 714 7
57 710 710 0
58 715 727 12
59 720 720 0
60 727 727 0
61 746 746 0
62 753 753 0
63 769 769 0
64 788 788 0
65 790 790 0
66 793 793 0
67 797 797 0
68 823 823 0
69 823 823 0
70 855 855 0
71 868 868 0
72 875 875 0
73 930 974 44
74 942 1029 87
75 970 1003 33
76 1003 1016 13
77 1014 1016 2
78 1016 1042 26
79 1029 1052 23
80 1042 1042 0
81 1079 1115 36
82 1094 1199 105
83 1094 1139 45
84 1102 1197 95
85 1106 1112 6
86 1112 1115 3
87 1115 1157 42
88 1130 1169 39
89 1169 1169 0
90 1199 1291 92
91 1203 1248 45
92 1216 1324 108
93 1223 1270 47
94 1248 1328 80
95 1256 1346 90
96 1270 1274 4
97 1280 1280 0
98 1324 1324 0
99 1328 1368 40
