task entry start wait
0 0 67 67
1 0 0 0
2 0 238 238
3 0 25 25
4 0 218 218
5 0 139 139
6 0 26 26
7 0 89 89
8 0 164 164
9 0 28 28
10 0 11 11
11 0 199 199
12 0 21 21
13 0 173 173
14 0 112 112
15 0 195 195
16 0 169 169
17 0 189 189
18 0 85 85
19 0 127 127
20 0 166 166
21 0 6 6
22 0 191 191
23 0 232 232
24 0 149 149
25 0 109 109
26 0 46 46
27 0 220 220
28 0 80 80
29 0 144 144
30 0 39 39
31 0 201 201
32 0 125 125
33 0 20 20
34 0 113 113
35 0 125 125
36 0 208 208
37 0 17 17
38 0 174 174
39 0 197 197
40 0 0 0
41 0 199 199
42 0 42 42
43 0 54 54
44 0 121 121
45 0 168 168
46 0 181 181
47 0 208 208
48 0 130 130
49 0 140 140
50 0 220 220
51 0 55 55
52 0 82 82
53 0 76 76
54 0 0 0
55 0 125 125
56 0 175 175
57 0 46 46
58 0 143 143
59 0 43 43
60 0 128 128
61 0 108 108
62 0 164 164
63 0 237 237
64 0 186 186
65 0 122 122
66 0 64 64
67 0 0 0
68 0 190 190
69 0 90 90
70 0 101 101
71 0 243 243
72 0 0 0
73 0 66 66
74 0 151 151
75 0 155 155
76 0 129 129
77 0 218 218
78 0 66 66
79 0 242 242
80 0 0 0
81 0 54 54
82 0 209 209
83 0 153 153
84 0 24 24
85 0 133 133
86 0 137 137
87 0 229 229
88 0 48 48
89 0 11 11
90 0 89 89
91 0 204 204
92 0 229 229
93 0 143 143
94 0 0 0
95 0 155 155
96 0 93 93
97 0 241 241
98 0 107 107
99 0 21 21
100 0 38 38
101 0 164 164
102 0 35 35
103 0 209 209
104 0 62 62
105 0 99 99
106 0 70 70
107 0 38 38
108 0 146 146
109 0 62 62
110 0 33 33
111 0 164 164
112 0 11 11
113 0 84 84
114 0 77 77
115 0 0 0
116 0 18 18
117 0 106 106
118 0 229 229
119 0 89 89
120 0 208 208
121 0 69 69
122 0 233 233
123 0 55 55
124 0 220 220
125 0 48 48
126 0 110 110
127 0 182 182
128 0 245 245
129 0 89 89
130 0 100 100
131 481 481 0
132 490 490 0
133 494 494 0
134 502 502 0
135 502 502 0
136 504 504 0
137 505 505 0
138 506 506 0
139 509 509 0
140 510 510 0
141 518 518 0
142 520 520 0
143 527 527 0
144 528 528 0
145 548 548 0
146 563 563 0
147 568 568 0
148 574 574 0
149 577 577 0
150 581 581 0
151 589 589 0
152 595 595 0
153 598 598 0
154 601 601 0
155 605 605 0
156 606 658 52
157 611 611 0
158 613 613 0
159 624 624 0
160 629 629 0
161 632 632 0
162 632 632 0
163 634 634 0
164 638 658 20
165 647 647 0
166 652 652 0
167 658 658 0
168 658 658 0
169 672 672 0
170 685 685 0
171 686 705 19
172 687 687 0
173 692 692 0
174 692 692 0
175 701 701 0
176 702 705 3
177 705 705 0
178 727 0 -727
179 736 736 0
180 739 739 0
181 753 753 0
182 755 755 0
183 764 814 50
184 765 765 0
185 770 770 0
186 771 814 43
187 782 782 0
188 790 790 0
189 792 792 0
190 792 814 22
191 793 793 0
192 794 794 0
193 794 794 0
194 797 798 1
195 798 798 0
196 800 800 0
197 811 811 0
198 812 812 0
199 814 814 0
200 833 833 0
201 837 892 55
202 843 843 0
203 845 845 0
204 851 851 0
205 857 857 0
206 857 857 0
207 859 859 0
208 869 869 0
209 873 873 0
210 874 874 0
211 887 887 0
212 892 892 0
213 910 1002 92
214 910 913 3
215 912 912 0
216 913 913 0
217 916 916 0
218 923 923 0
219 926 926 0
220 930 930 0
221 939 939 0
222 942 942 0
223 946 946 0
224 946 946 0
225 952 952 0
226 954 954 0
227 960 960 0
228 963 963 0
229 973 973 0
230 976 976 0
231 980 980 0
232 983 983 0
233 985 985 0
234 987 1002 15
235 993 1002 9
236 998 998 0
237 1000 1002 2
238 1002 1002 0
239 1020 1022 2
240 1022 1022 0
241 1036 1036 0
242 1043 1043 0
243 1043 1043 0
244 1049 1049 0
245 1054 1054 0
246 1073 1073 0
247 1085 1085 0
248 1086 0 -1086
249 1093 1131 38
250 1096 1107 11
251 1098 1098 0
252 1100 1100 0
253 1100 1100 0
254 1104 1141 37
255 1107 1107 0
256 1114 1114 0
257 1116 1116 0
258 1119 1119 0
259 1124 1124 0
260 1131 1131 0
261 1139 1139 0
262 1140 1140 0
263 1141 1141 0
264 1159 1159 0
265 1160 1160 0
266 1170 1170 0
267 1170 1170 0
268 1175 1175 0
269 1181 0 -1181
270 1183 1183 0
271 1183 1183 0
272 1193 1193 0
273 1200 1200 0
274 1201 1201 0
275 1217 1217 0
276 1221 1221 0
277 1225 1225 0
278 1228 1228 0
279 1229 1229 0
280 1252 1252 0
281 1262 1262 0
282 1268 1268 0
283 1268 1268 0
284 1269 1269 0
285 1273 1303 30
286 1274 1274 0
287 1276 1276 0
288 1281 1303 22
289 1286 1286 0
290 1288 1288 0
291 1296 1296 0
292 1299 1299 0
293 1303 1303 0
294 1327 1327 0
295 1342 1342 0
296 1342 1343 1
297 1343 1343 0
298 1353 1353 0
299 1356 1356 0
