task entry start wait
0 0 22 22
1 0 184 184
2 0 48 48
3 0 147 147
4 0 156 156
5 0 34 34
6 0 179 179
7 0 40 40
8 0 8 8
9 0 106 106
10 0 91 91
11 0 114 114
12 0 18 18
13 0 14 14
14 0 148 148
15 0 102 102
16 0 89 89
17 0 111 111
18 0 38 38
19 0 124 124
20 0 51 51
21 0 152 152
22 0 13 13
23 0 14 14
24 0 3 3
25 0 110 110
26 0 25 25
27 0 79 79
28 0 40 40
29 0 12 12
30 0 153 153
31 0 154 154
32 0 151 151
33 0 199 199
34 0 57 57
35 0 80 80
36 0 163 163
37 0 170 170
38 0 6 6
39 0 137 137
40 0 18 18
41 0 75 75
42 0 141 141
43 0 170 170
44 0 113 113
45 0 150 150
46 0 8 8
47 0 34 34
48 0 25 25
49 0 139 139
50 0 127 127
51 0 105 105
52 0 111 111
53 0 92 92
54 0 97 97
55 0 123 123
56 0 23 23
57 0 70 70
58 0 97 97
59 0 22 22
60 0 41 41
61 0 47 47
62 0 156 156
63 0 129 129
64 0 98 98
65 0 13 13
66 0 155 155
67 0 174 174
68 0 204 204
69 0 73 73
70 0 126 126
71 0 157 157
72 0 81 81
73 0 33 33
74 0 147 147
75 0 110 110
76 0 61 61
77 0 143 143
78 0 130 130
79 0 107 107
80 0 158 158
81 0 3 3
82 0 49 49
83 0 101 101
84 0 34 34
85 0 23 23
86 0 71 71
87 0 78 78
88 0 76 76
89 0 67 67
90 0 188 188
91 0 50 50
92 0 57 57
93 0 135 135
94 0 90 90
95 0 132 132
96 0 90 90
97 0 192 192
98 0 83 83
99 0 187 187
100 0 38 38
101 0 51 51
102 0 65 65
103 0 140 140
104 0 64 64
105 0 134 134
106 0 120 120
107 0 143 143
108 0 132 132
109 0 85 85
110 0 161 161
111 0 12 12
112 0 155 155
113 0 120 120
114 0 75 75
115 0 93 93
116 0 8 8
117 0 140 140
118 0 65 65
119 0 168 168
120 0 135 135
121 0 19 19
122 0 98 98
123 0 42 42
124 0 138 138
125 0 94 94
126 0 77 77
127 0 18 18
128 0 169 169
129 0 84 84
130 0 31 31
131 481 481 0
132 490 490 0
133 494 496 2
134 502 502 0
135 502 502 0
136 504 504 0
137 505 505 0
138 506 506 0
139 509 509 0
140 510 510 0
141 518 518 0
142 520 520 0
143 527 527 0
144 528 528 0
145 548 548 0
146 563 564 1
147 568 568 0
148 574 576 2
149 577 577 0
150 581 581 0
151 589 589 0
152 595 595 0
153 598 598 0
154 601 601 0
155 605 605 0
156 606 672 66
157 611 611 0
158 613 613 0
159 624 639 15
160 629 638 9
161 632 640 8
162 632 634 2
163 634 700 66
164 638 672 34
165 647 647 0
166 652 652 0
167 658 658 0
168 658 658 0
169 672 685 13
170 685 689 4
171 686 718 32
172 687 764 77
173 692 697 5
174 692 701 9
175 701 701 0
176 702 721 19
177 705 705 0
178 727 824 97
179 736 878 142
180 739 782 43
181 753 753 0
182 755 755 0
183 764 827 63
184 765 769 4
185 770 770 0
186 771 828 57
187 782 833 51
188 790 792 2
189 792 793 1
190 792 828 36
191 793 833 40
192 794 873 79
193 794 797 3
194 797 800 3
195 798 798 0
196 800 803 3
197 811 812 1
198 812 862 50
199 814 814 0
200 833 845 12
201 837 909 72
202 843 939 96
203 845 865 20
204 851 887 36
205 857 872 15
206 857 859 2
207 859 892 33
208 869 892 23
209 873 873 0
210 874 876 2
211 887 887 0
212 892 892 0
213 910 1015 105
214 910 952 42
215 912 962 50
216 913 997 84
217 916 942 26
218 923 967 44
219 926 926 0
220 930 942 12
221 939 952 13
222 942 952 10
223 946 949 3
224 946 946 0
225 952 952 0
226 954 954 0
227 960 960 0
228 963 976 13
229 973 978 5
230 976 982 6
231 980 983 3
232 983 987 4
233 985 985 0
234 987 1016 29
235 993 1016 23
236 998 998 0
237 1000 1016 16
238 1002 1015 13
239 1020 1030 10
240 1022 1022 0
241 1036 1100 64
242 1043 1084 41
243 1043 1096 53
244 1049 1100 51
245 1054 1114 60
246 1073 1107 34
247 1085 1377 292
248 1086 1214 128
249 1093 1139 46
250 1096 1245 149
251 1098 1098 0
252 1100 1119 19
253 1100 1170 70
254 1104 1241 137
255 1107 1107 0
256 1114 1139 25
257 1116 1116 0
258 1119 1131 12
259 1124 1124 0
260 1131 1203 72
261 1139 1223 84
262 1140 1201 61
263 1141 1215 74
264 1159 1213 54
265 1160 1327 167
266 1170 1228 58
267 1170 1401 231
268 1175 1223 48
269 1181 1183 2
270 1183 1228 45
271 1183 1200 17
272 1193 1242 49
273 1200 1229 29
274 1201 1414 213
275 1217 1221 4
276 1221 1225 4
277 1225 1234 9
278 1228 1262 34
279 1229 1249 20
280 1252 1332 80
281 1262 1348 86
282 1268 1276 8
283 1268 1272 4
284 1269 1429 160
285 1273 1369 96
286 1274 1322 48
287 1276 1286 10
288 1281 1317 36
289 1286 1342 56
290 1288 1366 78
291 1296 1343 47
292 1299 1342 43
293 1303 1326 23
294 1327 1327 0
295 1342 1342 0
296 1342 1387 45
297 1343 1355 12
298 1353 1353 0
299 1356 1360 4
