task entry start wait
0 0 160 160
1 0 160 160
2 0 160 160
3 0 160 160
4 0 128 128
5 0 128 128
6 0 128 128
7 0 128 128
8 0 128 128
9 0 128 128
10 0 128 128
11 0 128 128
12 0 96 96
13 0 96 96
14 0 96 96
15 0 96 96
16 0 96 96
17 0 96 96
18 0 96 96
19 0 96 96
20 0 64 64
21 0 64 64
22 0 64 64
23 0 64 64
24 0 64 64
25 0 64 64
26 0 64 64
27 0 64 64
28 0 32 32
29 0 32 32
30 0 32 32
31 0 32 32
32 0 32 32
33 0 32 32
34 0 32 32
35 0 32 32
36 0 0 0
37 0 0 0
38 0 0 0
39 0 0 0
40 0 0 0
41 0 0 0
42 0 0 0
43 0 0 0
44 503 503 0
45 556 556 0
46 560 560 0
47 563 563 0
48 593 593 0
49 614 614 0
50 624 624 0
51 625 625 0
52 639 639 0
53 642 642 0
54 650 650 0
55 666 666 0
56 674 674 0
57 702 702 0
58 720 720 0
59 720 720 0
60 753 753 0
61 764 764 0
62 778 778 0
63 803 803 0
64 810 810 0
65 841 841 0
66 842 842 0
67 869 869 0
68 884 884 0
69 895 895 0
70 936 936 0
71 949 949 0
72 950 950 0
73 952 952 0
74 959 959 0
75 977 977 0
76 998 998 0
77 1004 1004 0
78 1009 1009 0
79 1013 1013 0
80 1015 1015 0
81 1024 1024 0
82 1025 1025 0
83 1044 1044 0
84 1088 1088 0
85 1104 1104 0
86 1105 1105 0
87 1113 1113 0
88 1146 1146 0
89 1192 1192 0
90 1205 1205 0
91 1227 1227 0
92 1249 1249 0
93 1255 1255 0
94 1279 1279 0
95 1289 1289 0
96 1292 1292 0
97 1316 1316 0
98 1334 1334 0
99 1336 1336 0
