bp_tests-off3-sam1000o1-part-startsol-time60m.txt
\begin{landscape}
\begin{table}[H]
\centering
\caption{Table showing the results from running the heuristic set partitioning model on instances with varying sets of columns. These runs used a makespan objective function. The schedule generation phase was done using sampling. }
\label{sphperf}
\begin{tabular}{|l|l|l|l|l|l|l|l|l|}
\hline
Vehicles & Tasks & \#Cols & Tasklimits & \#St & \#Ov & CG Time & Solve Time & Obj.\\ \hline 
5 & 10 & 970 & (1.0, 3.0) & 1 & 3 & 0.1986 & 0.021 & 162.0\\ \hline 
5 & 15 & 1000 & (2.0, 4.0) & 1 & 3 & 0.5375 & 0.172 & 208.0\\ \hline 
5 & 20 & 1000 & (3.0, 5.0) & 1 & 3 & 0.7781 & 1.3217 & 317.0\\ \hline 
5 & 25 & 1000 & (4.0, 6.0) & 1 & 3 & 1.2468 & - & -\\ \hline 
10 & 15 & 2000 & (1.0, 3.0) & 1 & 5 & 0.676 & 0.0444 & 124.0\\ \hline 
10 & 20 & 2000 & (1.0, 3.0) & 1 & 5 & 0.4098 & 0.0452 & 83.0\\ \hline 
10 & 25 & 2000 & (2.0, 4.0) & 1 & 5 & 3.5553 & - & -\\ \hline 
\end{tabular}
\end{table}
\end{landscape}
bp_tests-off3-sam200o1-part-startsol-time60m-makespan.txt
\begin{landscape}
\begin{table}[H]
\centering
\caption{Table showing the results from running the heuristic set partitioning model on instances with varying sets of columns. These runs used a makespan objective function. The schedule generation phase was done using sampling. }
\label{sphperf}
\begin{tabular}{|l|l|l|l|l|l|l|l|l|}
\hline
Vehicles & Tasks & \#Cols & Tasklimits & \#St & \#Ov & CG Time & Solve Time & Obj.\\ \hline 
5 & 10 & 1450 & (1.0, 3.0) & 1 & 3 & 0.4449 & 0.0219 & 162.0\\ \hline 
5 & 15 & 1500 & (2.0, 4.0) & 1 & 3 & 1.1118 & 0.1159 & 207.0\\ \hline 
5 & 20 & 1500 & (3.0, 5.0) & 1 & 3 & 1.9084 & 1.2227 & 291.0\\ \hline 
5 & 25 & 1500 & (4.0, 6.0) & 1 & 3 & 2.8634 & 17.5199 & 507.0\\ \hline 
10 & 15 & 3000 & (1.0, 3.0) & 1 & 5 & 1.5252 & 0.0592 & 124.0\\ \hline 
10 & 20 & 3000 & (1.0, 3.0) & 1 & 5 & 0.9475 & 0.1566 & 82.0\\ \hline 
10 & 25 & 3000 & (2.0, 4.0) & 1 & 5 & 6.9388 & - & -\\ \hline 
\end{tabular}
\end{table}
\end{landscape}
bp_tests-off3-sam300o1-part-startsol-time60m-makespan.txt
\begin{landscape}
\begin{table}[H]
\centering
\caption{Table showing the results from running the heuristic set partitioning model on instances with varying sets of columns. These runs used a makespan objective function. The schedule generation phase was done using sampling. }
\label{sphperf}
\begin{tabular}{|l|l|l|l|l|l|l|l|l|}
\hline
Vehicles & Tasks & \#Cols & Tasklimits & \#St & \#Ov & CG Time & Solve Time & Obj.\\ \hline 
5 & 10 & 2405 & (1.0, 3.0) & 1 & 3 & 1.2509 & 0.0377 & 162.0\\ \hline 
5 & 15 & 2500 & (2.0, 4.0) & 1 & 3 & 3.0851 & 0.2464 & 207.0\\ \hline 
5 & 20 & 2500 & (3.0, 5.0) & 1 & 3 & 5.5198 & 1.817 & 282.0\\ \hline 
5 & 25 & 2500 & (4.0, 6.0) & 1 & 3 & 8.0709 & 6.9925 & 411.0\\ \hline 
10 & 15 & 5000 & (1.0, 3.0) & 1 & 5 & 4.0795 & 0.077 & 124.0\\ \hline 
10 & 20 & 5000 & (1.0, 3.0) & 1 & 5 & 2.8171 & 0.2259 & 82.0\\ \hline 
10 & 25 & 5000 & (2.0, 4.0) & 1 & 5 & 21.4436 & - & -\\ \hline 
\end{tabular}
\end{table}
\end{landscape}
bp_tests-off3-sam500o1-part-startsol-time60m-makespan.txt
\begin{landscape}
\begin{table}[H]
\centering
\caption{Table showing the results from running the heuristic set partitioning model on instances with varying sets of columns. These runs used a makespan objective function. The schedule generation phase was done using sampling. }
\label{sphperf}
\begin{tabular}{|l|l|l|l|l|l|l|l|l|}
\hline
Vehicles & Tasks & \#Cols & Tasklimits & \#St & \#Ov & CG Time & Solve Time & Obj.\\ \hline 
5 & 10 & 4840 & (1.0, 3.0) & 1 & 3 & 5.2402 & 0.0395 & 162.0\\ \hline 
5 & 15 & 5000 & (2.0, 4.0) & 1 & 3 & 11.6265 & 0.3272 & 207.0\\ \hline 
5 & 20 & 5000 & (3.0, 5.0) & 1 & 3 & 21.682 & 0.8386 & 282.0\\ \hline 
5 & 25 & 5000 & (4.0, 6.0) & 1 & 3 & 33.5579 & 23.3146 & 387.0\\ \hline 
10 & 15 & 10000 & (1.0, 3.0) & 1 & 5 & 22.6309 & 0.1795 & 124.0\\ \hline 
10 & 20 & 10000 & (1.0, 3.0) & 1 & 5 & 13.2818 & 0.4776 & 79.0\\ \hline 
10 & 25 & 10000 & (2.0, 4.0) & 1 & 5 & 85.7594 & - & -\\ \hline 
\end{tabular}
\end{table}
\end{landscape}
bp_tests-off3-sam1000o1-part-startsol-time60m-makespan.txt
\begin{landscape}
\begin{table}[H]
\centering
\caption{Table showing the results from running the heuristic set partitioning model on instances with varying sets of columns. These runs used a makespan objective function. The schedule generation phase was done using sampling. }
\label{sphperf}
\begin{tabular}{|l|l|l|l|l|l|l|l|l|}
\hline
Vehicles & Tasks & \#Cols & Tasklimits & \#St & \#Ov & CG Time & Solve Time & Obj.\\ \hline 
5 & 10 & 970 & (1.0, 3.0) & 1 & 3 & 0.2095 & 0.0233 & 162.0\\ \hline 
5 & 15 & 1000 & (2.0, 4.0) & 1 & 3 & 0.5959 & 0.2234 & 208.0\\ \hline 
5 & 20 & 1000 & (3.0, 5.0) & 1 & 3 & 0.884 & 1.7511 & 317.0\\ \hline 
5 & 25 & 1000 & (4.0, 6.0) & 1 & 3 & 1.35 & - & -\\ \hline 
10 & 15 & 2000 & (1.0, 3.0) & 1 & 5 & 0.7426 & 0.0474 & 124.0\\ \hline 
10 & 20 & 2000 & (1.0, 3.0) & 1 & 5 & 0.4419 & 0.0494 & 83.0\\ \hline 
10 & 25 & 2000 & (2.0, 4.0) & 1 & 5 & 3.8932 & - & -\\ \hline 
\end{tabular}
\end{table}
\end{landscape}
NEWSEED
bp_tests-off3-sam1000o1-part-startsol-time60m.txt
\begin{landscape}
\begin{table}[H]
\centering
\caption{Table showing the results from running the heuristic set partitioning model on instances with varying sets of columns. These runs used a makespan objective function. The schedule generation phase was done using sampling. }
\label{sphperf}
\begin{tabular}{|l|l|l|l|l|l|l|l|l|}
\hline
Vehicles & Tasks & \#Cols & Tasklimits & \#St & \#Ov & CG Time & Solve Time & Obj.\\ \hline 
5 & 10 & 970 & (1.0, 3.0) & 1 & 3 & 0.2014 & 0.0221 & 162.0\\ \hline 
5 & 15 & 1000 & (2.0, 4.0) & 1 & 3 & 0.5344 & 0.1651 & 208.0\\ \hline 
5 & 20 & 1000 & (3.0, 5.0) & 1 & 3 & 0.773 & 1.182 & 317.0\\ \hline 
5 & 25 & 1000 & (4.0, 6.0) & 1 & 3 & 1.2434 & - & -\\ \hline 
10 & 15 & 2000 & (1.0, 3.0) & 1 & 5 & 0.676 & 0.0429 & 124.0\\ \hline 
10 & 20 & 2000 & (1.0, 3.0) & 1 & 5 & 0.408 & 0.0425 & 83.0\\ \hline 
10 & 25 & 2000 & (2.0, 4.0) & 1 & 5 & 3.555 & - & -\\ \hline 
\end{tabular}
\end{table}
\end{landscape}
bp_tests-off3-sam1000o1-part-startsol-time60m.txt
\begin{landscape}
\begin{table}[H]
\centering
\caption{Table showing the results from running the heuristic set partitioning model on instances with varying sets of columns. These runs used a makespan objective function. The schedule generation phase was done using sampling. }
\label{sphperf}
\begin{tabular}{|l|l|l|l|l|l|l|l|l|}
\hline
Vehicles & Tasks & \#Cols & Tasklimits & \#St & \#Ov & CG Time & Solve Time & Obj.\\ \hline 
5 & 10 & 965 & (1.0, 3.0) & 1 & 3 & 0.1985 & 0.0189 & 162.0\\ \hline 
5 & 15 & 1000 & (2.0, 4.0) & 1 & 3 & 0.484 & 0.2112 & 208.0\\ \hline 
5 & 20 & 1000 & (3.0, 5.0) & 1 & 3 & 0.756 & 0.9105 & 291.0\\ \hline 
5 & 25 & 1000 & (4.0, 6.0) & 1 & 3 & 1.0869 & - & -\\ \hline 
10 & 15 & 2000 & (1.0, 3.0) & 1 & 5 & 0.6563 & 0.0465 & 124.0\\ \hline 
10 & 20 & 2000 & (1.0, 3.0) & 1 & 5 & 0.3846 & 0.1667 & 82.0\\ \hline 
10 & 25 & 2000 & (2.0, 4.0) & 1 & 5 & 3.045 & - & -\\ \hline 
\end{tabular}
\end{table}
\end{landscape}
bp_tests-off3-sam1000o1-part-startsol-time60m.txt
\begin{landscape}
\begin{table}[H]
\centering
\caption{Table showing the results from running the heuristic set partitioning model on instances with varying sets of columns. These runs used a makespan objective function. The schedule generation phase was done using sampling. }
\label{sphperf}
\begin{tabular}{|l|l|l|l|l|l|l|l|l|}
\hline
Vehicles & Tasks & \#Cols & Tasklimits & \#St & \#Ov & CG Time & Solve Time & Obj.\\ \hline 
5 & 10 & 970 & (1.0, 3.0) & 1 & 3 & 0.3057 & 0.0181 & 162.0\\ \hline 
5 & 15 & 1000 & (2.0, 4.0) & 1 & 3 & 0.4758 & 0.0692 & 207.0\\ \hline 
5 & 20 & 1000 & (3.0, 5.0) & 1 & 3 & 0.8767 & 0.419 & 282.0\\ \hline 
5 & 25 & 1000 & (4.0, 6.0) & 1 & 3 & 1.4947 & - & -\\ \hline 
10 & 15 & 2000 & (1.0, 3.0) & 1 & 5 & 0.9203 & 0.0469 & 124.0\\ \hline 
10 & 20 & 2000 & (1.0, 3.0) & 1 & 5 & 0.4115 & 0.1113 & 82.0\\ \hline 
10 & 25 & 2000 & (2.0, 4.0) & 1 & 5 & 3.4053 & - & -\\ \hline 
\end{tabular}
\end{table}
\end{landscape}
NEWSEED
bp_tests-off3-sam200o1-part-startsol-time60m-makespan.txt
\begin{landscape}
\begin{table}[H]
\centering
\caption{Table showing the results from running the heuristic set partitioning model on instances with varying sets of columns. These runs used a makespan objective function. The schedule generation phase was done using sampling. }
\label{sphperf}
\begin{tabular}{|l|l|l|l|l|l|l|l|l|}
\hline
Vehicles & Tasks & \#Cols & Tasklimits & \#St & \#Ov & CG Time & Solve Time & Obj.\\ \hline 
5 & 10 & 1450 & (1.0, 3.0) & 1 & 3 & 0.4441 & 0.0223 & 162.0\\ \hline 
5 & 15 & 1500 & (2.0, 4.0) & 1 & 3 & 1.1074 & 0.1174 & 207.0\\ \hline 
5 & 20 & 1500 & (3.0, 5.0) & 1 & 3 & 1.9025 & 1.0821 & 291.0\\ \hline 
5 & 25 & 1500 & (4.0, 6.0) & 1 & 3 & 2.8597 & 13.0098 & 507.0\\ \hline 
10 & 15 & 3000 & (1.0, 3.0) & 1 & 5 & 1.4882 & 0.0573 & 124.0\\ \hline 
10 & 20 & 3000 & (1.0, 3.0) & 1 & 5 & 0.9458 & 0.1565 & 82.0\\ \hline 
10 & 25 & 3000 & (2.0, 4.0) & 1 & 5 & 6.9406 & - & -\\ \hline 
\end{tabular}
\end{table}
\end{landscape}
bp_tests-off3-sam200o1-part-startsol-time60m-makespan.txt
\begin{landscape}
\begin{table}[H]
\centering
\caption{Table showing the results from running the heuristic set partitioning model on instances with varying sets of columns. These runs used a makespan objective function. The schedule generation phase was done using sampling. }
\label{sphperf}
\begin{tabular}{|l|l|l|l|l|l|l|l|l|}
\hline
Vehicles & Tasks & \#Cols & Tasklimits & \#St & \#Ov & CG Time & Solve Time & Obj.\\ \hline 
5 & 10 & 1455 & (1.0, 3.0) & 1 & 3 & 0.408 & 0.023 & 162.0\\ \hline 
5 & 15 & 1500 & (2.0, 4.0) & 1 & 3 & 1.1136 & 0.2687 & 207.0\\ \hline 
5 & 20 & 1500 & (3.0, 5.0) & 1 & 3 & 1.7484 & 1.2105 & 291.0\\ \hline 
5 & 25 & 1500 & (4.0, 6.0) & 1 & 3 & 2.4397 & - & -\\ \hline 
10 & 15 & 3000 & (1.0, 3.0) & 1 & 5 & 1.3079 & 0.0501 & 124.0\\ \hline 
10 & 20 & 3000 & (1.0, 3.0) & 1 & 5 & 0.8279 & 0.1594 & 82.0\\ \hline 
10 & 25 & 3000 & (2.0, 4.0) & 1 & 5 & 6.7499 & - & -\\ \hline 
\end{tabular}
\end{table}
\end{landscape}
bp_tests-off3-sam200o1-part-startsol-time60m-makespan.txt
\begin{landscape}
\begin{table}[H]
\centering
\caption{Table showing the results from running the heuristic set partitioning model on instances with varying sets of columns. These runs used a makespan objective function. The schedule generation phase was done using sampling. }
\label{sphperf}
\begin{tabular}{|l|l|l|l|l|l|l|l|l|}
\hline
Vehicles & Tasks & \#Cols & Tasklimits & \#St & \#Ov & CG Time & Solve Time & Obj.\\ \hline 
5 & 10 & 1440 & (1.0, 3.0) & 1 & 3 & 0.5826 & 0.0249 & 162.0\\ \hline 
5 & 15 & 1500 & (2.0, 4.0) & 1 & 3 & 1.0586 & 0.2825 & 207.0\\ \hline 
5 & 20 & 1500 & (3.0, 5.0) & 1 & 3 & 2.0357 & 1.3545 & 282.0\\ \hline 
5 & 25 & 1500 & (4.0, 6.0) & 1 & 3 & 2.914 & - & -\\ \hline 
10 & 15 & 3000 & (1.0, 3.0) & 1 & 5 & 1.9825 & 0.0515 & 124.0\\ \hline 
10 & 20 & 3000 & (1.0, 3.0) & 1 & 5 & 1.0632 & 0.1309 & 82.0\\ \hline 
10 & 25 & 3000 & (2.0, 4.0) & 1 & 5 & 6.8624 & - & -\\ \hline 
\end{tabular}
\end{table}
\end{landscape}
NEWSEED
bp_tests-off3-sam300o1-part-startsol-time60m-makespan.txt
\begin{landscape}
\begin{table}[H]
\centering
\caption{Table showing the results from running the heuristic set partitioning model on instances with varying sets of columns. These runs used a makespan objective function. The schedule generation phase was done using sampling. }
\label{sphperf}
\begin{tabular}{|l|l|l|l|l|l|l|l|l|}
\hline
Vehicles & Tasks & \#Cols & Tasklimits & \#St & \#Ov & CG Time & Solve Time & Obj.\\ \hline 
5 & 10 & 2405 & (1.0, 3.0) & 1 & 3 & 1.2443 & 0.0364 & 162.0\\ \hline 
5 & 15 & 2500 & (2.0, 4.0) & 1 & 3 & 3.0704 & 0.2399 & 207.0\\ \hline 
5 & 20 & 2500 & (3.0, 5.0) & 1 & 3 & 5.5234 & 1.8545 & 282.0\\ \hline 
5 & 25 & 2500 & (4.0, 6.0) & 1 & 3 & 8.0626 & 8.6511 & 411.0\\ \hline 
10 & 15 & 5000 & (1.0, 3.0) & 1 & 5 & 4.0766 & 0.0765 & 124.0\\ \hline 
10 & 20 & 5000 & (1.0, 3.0) & 1 & 5 & 2.812 & 0.2246 & 82.0\\ \hline 
NEWSEED
bp_tests-off3-sam1000o1-part-startsol-time60m.txt
\begin{landscape}
\begin{table}[H]
\centering
\caption{Table showing the results from running the heuristic set partitioning model on instances with varying sets of columns. These runs used a makespan objective function. The schedule generation phase was done using sampling. }
\label{sphperf}
\begin{tabular}{|l|l|l|l|l|l|l|l|l|}
\hline
Vehicles & Tasks & \#Cols & Tasklimits & \#St & \#Ov & CG Time & Solve Time & Obj.\\ \hline 
5 & 10 & 970 & (1.0, 3.0) & 1 & 3 & 0.2037 & 0.0208 & 162.0\\ \hline 
5 & 15 & 1000 & (2.0, 4.0) & 1 & 3 & 0.5403 & 0.1676 & 208.0\\ \hline 
5 & 20 & 1000 & (3.0, 5.0) & 1 & 3 & 0.7771 & 1.287 & 317.0\\ \hline 
5 & 25 & 1000 & (4.0, 6.0) & 1 & 3 & 1.2171 & - & -\\ \hline 
10 & 15 & 2000 & (1.0, 3.0) & 1 & 5 & 0.6752 & 0.0391 & 124.0\\ \hline 
10 & 20 & 2000 & (1.0, 3.0) & 1 & 5 & 0.4099 & 0.0441 & 83.0\\ \hline 
10 & 25 & 2000 & (2.0, 4.0) & 1 & 5 & 3.5931 & - & -\\ \hline 
\end{tabular}
\end{table}
\end{landscape}
bp_tests-off3-sam1000o1-part-startsol-time60m.txt
\begin{landscape}
\begin{table}[H]
\centering
\caption{Table showing the results from running the heuristic set partitioning model on instances with varying sets of columns. These runs used a makespan objective function. The schedule generation phase was done using sampling. }
\label{sphperf}
\begin{tabular}{|l|l|l|l|l|l|l|l|l|}
\hline
Vehicles & Tasks & \#Cols & Tasklimits & \#St & \#Ov & CG Time & Solve Time & Obj.\\ \hline 
5 & 10 & 965 & (1.0, 3.0) & 1 & 3 & 0.1971 & 0.0196 & 162.0\\ \hline 
5 & 15 & 1000 & (2.0, 4.0) & 1 & 3 & 0.4842 & 0.2139 & 208.0\\ \hline 
5 & 20 & 1000 & (3.0, 5.0) & 1 & 3 & 0.758 & 1.1404 & 291.0\\ \hline 
5 & 25 & 1000 & (4.0, 6.0) & 1 & 3 & 1.0909 & - & -\\ \hline 
10 & 15 & 2000 & (1.0, 3.0) & 1 & 5 & 0.6578 & 0.0445 & 124.0\\ \hline 
10 & 20 & 2000 & (1.0, 3.0) & 1 & 5 & 0.3858 & 0.1632 & 82.0\\ \hline 
10 & 25 & 2000 & (2.0, 4.0) & 1 & 5 & 3.056 & - & -\\ \hline 
\end{tabular}
\end{table}
\end{landscape}
bp_tests-off3-sam1000o1-part-startsol-time60m.txt
\begin{landscape}
\begin{table}[H]
\centering
\caption{Table showing the results from running the heuristic set partitioning model on instances with varying sets of columns. These runs used a makespan objective function. The schedule generation phase was done using sampling. }
\label{sphperf}
\begin{tabular}{|l|l|l|l|l|l|l|l|l|}
\hline
Vehicles & Tasks & \#Cols & Tasklimits & \#St & \#Ov & CG Time & Solve Time & Obj.\\ \hline 
5 & 10 & 970 & (1.0, 3.0) & 1 & 3 & 0.3097 & 0.0182 & 162.0\\ \hline 
5 & 15 & 1000 & (2.0, 4.0) & 1 & 3 & 0.4786 & 0.0682 & 207.0\\ \hline 
5 & 20 & 1000 & (3.0, 5.0) & 1 & 3 & 0.8759 & 0.4151 & 282.0\\ \hline 
5 & 25 & 1000 & (4.0, 6.0) & 1 & 3 & 1.5013 & - & -\\ \hline 
10 & 15 & 2000 & (1.0, 3.0) & 1 & 5 & 0.9237 & 0.0528 & 124.0\\ \hline 
10 & 20 & 2000 & (1.0, 3.0) & 1 & 5 & 0.4122 & 0.1109 & 82.0\\ \hline 
10 & 25 & 2000 & (2.0, 4.0) & 1 & 5 & 3.4192 & - & -\\ \hline 
\end{tabular}
\end{table}
\end{landscape}
NEWSEED
bp_tests-off3-sam200o1-part-startsol-time60m-makespan.txt
\begin{landscape}
\begin{table}[H]
\centering
\caption{Table showing the results from running the heuristic set partitioning model on instances with varying sets of columns. These runs used a makespan objective function. The schedule generation phase was done using sampling. }
\label{sphperf}
\begin{tabular}{|l|l|l|l|l|l|l|l|l|}
\hline
Vehicles & Tasks & \#Cols & Tasklimits & \#St & \#Ov & CG Time & Solve Time & Obj.\\ \hline 
5 & 10 & 1450 & (1.0, 3.0) & 1 & 3 & 0.4451 & 0.0217 & 162.0\\ \hline 
5 & 15 & 1500 & (2.0, 4.0) & 1 & 3 & 1.1152 & 0.1177 & 207.0\\ \hline 
5 & 20 & 1500 & (3.0, 5.0) & 1 & 3 & 1.9197 & 1.0989 & 291.0\\ \hline 
5 & 25 & 1500 & (4.0, 6.0) & 1 & 3 & 2.8737 & 13.0181 & 507.0\\ \hline 
10 & 15 & 3000 & (1.0, 3.0) & 1 & 5 & 1.5042 & 0.0591 & 124.0\\ \hline 
10 & 20 & 3000 & (1.0, 3.0) & 1 & 5 & 0.9478 & 0.1577 & 82.0\\ \hline 
10 & 25 & 3000 & (2.0, 4.0) & 1 & 5 & 6.9796 & - & -\\ \hline 
\end{tabular}
\end{table}
\end{landscape}
bp_tests-off3-sam200o1-part-startsol-time60m-makespan.txt
\begin{landscape}
\begin{table}[H]
\centering
\caption{Table showing the results from running the heuristic set partitioning model on instances with varying sets of columns. These runs used a makespan objective function. The schedule generation phase was done using sampling. }
\label{sphperf}
\begin{tabular}{|l|l|l|l|l|l|l|l|l|}
\hline
Vehicles & Tasks & \#Cols & Tasklimits & \#St & \#Ov & CG Time & Solve Time & Obj.\\ \hline 
5 & 10 & 1455 & (1.0, 3.0) & 1 & 3 & 0.4091 & 0.0226 & 162.0\\ \hline 
5 & 15 & 1500 & (2.0, 4.0) & 1 & 3 & 1.1181 & 0.262 & 207.0\\ \hline 
5 & 20 & 1500 & (3.0, 5.0) & 1 & 3 & 1.7549 & 1.0709 & 291.0\\ \hline 
5 & 25 & 1500 & (4.0, 6.0) & 1 & 3 & 2.4287 & - & -\\ \hline 
10 & 15 & 3000 & (1.0, 3.0) & 1 & 5 & 1.3119 & 0.0488 & 124.0\\ \hline 
10 & 20 & 3000 & (1.0, 3.0) & 1 & 5 & 0.8312 & 0.1625 & 82.0\\ \hline 
10 & 25 & 3000 & (2.0, 4.0) & 1 & 5 & 6.8054 & - & -\\ \hline 
\end{tabular}
\end{table}
\end{landscape}
bp_tests-off3-sam200o1-part-startsol-time60m-makespan.txt
\begin{landscape}
\begin{table}[H]
\centering
\caption{Table showing the results from running the heuristic set partitioning model on instances with varying sets of columns. These runs used a makespan objective function. The schedule generation phase was done using sampling. }
\label{sphperf}
\begin{tabular}{|l|l|l|l|l|l|l|l|l|}
\hline
Vehicles & Tasks & \#Cols & Tasklimits & \#St & \#Ov & CG Time & Solve Time & Obj.\\ \hline 
5 & 10 & 1440 & (1.0, 3.0) & 1 & 3 & 0.583 & 0.0244 & 162.0\\ \hline 
5 & 15 & 1500 & (2.0, 4.0) & 1 & 3 & 1.061 & 0.2741 & 207.0\\ \hline 
5 & 20 & 1500 & (3.0, 5.0) & 1 & 3 & 2.0344 & 1.1665 & 282.0\\ \hline 
5 & 25 & 1500 & (4.0, 6.0) & 1 & 3 & 2.9305 & - & -\\ \hline 
10 & 15 & 3000 & (1.0, 3.0) & 1 & 5 & 1.9832 & 0.047 & 124.0\\ \hline 
10 & 20 & 3000 & (1.0, 3.0) & 1 & 5 & 1.0672 & 0.1346 & 82.0\\ \hline 
10 & 25 & 3000 & (2.0, 4.0) & 1 & 5 & 6.9219 & - & -\\ \hline 
\end{tabular}
\end{table}
\end{landscape}
NEWSEED
bp_tests-off3-sam300o1-part-startsol-time60m-makespan.txt
\begin{landscape}
\begin{table}[H]
\centering
\caption{Table showing the results from running the heuristic set partitioning model on instances with varying sets of columns. These runs used a makespan objective function. The schedule generation phase was done using sampling. }
\label{sphperf}
\begin{tabular}{|l|l|l|l|l|l|l|l|l|}
\hline
Vehicles & Tasks & \#Cols & Tasklimits & \#St & \#Ov & CG Time & Solve Time & Obj.\\ \hline 
5 & 10 & 2405 & (1.0, 3.0) & 1 & 3 & 1.2491 & 0.0377 & 162.0\\ \hline 
5 & 15 & 2500 & (2.0, 4.0) & 1 & 3 & 3.093 & 0.2396 & 207.0\\ \hline 
5 & 20 & 2500 & (3.0, 5.0) & 1 & 3 & 5.5108 & 1.817 & 282.0\\ \hline 
5 & 25 & 2500 & (4.0, 6.0) & 1 & 3 & 8.0966 & 6.9257 & 411.0\\ \hline 
10 & 15 & 5000 & (1.0, 3.0) & 1 & 5 & 4.0749 & 0.0762 & 124.0\\ \hline 
10 & 20 & 5000 & (1.0, 3.0) & 1 & 5 & 2.8306 & 0.2251 & 82.0\\ \hline 
10 & 25 & 5000 & (2.0, 4.0) & 1 & 5 & 21.5907 & - & -\\ \hline 
\end{tabular}
\end{table}
\end{landscape}
bp_tests-off3-sam300o1-part-startsol-time60m-makespan.txt
\begin{landscape}
\begin{table}[H]
\centering
\caption{Table showing the results from running the heuristic set partitioning model on instances with varying sets of columns. These runs used a makespan objective function. The schedule generation phase was done using sampling. }
\label{sphperf}
\begin{tabular}{|l|l|l|l|l|l|l|l|l|}
\hline
Vehicles & Tasks & \#Cols & Tasklimits & \#St & \#Ov & CG Time & Solve Time & Obj.\\ \hline 
5 & 10 & 2420 & (1.0, 3.0) & 1 & 3 & 1.22 & 0.03 & 162.0\\ \hline 
5 & 15 & 2500 & (2.0, 4.0) & 1 & 3 & 3.1248 & 0.2818 & 207.0\\ \hline 
5 & 20 & 2500 & (3.0, 5.0) & 1 & 3 & 5.5143 & 1.6863 & 282.0\\ \hline 
5 & 25 & 2500 & (4.0, 6.0) & 1 & 3 & 7.0696 & 21.3607 & 438.0\\ \hline 
10 & 15 & 5000 & (1.0, 3.0) & 1 & 5 & 4.0099 & 0.0741 & 124.0\\ \hline 
10 & 20 & 5000 & (1.0, 3.0) & 1 & 5 & 2.4522 & 0.4442 & 82.0\\ \hline 
10 & 25 & 5000 & (2.0, 4.0) & 1 & 5 & 18.4937 & - & -\\ \hline 
\end{tabular}
\end{table}
\end{landscape}
bp_tests-off3-sam300o1-part-startsol-time60m-makespan.txt
\begin{landscape}
\begin{table}[H]
\centering
\caption{Table showing the results from running the heuristic set partitioning model on instances with varying sets of columns. These runs used a makespan objective function. The schedule generation phase was done using sampling. }
\label{sphperf}
\begin{tabular}{|l|l|l|l|l|l|l|l|l|}
\hline
Vehicles & Tasks & \#Cols & Tasklimits & \#St & \#Ov & CG Time & Solve Time & Obj.\\ \hline 
5 & 10 & 2415 & (1.0, 3.0) & 1 & 3 & 1.5022 & 0.0341 & 162.0\\ \hline 
5 & 15 & 2500 & (2.0, 4.0) & 1 & 3 & 3.0378 & 0.1653 & 207.0\\ \hline 
5 & 20 & 2500 & (3.0, 5.0) & 1 & 3 & 5.6154 & 1.4992 & 282.0\\ \hline 
5 & 25 & 2500 & (4.0, 6.0) & 1 & 3 & 7.8632 & 22.8303 & 438.0\\ \hline 
NEWSEED
bp_tests-off3-sam1000o1-part-startsol-time60m.txt
\begin{landscape}
\begin{table}[H]
\centering
\caption{Table showing the results from running the heuristic set partitioning model on instances with varying sets of columns. These runs used a makespan objective function. The schedule generation phase was done using sampling. }
\label{sphperf}
\begin{tabular}{|l|l|l|l|l|l|l|l|l|}
\hline
Vehicles & Tasks & \#Cols & Tasklimits & \#St & \#Ov & CG Time & Solve Time & Obj.\\ \hline 
5 & 10 & 970 & (1.0, 3.0) & 1 & 3 & 0.2028 & 0.0209 & 162.0\\ \hline 
5 & 15 & 1000 & (2.0, 4.0) & 1 & 3 & 0.5344 & 0.1683 & 208.0\\ \hline 
5 & 20 & 1000 & (3.0, 5.0) & 1 & 3 & 0.7735 & 1.2823 & 317.0\\ \hline 
5 & 25 & 1000 & (4.0, 6.0) & 1 & 3 & 1.2195 & - & -\\ \hline 
10 & 15 & 2000 & (1.0, 3.0) & 1 & 5 & 0.6764 & 0.039 & 124.0\\ \hline 
10 & 20 & 2000 & (1.0, 3.0) & 1 & 5 & 0.4083 & 0.0439 & 83.0\\ \hline 
10 & 25 & 2000 & (2.0, 4.0) & 1 & 5 & 3.541 & - & -\\ \hline 
\end{tabular}
\end{table}
\end{landscape}
bp_tests-off3-sam1000o1-part-startsol-time60m.txt
\begin{landscape}
\begin{table}[H]
\centering
\caption{Table showing the results from running the heuristic set partitioning model on instances with varying sets of columns. These runs used a makespan objective function. The schedule generation phase was done using sampling. }
\label{sphperf}
\begin{tabular}{|l|l|l|l|l|l|l|l|l|}
\hline
Vehicles & Tasks & \#Cols & Tasklimits & \#St & \#Ov & CG Time & Solve Time & Obj.\\ \hline 
5 & 10 & 965 & (1.0, 3.0) & 1 & 3 & 0.1963 & 0.0187 & 162.0\\ \hline 
5 & 15 & 1000 & (2.0, 4.0) & 1 & 3 & 0.4831 & 0.2133 & 208.0\\ \hline 
5 & 20 & 1000 & (3.0, 5.0) & 1 & 3 & 0.755 & 0.915 & 291.0\\ \hline 
5 & 25 & 1000 & (4.0, 6.0) & 1 & 3 & 1.0895 & - & -\\ \hline 
10 & 15 & 2000 & (1.0, 3.0) & 1 & 5 & 0.6559 & 0.0477 & 124.0\\ \hline 
10 & 20 & 2000 & (1.0, 3.0) & 1 & 5 & 0.3848 & 0.1594 & 82.0\\ \hline 
10 & 25 & 2000 & (2.0, 4.0) & 1 & 5 & 3.0453 & - & -\\ \hline 
\end{tabular}
\end{table}
\end{landscape}
bp_tests-off3-sam1000o1-part-startsol-time60m.txt
\begin{landscape}
\begin{table}[H]
\centering
\caption{Table showing the results from running the heuristic set partitioning model on instances with varying sets of columns. These runs used a makespan objective function. The schedule generation phase was done using sampling. }
\label{sphperf}
\begin{tabular}{|l|l|l|l|l|l|l|l|l|}
\hline
Vehicles & Tasks & \#Cols & Tasklimits & \#St & \#Ov & CG Time & Solve Time & Obj.\\ \hline 
5 & 10 & 970 & (1.0, 3.0) & 1 & 3 & 0.3041 & 0.0188 & 162.0\\ \hline 
5 & 15 & 1000 & (2.0, 4.0) & 1 & 3 & 0.4772 & 0.0668 & 207.0\\ \hline 
5 & 20 & 1000 & (3.0, 5.0) & 1 & 3 & 0.8729 & 0.4159 & 282.0\\ \hline 
5 & 25 & 1000 & (4.0, 6.0) & 1 & 3 & 1.4946 & - & -\\ \hline 
10 & 15 & 2000 & (1.0, 3.0) & 1 & 5 & 0.9176 & 0.0508 & 124.0\\ \hline 
10 & 20 & 2000 & (1.0, 3.0) & 1 & 5 & 0.4107 & 0.1126 & 82.0\\ \hline 
10 & 25 & 2000 & (2.0, 4.0) & 1 & 5 & 3.4017 & - & -\\ \hline 
\end{tabular}
\end{table}
\end{landscape}
bp_tests-off3-sam1000o1-part-startsol-time60m.txt
\begin{landscape}
\begin{table}[H]
\centering
\caption{Table showing the results from running the heuristic set partitioning model on instances with varying sets of columns. These runs used a makespan objective function. The schedule generation phase was done using sampling. }
\label{sphperf}
\begin{tabular}{|l|l|l|l|l|l|l|l|l|}
\hline
Vehicles & Tasks & \#Cols & Tasklimits & \#St & \#Ov & CG Time & Solve Time & Obj.\\ \hline 
5 & 10 & 960 & (1.0, 3.0) & 1 & 3 & 0.2109 & 0.0216 & 162.0\\ \hline 
5 & 15 & 1000 & (2.0, 4.0) & 1 & 3 & 0.5283 & 0.0674 & 207.0\\ \hline 
5 & 20 & 1000 & (3.0, 5.0) & 1 & 3 & 0.8861 & 1.0948 & 317.0\\ \hline 
5 & 25 & 1000 & (4.0, 6.0) & 1 & 3 & 1.0937 & - & -\\ \hline 
10 & 15 & 2000 & (1.0, 3.0) & 1 & 5 & 0.7635 & 0.0419 & 124.0\\ \hline 
10 & 20 & 2000 & (1.0, 3.0) & 1 & 5 & 0.5346 & 0.0948 & 85.0\\ \hline 
10 & 25 & 2000 & (2.0, 4.0) & 1 & 5 & 3.5304 & - & -\\ \hline 
\end{tabular}
\end{table}
\end{landscape}
bp_tests-off3-sam1000o1-part-startsol-time60m.txt
\begin{landscape}
\begin{table}[H]
\centering
\caption{Table showing the results from running the heuristic set partitioning model on instances with varying sets of columns. These runs used a makespan objective function. The schedule generation phase was done using sampling. }
\label{sphperf}
\begin{tabular}{|l|l|l|l|l|l|l|l|l|}
\hline
Vehicles & Tasks & \#Cols & Tasklimits & \#St & \#Ov & CG Time & Solve Time & Obj.\\ \hline 
5 & 10 & 960 & (1.0, 3.0) & 1 & 3 & 0.2362 & 0.019 & 162.0\\ \hline 
5 & 15 & 1000 & (2.0, 4.0) & 1 & 3 & 0.5232 & 0.135 & 208.0\\ \hline 
5 & 20 & 1000 & (3.0, 5.0) & 1 & 3 & 0.8804 & 0.9464 & 294.0\\ \hline 
5 & 25 & 1000 & (4.0, 6.0) & 1 & 3 & 1.2234 & - & -\\ \hline 
10 & 15 & 2000 & (1.0, 3.0) & 1 & 5 & 0.7614 & 0.0414 & 124.0\\ \hline 
10 & 20 & 2000 & (1.0, 3.0) & 1 & 5 & 0.6867 & 0.1844 & 83.0\\ \hline 
10 & 25 & 2000 & (2.0, 4.0) & 1 & 5 & 2.9656 & - & -\\ \hline 
\end{tabular}
\end{table}
\end{landscape}
NEWSEED
bp_tests-off3-sam200o1-part-startsol-time60m-makespan.txt
\begin{landscape}
\begin{table}[H]
\centering
\caption{Table showing the results from running the heuristic set partitioning model on instances with varying sets of columns. These runs used a makespan objective function. The schedule generation phase was done using sampling. }
\label{sphperf}
\begin{tabular}{|l|l|l|l|l|l|l|l|l|}
\hline
Vehicles & Tasks & \#Cols & Tasklimits & \#St & \#Ov & CG Time & Solve Time & Obj.\\ \hline 
5 & 10 & 1450 & (1.0, 3.0) & 1 & 3 & 0.4445 & 0.0224 & 162.0\\ \hline 
5 & 15 & 1500 & (2.0, 4.0) & 1 & 3 & 1.1068 & 0.1171 & 207.0\\ \hline 
5 & 20 & 1500 & (3.0, 5.0) & 1 & 3 & 1.9016 & 1.085 & 291.0\\ \hline 
5 & 25 & 1500 & (4.0, 6.0) & 1 & 3 & 2.847 & 16.838 & 507.0\\ \hline 
10 & 15 & 3000 & (1.0, 3.0) & 1 & 5 & 1.4754 & 0.0535 & 124.0\\ \hline 
10 & 20 & 3000 & (1.0, 3.0) & 1 & 5 & 0.9444 & 0.1526 & 82.0\\ \hline 
10 & 25 & 3000 & (2.0, 4.0) & 1 & 5 & 6.9143 & - & -\\ \hline 
\end{tabular}
\end{table}
\end{landscape}
bp_tests-off3-sam200o1-part-startsol-time60m-makespan.txt
\begin{landscape}
\begin{table}[H]
\centering
\caption{Table showing the results from running the heuristic set partitioning model on instances with varying sets of columns. These runs used a makespan objective function. The schedule generation phase was done using sampling. }
\label{sphperf}
\begin{tabular}{|l|l|l|l|l|l|l|l|l|}
\hline
Vehicles & Tasks & \#Cols & Tasklimits & \#St & \#Ov & CG Time & Solve Time & Obj.\\ \hline 
5 & 10 & 1455 & (1.0, 3.0) & 1 & 3 & 0.408 & 0.0224 & 162.0\\ \hline 
5 & 15 & 1500 & (2.0, 4.0) & 1 & 3 & 1.1117 & 0.2655 & 207.0\\ \hline 
5 & 20 & 1500 & (3.0, 5.0) & 1 & 3 & 1.7358 & 1.2059 & 291.0\\ \hline 
5 & 25 & 1500 & (4.0, 6.0) & 1 & 3 & 2.4203 & - & -\\ \hline 
10 & 15 & 3000 & (1.0, 3.0) & 1 & 5 & 1.3025 & 0.0502 & 124.0\\ \hline 
10 & 20 & 3000 & (1.0, 3.0) & 1 & 5 & 0.8249 & 0.1584 & 82.0\\ \hline 
10 & 25 & 3000 & (2.0, 4.0) & 1 & 5 & 6.7345 & - & -\\ \hline 
\end{tabular}
\end{table}
\end{landscape}
bp_tests-off3-sam200o1-part-startsol-time60m-makespan.txt
\begin{landscape}
\begin{table}[H]
\centering
\caption{Table showing the results from running the heuristic set partitioning model on instances with varying sets of columns. These runs used a makespan objective function. The schedule generation phase was done using sampling. }
\label{sphperf}
\begin{tabular}{|l|l|l|l|l|l|l|l|l|}
\hline
Vehicles & Tasks & \#Cols & Tasklimits & \#St & \#Ov & CG Time & Solve Time & Obj.\\ \hline 
5 & 10 & 1440 & (1.0, 3.0) & 1 & 3 & 0.5797 & 0.024 & 162.0\\ \hline 
5 & 15 & 1500 & (2.0, 4.0) & 1 & 3 & 1.0513 & 0.2782 & 207.0\\ \hline 
5 & 20 & 1500 & (3.0, 5.0) & 1 & 3 & 2.0158 & 1.3476 & 282.0\\ \hline 
5 & 25 & 1500 & (4.0, 6.0) & 1 & 3 & 2.9094 & - & -\\ \hline 
10 & 15 & 3000 & (1.0, 3.0) & 1 & 5 & 1.9715 & 0.0487 & 124.0\\ \hline 
10 & 20 & 3000 & (1.0, 3.0) & 1 & 5 & 1.0617 & 0.1305 & 82.0\\ \hline 
10 & 25 & 3000 & (2.0, 4.0) & 1 & 5 & 6.8714 & - & -\\ \hline 
\end{tabular}
\end{table}
\end{landscape}
bp_tests-off3-sam200o1-part-startsol-time60m-makespan.txt
\begin{landscape}
\begin{table}[H]
\centering
\caption{Table showing the results from running the heuristic set partitioning model on instances with varying sets of columns. These runs used a makespan objective function. The schedule generation phase was done using sampling. }
\label{sphperf}
\begin{tabular}{|l|l|l|l|l|l|l|l|l|}
\hline
Vehicles & Tasks & \#Cols & Tasklimits & \#St & \#Ov & CG Time & Solve Time & Obj.\\ \hline 
5 & 10 & 1450 & (1.0, 3.0) & 1 & 3 & 0.4939 & 0.0262 & 162.0\\ \hline 
5 & 15 & 1500 & (2.0, 4.0) & 1 & 3 & 1.1552 & 0.067 & 207.0\\ \hline 
5 & 20 & 1500 & (3.0, 5.0) & 1 & 3 & 2.0422 & 0.9101 & 282.0\\ \hline 
5 & 25 & 1500 & (4.0, 6.0) & 1 & 3 & 2.6458 & - & -\\ \hline 
10 & 15 & 3000 & (1.0, 3.0) & 1 & 5 & 1.7671 & 0.057 & 124.0\\ \hline 
10 & 20 & 3000 & (1.0, 3.0) & 1 & 5 & 1.0697 & 0.2411 & 83.0\\ \hline 
10 & 25 & 3000 & (2.0, 4.0) & 1 & 5 & 8.4445 & - & -\\ \hline 
\end{tabular}
\end{table}
\end{landscape}
bp_tests-off3-sam200o1-part-startsol-time60m-makespan.txt
\begin{landscape}
\begin{table}[H]
\centering
\caption{Table showing the results from running the heuristic set partitioning model on instances with varying sets of columns. These runs used a makespan objective function. The schedule generation phase was done using sampling. }
\label{sphperf}
\begin{tabular}{|l|l|l|l|l|l|l|l|l|}
\hline
Vehicles & Tasks & \#Cols & Tasklimits & \#St & \#Ov & CG Time & Solve Time & Obj.\\ \hline 
5 & 10 & 1450 & (1.0, 3.0) & 1 & 3 & 0.5335 & 0.0234 & 162.0\\ \hline 
5 & 15 & 1500 & (2.0, 4.0) & 1 & 3 & 1.1244 & 0.3597 & 207.0\\ \hline 
5 & 20 & 1500 & (3.0, 5.0) & 1 & 3 & 2.0514 & 0.9303 & 282.0\\ \hline 
5 & 25 & 1500 & (4.0, 6.0) & 1 & 3 & 2.6285 & 15.5191 & 426.0\\ \hline 
10 & 15 & 3000 & (1.0, 3.0) & 1 & 5 & 1.6161 & 0.0582 & 124.0\\ \hline 
10 & 20 & 3000 & (1.0, 3.0) & 1 & 5 & 1.408 & 0.1427 & 79.0\\ \hline 
10 & 25 & 3000 & (2.0, 4.0) & 1 & 5 & 6.4435 & - & -\\ \hline 
\end{tabular}
\end{table}
\end{landscape}
NEWSEED
bp_tests-off3-sam300o1-part-startsol-time60m-makespan.txt
\begin{landscape}
\begin{table}[H]
\centering
\caption{Table showing the results from running the heuristic set partitioning model on instances with varying sets of columns. These runs used a makespan objective function. The schedule generation phase was done using sampling. }
\label{sphperf}
\begin{tabular}{|l|l|l|l|l|l|l|l|l|}
\hline
Vehicles & Tasks & \#Cols & Tasklimits & \#St & \#Ov & CG Time & Solve Time & Obj.\\ \hline 
5 & 10 & 2405 & (1.0, 3.0) & 1 & 3 & 1.2437 & 0.0376 & 162.0\\ \hline 
5 & 15 & 2500 & (2.0, 4.0) & 1 & 3 & 3.0713 & 0.2395 & 207.0\\ \hline 
5 & 20 & 2500 & (3.0, 5.0) & 1 & 3 & 5.4702 & 1.8116 & 282.0\\ \hline 
5 & 25 & 2500 & (4.0, 6.0) & 1 & 3 & 8.0343 & 6.9454 & 411.0\\ \hline 
10 & 15 & 5000 & (1.0, 3.0) & 1 & 5 & 4.0557 & 0.0756 & 124.0\\ \hline 
10 & 20 & 5000 & (1.0, 3.0) & 1 & 5 & 2.804 & 0.2248 & 82.0\\ \hline 
10 & 25 & 5000 & (2.0, 4.0) & 1 & 5 & 21.2591 & - & -\\ \hline 
\end{tabular}
\end{table}
\end{landscape}
bp_tests-off3-sam300o1-part-startsol-time60m-makespan.txt
\begin{landscape}
\begin{table}[H]
\centering
\caption{Table showing the results from running the heuristic set partitioning model on instances with varying sets of columns. These runs used a makespan objective function. The schedule generation phase was done using sampling. }
\label{sphperf}
\begin{tabular}{|l|l|l|l|l|l|l|l|l|}
\hline
Vehicles & Tasks & \#Cols & Tasklimits & \#St & \#Ov & CG Time & Solve Time & Obj.\\ \hline 
5 & 10 & 2420 & (1.0, 3.0) & 1 & 3 & 1.2067 & 0.0302 & 162.0\\ \hline 
5 & 15 & 2500 & (2.0, 4.0) & 1 & 3 & 3.0807 & 0.2786 & 207.0\\ \hline 
5 & 20 & 2500 & (3.0, 5.0) & 1 & 3 & 5.4606 & 1.9039 & 282.0\\ \hline 
5 & 25 & 2500 & (4.0, 6.0) & 1 & 3 & 7.0586 & 21.2593 & 438.0\\ \hline 
10 & 15 & 5000 & (1.0, 3.0) & 1 & 5 & 3.9763 & 0.0732 & 124.0\\ \hline 
10 & 20 & 5000 & (1.0, 3.0) & 1 & 5 & 2.4308 & 0.4337 & 82.0\\ \hline 
10 & 25 & 5000 & (2.0, 4.0) & 1 & 5 & 18.3206 & - & -\\ \hline 
\end{tabular}
\end{table}
\end{landscape}
bp_tests-off3-sam300o1-part-startsol-time60m-makespan.txt
\begin{landscape}
\begin{table}[H]
\centering
\caption{Table showing the results from running the heuristic set partitioning model on instances with varying sets of columns. These runs used a makespan objective function. The schedule generation phase was done using sampling. }
\label{sphperf}
\begin{tabular}{|l|l|l|l|l|l|l|l|l|}
\hline
Vehicles & Tasks & \#Cols & Tasklimits & \#St & \#Ov & CG Time & Solve Time & Obj.\\ \hline 
5 & 10 & 2415 & (1.0, 3.0) & 1 & 3 & 1.4955 & 0.0355 & 162.0\\ \hline 
5 & 15 & 2500 & (2.0, 4.0) & 1 & 3 & 3.0142 & 0.1665 & 207.0\\ \hline 
5 & 20 & 2500 & (3.0, 5.0) & 1 & 3 & 5.574 & 1.4709 & 282.0\\ \hline 
5 & 25 & 2500 & (4.0, 6.0) & 1 & 3 & 7.8288 & 35.5688 & 438.0\\ \hline 
10 & 15 & 5000 & (1.0, 3.0) & 1 & 5 & 4.87 & 0.0803 & 124.0\\ \hline 
10 & 20 & 5000 & (1.0, 3.0) & 1 & 5 & 2.8459 & 0.2089 & 82.0\\ \hline 
10 & 25 & 5000 & (2.0, 4.0) & 1 & 5 & 21.9732 & - & -\\ \hline 
\end{tabular}
\end{table}
\end{landscape}
bp_tests-off3-sam300o1-part-startsol-time60m-makespan.txt
\begin{landscape}
\begin{table}[H]
\centering
\caption{Table showing the results from running the heuristic set partitioning model on instances with varying sets of columns. These runs used a makespan objective function. The schedule generation phase was done using sampling. }
\label{sphperf}
\begin{tabular}{|l|l|l|l|l|l|l|l|l|}
\hline
Vehicles & Tasks & \#Cols & Tasklimits & \#St & \#Ov & CG Time & Solve Time & Obj.\\ \hline 
5 & 10 & 2405 & (1.0, 3.0) & 1 & 3 & 1.3778 & 0.0279 & 162.0\\ \hline 
5 & 15 & 2500 & (2.0, 4.0) & 1 & 3 & 2.9145 & 0.3446 & 207.0\\ \hline 
5 & 20 & 2500 & (3.0, 5.0) & 1 & 3 & 5.6034 & 2.406 & 282.0\\ \hline 
5 & 25 & 2500 & (4.0, 6.0) & 1 & 3 & 7.505 & 17.4191 & 432.0\\ \hline 
10 & 15 & 5000 & (1.0, 3.0) & 1 & 5 & 4.6082 & 0.1006 & 124.0\\ \hline 
10 & 20 & 5000 & (1.0, 3.0) & 1 & 5 & 2.7004 & 0.212 & 82.0\\ \hline 
10 & 25 & 5000 & (2.0, 4.0) & 1 & 5 & 22.8713 & - & -\\ \hline 
\end{tabular}
\end{table}
\end{landscape}
bp_tests-off3-sam300o1-part-startsol-time60m-makespan.txt
\begin{landscape}
\begin{table}[H]
\centering
\caption{Table showing the results from running the heuristic set partitioning model on instances with varying sets of columns. These runs used a makespan objective function. The schedule generation phase was done using sampling. }
\label{sphperf}
\begin{tabular}{|l|l|l|l|l|l|l|l|l|}
\hline
Vehicles & Tasks & \#Cols & Tasklimits & \#St & \#Ov & CG Time & Solve Time & Obj.\\ \hline 
5 & 10 & 2430 & (1.0, 3.0) & 1 & 3 & 1.5982 & 0.0353 & 162.0\\ \hline 
5 & 15 & 2500 & (2.0, 4.0) & 1 & 3 & 2.9291 & 0.1151 & 207.0\\ \hline 
5 & 20 & 2500 & (3.0, 5.0) & 1 & 3 & 5.7837 & 0.8777 & 282.0\\ \hline 
5 & 25 & 2500 & (4.0, 6.0) & 1 & 3 & 7.5195 & 29.3705 & 426.0\\ \hline 
10 & 15 & 5000 & (1.0, 3.0) & 1 & 5 & 4.6713 & 0.0823 & 124.0\\ \hline 
10 & 20 & 5000 & (1.0, 3.0) & 1 & 5 & 3.9605 & 0.2086 & 79.0\\ \hline 
10 & 25 & 5000 & (2.0, 4.0) & 1 & 5 & 19.3742 & - & -\\ \hline 
\end{tabular}
\end{table}
\end{landscape}
NEWSEED
bp_tests-off3-sam500o1-part-startsol-time60m-makespan.txt
\begin{landscape}
\begin{table}[H]
\centering
\caption{Table showing the results from running the heuristic set partitioning model on instances with varying sets of columns. These runs used a makespan objective function. The schedule generation phase was done using sampling. }
\label{sphperf}
\begin{tabular}{|l|l|l|l|l|l|l|l|l|}
\hline
Vehicles & Tasks & \#Cols & Tasklimits & \#St & \#Ov & CG Time & Solve Time & Obj.\\ \hline 
5 & 10 & 4840 & (1.0, 3.0) & 1 & 3 & 5.2001 & 0.0403 & 162.0\\ \hline 
5 & 15 & 5000 & (2.0, 4.0) & 1 & 3 & 11.6224 & 0.3041 & 207.0\\ \hline 
5 & 20 & 5000 & (3.0, 5.0) & 1 & 3 & 21.3935 & 0.7952 & 282.0\\ \hline 
5 & 25 & 5000 & (4.0, 6.0) & 1 & 3 & 32.6726 & 16.4287 & 387.0\\ \hline 
10 & 15 & 10000 & (1.0, 3.0) & 1 & 5 & 16.5524 & 0.1548 & 124.0\\ \hline 
10 & 20 & 10000 & (1.0, 3.0) & 1 & 5 & 12.2267 & 0.3647 & 79.0\\ \hline 
10 & 25 & 10000 & (2.0, 4.0) & 1 & 5 & 71.322 & - & -\\ \hline 
\end{tabular}
\end{table}
\end{landscape}
bp_tests-off3-sam500o1-part-startsol-time60m-makespan.txt
\begin{landscape}
\begin{table}[H]
\centering
\caption{Table showing the results from running the heuristic set partitioning model on instances with varying sets of columns. These runs used a makespan objective function. The schedule generation phase was done using sampling. }
\label{sphperf}
\begin{tabular}{|l|l|l|l|l|l|l|l|l|}
\hline
Vehicles & Tasks & \#Cols & Tasklimits & \#St & \#Ov & CG Time & Solve Time & Obj.\\ \hline 
5 & 10 & 4840 & (1.0, 3.0) & 1 & 3 & 5.0435 & 0.054 & 162.0\\ \hline 
5 & 15 & 5000 & (2.0, 4.0) & 1 & 3 & 12.4136 & 0.1712 & 207.0\\ \hline 
5 & 20 & 5000 & (3.0, 5.0) & 1 & 3 & 25.2988 & 1.3104 & 282.0\\ \hline 
5 & 25 & 5000 & (4.0, 6.0) & 1 & 3 & 30.47 & 15.2606 & 384.0\\ \hline 
10 & 15 & 10000 & (1.0, 3.0) & 1 & 5 & 16.1604 & 0.1465 & 124.0\\ \hline 
10 & 20 & 10000 & (1.0, 3.0) & 1 & 5 & 9.7247 & 0.3399 & 79.0\\ \hline 
10 & 25 & 10000 & (2.0, 4.0) & 1 & 5 & 85.0629 & - & -\\ \hline 
\end{tabular}
\end{table}
\end{landscape}
bp_tests-off3-sam500o1-part-startsol-time60m-makespan.txt
\begin{landscape}
\begin{table}[H]
\centering
\caption{Table showing the results from running the heuristic set partitioning model on instances with varying sets of columns. These runs used a makespan objective function. The schedule generation phase was done using sampling. }
\label{sphperf}
\begin{tabular}{|l|l|l|l|l|l|l|l|l|}
\hline
Vehicles & Tasks & \#Cols & Tasklimits & \#St & \#Ov & CG Time & Solve Time & Obj.\\ \hline 
5 & 10 & 4830 & (1.0, 3.0) & 1 & 3 & 5.4874 & 0.046 & 162.0\\ \hline 
5 & 15 & 5000 & (2.0, 4.0) & 1 & 3 & 10.9839 & 0.1561 & 207.0\\ \hline 
5 & 20 & 5000 & (3.0, 5.0) & 1 & 3 & 22.3043 & 1.2098 & 282.0\\ \hline 
5 & 25 & 5000 & (4.0, 6.0) & 1 & 3 & 32.6223 & 18.5382 & 393.0\\ \hline 
10 & 15 & 10000 & (1.0, 3.0) & 1 & 5 & 18.0982 & 0.1982 & 124.0\\ \hline 
10 & 20 & 10000 & (1.0, 3.0) & 1 & 5 & 11.9396 & 0.3725 & 79.0\\ \hline 
10 & 25 & 10000 & (2.0, 4.0) & 1 & 5 & 77.9482 & - & -\\ \hline 
\end{tabular}
\end{table}
\end{landscape}
bp_tests-off3-sam500o1-part-startsol-time60m-makespan.txt
\begin{landscape}
\begin{table}[H]
\centering
\caption{Table showing the results from running the heuristic set partitioning model on instances with varying sets of columns. These runs used a makespan objective function. The schedule generation phase was done using sampling. }
\label{sphperf}
\begin{tabular}{|l|l|l|l|l|l|l|l|l|}
\hline
Vehicles & Tasks & \#Cols & Tasklimits & \#St & \#Ov & CG Time & Solve Time & Obj.\\ \hline 
5 & 10 & 4805 & (1.0, 3.0) & 1 & 3 & 5.4531 & 0.0481 & 162.0\\ \hline 
5 & 15 & 5000 & (2.0, 4.0) & 1 & 3 & 11.9411 & 0.1679 & 207.0\\ \hline 
5 & 20 & 5000 & (3.0, 5.0) & 1 & 3 & 23.9126 & 1.7206 & 282.0\\ \hline 
5 & 25 & 5000 & (4.0, 6.0) & 1 & 3 & 29.9409 & 40.4487 & 392.0\\ \hline 
10 & 15 & 10000 & (1.0, 3.0) & 1 & 5 & 18.5167 & 0.2071 & 124.0\\ \hline 
10 & 20 & 10000 & (1.0, 3.0) & 1 & 5 & 11.7092 & 0.3894 & 82.0\\ \hline 
10 & 25 & 10000 & (2.0, 4.0) & 1 & 5 & 87.9022 & - & -\\ \hline 
\end{tabular}
\end{table}
\end{landscape}
bp_tests-off3-sam500o1-part-startsol-time60m-makespan.txt
\begin{landscape}
\begin{table}[H]
\centering
\caption{Table showing the results from running the heuristic set partitioning model on instances with varying sets of columns. These runs used a makespan objective function. The schedule generation phase was done using sampling. }
\label{sphperf}
\begin{tabular}{|l|l|l|l|l|l|l|l|l|}
\hline
Vehicles & Tasks & \#Cols & Tasklimits & \#St & \#Ov & CG Time & Solve Time & Obj.\\ \hline 
5 & 10 & 4830 & (1.0, 3.0) & 1 & 3 & 5.7206 & 0.0422 & 162.0\\ \hline 
5 & 15 & 5000 & (2.0, 4.0) & 1 & 3 & 11.9167 & 0.396 & 207.0\\ \hline 
5 & 20 & 5000 & (3.0, 5.0) & 1 & 3 & 24.1197 & 1.0751 & 282.0\\ \hline 
5 & 25 & 5000 & (4.0, 6.0) & 1 & 3 & 30.1365 & 23.8479 & 410.0\\ \hline 
10 & 15 & 10000 & (1.0, 3.0) & 1 & 5 & 17.8904 & 0.2075 & 124.0\\ \hline 
10 & 20 & 10000 & (1.0, 3.0) & 1 & 5 & 12.9693 & 0.3665 & 79.0\\ \hline 
10 & 25 & 10000 & (2.0, 4.0) & 1 & 5 & 81.4726 & - & -\\ \hline 
\end{tabular}
\end{table}
\end{landscape}
NEWSEED
bp_tests-off3-sam1000o1-part-startsol-time60m-makespan.txt
\begin{landscape}
\begin{table}[H]
\centering
\caption{Table showing the results from running the heuristic set partitioning model on instances with varying sets of columns. These runs used a makespan objective function. The schedule generation phase was done using sampling. }
\label{sphperf}
\begin{tabular}{|l|l|l|l|l|l|l|l|l|}
\hline
Vehicles & Tasks & \#Cols & Tasklimits & \#St & \#Ov & CG Time & Solve Time & Obj.\\ \hline 
5 & 10 & 970 & (1.0, 3.0) & 1 & 3 & 0.1987 & 0.0206 & 162.0\\ \hline 
5 & 15 & 1000 & (2.0, 4.0) & 1 & 3 & 0.5376 & 0.1564 & 208.0\\ \hline 
5 & 20 & 1000 & (3.0, 5.0) & 1 & 3 & 0.7764 & 1.179 & 317.0\\ \hline 
5 & 25 & 1000 & (4.0, 6.0) & 1 & 3 & 1.2112 & - & -\\ \hline 
10 & 15 & 2000 & (1.0, 3.0) & 1 & 5 & 0.6746 & 0.0428 & 124.0\\ \hline 
10 & 20 & 2000 & (1.0, 3.0) & 1 & 5 & 0.4088 & 0.0432 & 83.0\\ \hline 
10 & 25 & 2000 & (2.0, 4.0) & 1 & 5 & 3.5255 & - & -\\ \hline 
\end{tabular}
\end{table}
\end{landscape}
bp_tests-off3-sam1000o1-part-startsol-time60m-makespan.txt
\begin{landscape}
\begin{table}[H]
\centering
\caption{Table showing the results from running the heuristic set partitioning model on instances with varying sets of columns. These runs used a makespan objective function. The schedule generation phase was done using sampling. }
\label{sphperf}
\begin{tabular}{|l|l|l|l|l|l|l|l|l|}
\hline
Vehicles & Tasks & \#Cols & Tasklimits & \#St & \#Ov & CG Time & Solve Time & Obj.\\ \hline 
5 & 10 & 965 & (1.0, 3.0) & 1 & 3 & 0.1978 & 0.0189 & 162.0\\ \hline 
5 & 15 & 1000 & (2.0, 4.0) & 1 & 3 & 0.4834 & 0.1896 & 208.0\\ \hline 
5 & 20 & 1000 & (3.0, 5.0) & 1 & 3 & 0.754 & 1.1287 & 291.0\\ \hline 
5 & 25 & 1000 & (4.0, 6.0) & 1 & 3 & 1.0878 & - & -\\ \hline 
10 & 15 & 2000 & (1.0, 3.0) & 1 & 5 & 0.6559 & 0.0478 & 124.0\\ \hline 
10 & 20 & 2000 & (1.0, 3.0) & 1 & 5 & 0.3842 & 0.1624 & 82.0\\ \hline 
10 & 25 & 2000 & (2.0, 4.0) & 1 & 5 & 3.0318 & - & -\\ \hline 
\end{tabular}
\end{table}
\end{landscape}
bp_tests-off3-sam1000o1-part-startsol-time60m-makespan.txt
\begin{landscape}
\begin{table}[H]
\centering
\caption{Table showing the results from running the heuristic set partitioning model on instances with varying sets of columns. These runs used a makespan objective function. The schedule generation phase was done using sampling. }
\label{sphperf}
\begin{tabular}{|l|l|l|l|l|l|l|l|l|}
\hline
Vehicles & Tasks & \#Cols & Tasklimits & \#St & \#Ov & CG Time & Solve Time & Obj.\\ \hline 
5 & 10 & 970 & (1.0, 3.0) & 1 & 3 & 0.3037 & 0.0185 & 162.0\\ \hline 
5 & 15 & 1000 & (2.0, 4.0) & 1 & 3 & 0.4778 & 0.066 & 207.0\\ \hline 
5 & 20 & 1000 & (3.0, 5.0) & 1 & 3 & 0.8705 & 0.4102 & 282.0\\ \hline 
5 & 25 & 1000 & (4.0, 6.0) & 1 & 3 & 1.4885 & - & -\\ \hline 
10 & 15 & 2000 & (1.0, 3.0) & 1 & 5 & 0.9153 & 0.046 & 124.0\\ \hline 
10 & 20 & 2000 & (1.0, 3.0) & 1 & 5 & 0.4105 & 0.11 & 82.0\\ \hline 
10 & 25 & 2000 & (2.0, 4.0) & 1 & 5 & 3.3912 & - & -\\ \hline 
\end{tabular}
\end{table}
\end{landscape}
bp_tests-off3-sam1000o1-part-startsol-time60m-makespan.txt
\begin{landscape}
\begin{table}[H]
\centering
\caption{Table showing the results from running the heuristic set partitioning model on instances with varying sets of columns. These runs used a makespan objective function. The schedule generation phase was done using sampling. }
\label{sphperf}
\begin{tabular}{|l|l|l|l|l|l|l|l|l|}
\hline
Vehicles & Tasks & \#Cols & Tasklimits & \#St & \#Ov & CG Time & Solve Time & Obj.\\ \hline 
5 & 10 & 960 & (1.0, 3.0) & 1 & 3 & 0.212 & 0.0202 & 162.0\\ \hline 
5 & 15 & 1000 & (2.0, 4.0) & 1 & 3 & 0.5272 & 0.0639 & 207.0\\ \hline 
5 & 20 & 1000 & (3.0, 5.0) & 1 & 3 & 0.8859 & 0.8584 & 317.0\\ \hline 
5 & 25 & 1000 & (4.0, 6.0) & 1 & 3 & 1.0967 & - & -\\ \hline 
10 & 15 & 2000 & (1.0, 3.0) & 1 & 5 & 0.7652 & 0.038 & 124.0\\ \hline 
10 & 20 & 2000 & (1.0, 3.0) & 1 & 5 & 0.5334 & 0.0903 & 85.0\\ \hline 
10 & 25 & 2000 & (2.0, 4.0) & 1 & 5 & 3.5283 & - & -\\ \hline 
\end{tabular}
\end{table}
\end{landscape}
bp_tests-off3-sam1000o1-part-startsol-time60m-makespan.txt
\begin{landscape}
\begin{table}[H]
\centering
\caption{Table showing the results from running the heuristic set partitioning model on instances with varying sets of columns. These runs used a makespan objective function. The schedule generation phase was done using sampling. }
\label{sphperf}
\begin{tabular}{|l|l|l|l|l|l|l|l|l|}
\hline
Vehicles & Tasks & \#Cols & Tasklimits & \#St & \#Ov & CG Time & Solve Time & Obj.\\ \hline 
5 & 10 & 960 & (1.0, 3.0) & 1 & 3 & 0.2363 & 0.0195 & 162.0\\ \hline 
5 & 15 & 1000 & (2.0, 4.0) & 1 & 3 & 0.5259 & 0.1353 & 208.0\\ \hline 
5 & 20 & 1000 & (3.0, 5.0) & 1 & 3 & 0.8763 & 1.0159 & 294.0\\ \hline 
5 & 25 & 1000 & (4.0, 6.0) & 1 & 3 & 1.2808 & - & -\\ \hline 
10 & 15 & 2000 & (1.0, 3.0) & 1 & 5 & 0.7599 & 0.0408 & 124.0\\ \hline 
10 & 20 & 2000 & (1.0, 3.0) & 1 & 5 & 0.6842 & 0.1853 & 83.0\\ \hline 
10 & 25 & 2000 & (2.0, 4.0) & 1 & 5 & 2.9601 & - & -\\ \hline 
\end{tabular}
\end{table}
\end{landscape}
