<?xml version="1.0" encoding="UTF-8"?>
<svg xmlns="http://www.w3.org/2000/svg" xmlns:xlink="http://www.w3.org/1999/xlink" width="504pt" height="504pt" viewBox="0 0 504 504" version="1.1">
<defs>
<g>
<symbol overflow="visible" id="glyph0-0">
<path style="stroke:none;" d="M 0.496094 -4.234375 C 0.492188 -5.246094 0.597656 -6.0625 0.808594 -6.6875 C 1.019531 -7.304688 1.328125 -7.785156 1.742188 -8.121094 C 2.148438 -8.457031 2.667969 -8.625 3.296875 -8.625 C 3.753906 -8.625 4.15625 -8.53125 4.507813 -8.34375 C 4.851563 -8.15625 5.140625 -7.886719 5.371094 -7.542969 C 5.59375 -7.191406 5.769531 -6.765625 5.902344 -6.265625 C 6.027344 -5.757813 6.09375 -5.082031 6.097656 -4.234375 C 6.09375 -3.222656 5.988281 -2.410156 5.785156 -1.792969 C 5.574219 -1.175781 5.265625 -0.695313 4.859375 -0.359375 C 4.445313 -0.0234375 3.925781 0.140625 3.296875 0.144531 C 2.464844 0.140625 1.816406 -0.152344 1.347656 -0.742188 C 0.777344 -1.457031 0.492188 -2.621094 0.496094 -4.234375 Z M 1.582031 -4.234375 C 1.582031 -2.824219 1.746094 -1.886719 2.074219 -1.417969 C 2.402344 -0.949219 2.808594 -0.714844 3.296875 -0.71875 C 3.777344 -0.714844 4.183594 -0.949219 4.519531 -1.421875 C 4.847656 -1.886719 5.015625 -2.824219 5.015625 -4.234375 C 5.015625 -5.644531 4.847656 -6.582031 4.519531 -7.050781 C 4.183594 -7.511719 3.773438 -7.746094 3.285156 -7.75 C 2.796875 -7.746094 2.410156 -7.542969 2.125 -7.136719 C 1.761719 -6.613281 1.582031 -5.644531 1.582031 -4.234375 Z M 1.582031 -4.234375 "/>
</symbol>
<symbol overflow="visible" id="glyph0-1">
<path style="stroke:none;" d="M 4.46875 0 L 3.414063 0 L 3.414063 -6.71875 C 3.160156 -6.472656 2.828125 -6.230469 2.414063 -5.992188 C 2 -5.746094 1.628906 -5.566406 1.304688 -5.449219 L 1.304688 -6.46875 C 1.894531 -6.742188 2.410156 -7.074219 2.851563 -7.472656 C 3.292969 -7.863281 3.605469 -8.25 3.789063 -8.625 L 4.46875 -8.625 Z M 4.46875 0 "/>
</symbol>
<symbol overflow="visible" id="glyph0-2">
<path style="stroke:none;" d="M 6.039063 -1.011719 L 6.039063 0 L 0.363281 0 C 0.355469 -0.25 0.394531 -0.492188 0.484375 -0.730469 C 0.628906 -1.117188 0.859375 -1.5 1.179688 -1.875 C 1.492188 -2.25 1.953125 -2.683594 2.558594 -3.175781 C 3.492188 -3.941406 4.125 -4.546875 4.453125 -4.992188 C 4.78125 -5.4375 4.945313 -5.859375 4.945313 -6.261719 C 4.945313 -6.679688 4.792969 -7.03125 4.496094 -7.320313 C 4.191406 -7.601563 3.804688 -7.746094 3.328125 -7.75 C 2.820313 -7.746094 2.414063 -7.59375 2.109375 -7.292969 C 1.804688 -6.984375 1.648438 -6.5625 1.644531 -6.027344 L 0.5625 -6.140625 C 0.632813 -6.945313 0.910156 -7.558594 1.398438 -7.988281 C 1.878906 -8.410156 2.53125 -8.625 3.351563 -8.625 C 4.171875 -8.625 4.820313 -8.394531 5.304688 -7.9375 C 5.78125 -7.480469 6.023438 -6.914063 6.027344 -6.238281 C 6.023438 -5.890625 5.953125 -5.550781 5.816406 -5.222656 C 5.671875 -4.886719 5.4375 -4.539063 5.117188 -4.175781 C 4.789063 -3.804688 4.25 -3.300781 3.492188 -2.664063 C 2.859375 -2.128906 2.453125 -1.769531 2.273438 -1.582031 C 2.09375 -1.394531 1.945313 -1.203125 1.828125 -1.011719 Z M 6.039063 -1.011719 "/>
</symbol>
<symbol overflow="visible" id="glyph0-3">
<path style="stroke:none;" d="M 0.503906 -2.265625 L 1.558594 -2.40625 C 1.675781 -1.808594 1.878906 -1.378906 2.175781 -1.113281 C 2.464844 -0.847656 2.820313 -0.714844 3.238281 -0.71875 C 3.734375 -0.714844 4.152344 -0.886719 4.496094 -1.234375 C 4.832031 -1.574219 5.003906 -2 5.007813 -2.511719 C 5.003906 -2.992188 4.84375 -3.390625 4.53125 -3.710938 C 4.210938 -4.023438 3.8125 -4.183594 3.328125 -4.183594 C 3.125 -4.183594 2.875 -4.144531 2.582031 -4.066406 L 2.699219 -4.992188 C 2.765625 -4.984375 2.824219 -4.980469 2.871094 -4.980469 C 3.316406 -4.980469 3.71875 -5.097656 4.082031 -5.332031 C 4.4375 -5.566406 4.617188 -5.925781 4.621094 -6.414063 C 4.617188 -6.800781 4.484375 -7.121094 4.226563 -7.375 C 3.960938 -7.628906 3.625 -7.757813 3.214844 -7.757813 C 2.804688 -7.757813 2.464844 -7.628906 2.191406 -7.371094 C 1.917969 -7.113281 1.742188 -6.726563 1.664063 -6.210938 L 0.609375 -6.398438 C 0.734375 -7.101563 1.023438 -7.648438 1.484375 -8.039063 C 1.9375 -8.429688 2.507813 -8.625 3.191406 -8.625 C 3.65625 -8.625 4.085938 -8.523438 4.484375 -8.320313 C 4.875 -8.117188 5.179688 -7.839844 5.390625 -7.496094 C 5.601563 -7.144531 5.707031 -6.777344 5.707031 -6.390625 C 5.707031 -6.019531 5.605469 -5.683594 5.40625 -5.378906 C 5.207031 -5.074219 4.914063 -4.832031 4.523438 -4.652344 C 5.03125 -4.535156 5.425781 -4.289063 5.707031 -3.921875 C 5.988281 -3.546875 6.128906 -3.085938 6.128906 -2.535156 C 6.128906 -1.78125 5.855469 -1.144531 5.308594 -0.628906 C 4.761719 -0.105469 4.070313 0.152344 3.234375 0.152344 C 2.476563 0.152344 1.847656 -0.0703125 1.355469 -0.519531 C 0.855469 -0.96875 0.574219 -1.550781 0.503906 -2.265625 Z M 0.503906 -2.265625 "/>
</symbol>
<symbol overflow="visible" id="glyph0-4">
<path style="stroke:none;" d="M 3.878906 0 L 3.878906 -2.054688 L 0.152344 -2.054688 L 0.152344 -3.023438 L 4.070313 -8.589844 L 4.933594 -8.589844 L 4.933594 -3.023438 L 6.09375 -3.023438 L 6.09375 -2.054688 L 4.933594 -2.054688 L 4.933594 0 Z M 3.878906 -3.023438 L 3.878906 -6.894531 L 1.1875 -3.023438 Z M 3.878906 -3.023438 "/>
</symbol>
<symbol overflow="visible" id="glyph0-5">
<path style="stroke:none;" d="M 0.496094 -2.25 L 1.605469 -2.34375 C 1.683594 -1.804688 1.871094 -1.398438 2.175781 -1.125 C 2.472656 -0.851563 2.835938 -0.714844 3.257813 -0.71875 C 3.765625 -0.714844 4.195313 -0.90625 4.546875 -1.292969 C 4.898438 -1.671875 5.074219 -2.179688 5.074219 -2.816406 C 5.074219 -3.414063 4.902344 -3.886719 4.566406 -4.238281 C 4.222656 -4.582031 3.78125 -4.757813 3.238281 -4.761719 C 2.898438 -4.757813 2.59375 -4.679688 2.320313 -4.53125 C 2.046875 -4.375 1.832031 -4.175781 1.675781 -3.929688 L 0.683594 -4.058594 L 1.515625 -8.472656 L 5.789063 -8.472656 L 5.789063 -7.464844 L 2.359375 -7.464844 L 1.898438 -5.15625 C 2.414063 -5.515625 2.953125 -5.695313 3.519531 -5.695313 C 4.265625 -5.695313 4.898438 -5.433594 5.417969 -4.914063 C 5.929688 -4.394531 6.1875 -3.726563 6.191406 -2.910156 C 6.1875 -2.132813 5.960938 -1.460938 5.511719 -0.894531 C 4.960938 -0.203125 4.210938 0.140625 3.257813 0.144531 C 2.476563 0.140625 1.835938 -0.0742188 1.34375 -0.507813 C 0.84375 -0.941406 0.5625 -1.523438 0.496094 -2.25 Z M 0.496094 -2.25 "/>
</symbol>
<symbol overflow="visible" id="glyph0-6">
<path style="stroke:none;" d="M 5.96875 -6.484375 L 4.921875 -6.402344 C 4.828125 -6.8125 4.695313 -7.113281 4.523438 -7.304688 C 4.234375 -7.605469 3.882813 -7.757813 3.46875 -7.757813 C 3.132813 -7.757813 2.835938 -7.664063 2.582031 -7.476563 C 2.25 -7.234375 1.988281 -6.878906 1.796875 -6.414063 C 1.605469 -5.949219 1.507813 -5.289063 1.5 -4.429688 C 1.75 -4.8125 2.058594 -5.097656 2.429688 -5.289063 C 2.792969 -5.472656 3.179688 -5.566406 3.585938 -5.570313 C 4.289063 -5.566406 4.886719 -5.308594 5.378906 -4.792969 C 5.871094 -4.277344 6.117188 -3.609375 6.121094 -2.789063 C 6.117188 -2.25 6 -1.746094 5.773438 -1.285156 C 5.539063 -0.816406 5.222656 -0.464844 4.816406 -0.222656 C 4.410156 0.0195313 3.949219 0.140625 3.433594 0.144531 C 2.550781 0.140625 1.832031 -0.179688 1.28125 -0.824219 C 0.722656 -1.46875 0.445313 -2.535156 0.449219 -4.019531 C 0.445313 -5.675781 0.753906 -6.882813 1.371094 -7.640625 C 1.902344 -8.296875 2.621094 -8.625 3.53125 -8.625 C 4.207031 -8.625 4.761719 -8.433594 5.191406 -8.054688 C 5.621094 -7.675781 5.878906 -7.152344 5.96875 -6.484375 Z M 1.664063 -2.78125 C 1.664063 -2.417969 1.738281 -2.070313 1.894531 -1.738281 C 2.042969 -1.40625 2.257813 -1.152344 2.539063 -0.980469 C 2.8125 -0.800781 3.105469 -0.714844 3.414063 -0.71875 C 3.855469 -0.714844 4.238281 -0.894531 4.5625 -1.257813 C 4.878906 -1.613281 5.039063 -2.101563 5.042969 -2.722656 C 5.039063 -3.3125 4.878906 -3.78125 4.566406 -4.125 C 4.246094 -4.46875 3.851563 -4.640625 3.375 -4.640625 C 2.898438 -4.640625 2.492188 -4.46875 2.160156 -4.125 C 1.828125 -3.78125 1.664063 -3.332031 1.664063 -2.78125 Z M 1.664063 -2.78125 "/>
</symbol>
<symbol overflow="visible" id="glyph0-7">
<path style="stroke:none;" d="M 0.566406 -7.464844 L 0.566406 -8.476563 L 6.128906 -8.476563 L 6.128906 -7.65625 C 5.582031 -7.074219 5.039063 -6.300781 4.5 -5.335938 C 3.960938 -4.371094 3.546875 -3.378906 3.257813 -2.359375 C 3.046875 -1.636719 2.910156 -0.851563 2.851563 0 L 1.769531 0 C 1.777344 -0.671875 1.90625 -1.484375 2.164063 -2.445313 C 2.414063 -3.398438 2.78125 -4.324219 3.257813 -5.214844 C 3.734375 -6.105469 4.238281 -6.855469 4.773438 -7.464844 Z M 0.566406 -7.464844 "/>
</symbol>
<symbol overflow="visible" id="glyph0-8">
<path style="stroke:none;" d="M 2.121094 -4.65625 C 1.683594 -4.816406 1.359375 -5.046875 1.148438 -5.34375 C 0.9375 -5.640625 0.832031 -5.996094 0.832031 -6.410156 C 0.832031 -7.035156 1.054688 -7.558594 1.503906 -7.984375 C 1.953125 -8.410156 2.550781 -8.625 3.296875 -8.625 C 4.042969 -8.625 4.644531 -8.40625 5.105469 -7.96875 C 5.558594 -7.53125 5.789063 -7 5.792969 -6.378906 C 5.789063 -5.976563 5.683594 -5.628906 5.480469 -5.339844 C 5.269531 -5.042969 4.953125 -4.816406 4.527344 -4.65625 C 5.054688 -4.480469 5.457031 -4.203125 5.730469 -3.824219 C 6.003906 -3.4375 6.140625 -2.980469 6.144531 -2.453125 C 6.140625 -1.714844 5.878906 -1.097656 5.363281 -0.601563 C 4.839844 -0.105469 4.160156 0.140625 3.316406 0.144531 C 2.464844 0.140625 1.777344 -0.105469 1.261719 -0.605469 C 0.738281 -1.105469 0.480469 -1.734375 0.484375 -2.484375 C 0.480469 -3.039063 0.621094 -3.503906 0.910156 -3.886719 C 1.191406 -4.261719 1.597656 -4.519531 2.121094 -4.65625 Z M 1.910156 -6.445313 C 1.910156 -6.039063 2.039063 -5.707031 2.300781 -5.449219 C 2.5625 -5.191406 2.902344 -5.0625 3.320313 -5.0625 C 3.722656 -5.0625 4.054688 -5.1875 4.320313 -5.445313 C 4.578125 -5.695313 4.710938 -6.011719 4.710938 -6.386719 C 4.710938 -6.769531 4.574219 -7.09375 4.308594 -7.359375 C 4.035156 -7.625 3.703125 -7.757813 3.308594 -7.757813 C 2.90625 -7.757813 2.574219 -7.628906 2.308594 -7.371094 C 2.042969 -7.113281 1.910156 -6.804688 1.910156 -6.445313 Z M 1.570313 -2.476563 C 1.570313 -2.175781 1.640625 -1.886719 1.78125 -1.605469 C 1.921875 -1.324219 2.132813 -1.105469 2.417969 -0.949219 C 2.695313 -0.792969 3 -0.714844 3.328125 -0.71875 C 3.828125 -0.714844 4.242188 -0.875 4.574219 -1.203125 C 4.898438 -1.523438 5.0625 -1.9375 5.066406 -2.441406 C 5.0625 -2.945313 4.894531 -3.363281 4.558594 -3.699219 C 4.222656 -4.027344 3.800781 -4.195313 3.292969 -4.199219 C 2.792969 -4.195313 2.378906 -4.03125 2.058594 -3.707031 C 1.730469 -3.375 1.570313 -2.964844 1.570313 -2.476563 Z M 1.570313 -2.476563 "/>
</symbol>
<symbol overflow="visible" id="glyph0-9">
<path style="stroke:none;" d="M 0.65625 -1.984375 L 1.667969 -2.078125 C 1.75 -1.597656 1.914063 -1.25 2.160156 -1.039063 C 2.398438 -0.820313 2.710938 -0.714844 3.09375 -0.71875 C 3.414063 -0.714844 3.695313 -0.789063 3.945313 -0.941406 C 4.1875 -1.085938 4.390625 -1.285156 4.546875 -1.535156 C 4.703125 -1.785156 4.832031 -2.121094 4.9375 -2.542969 C 5.042969 -2.964844 5.097656 -3.394531 5.097656 -3.832031 C 5.097656 -3.878906 5.09375 -3.949219 5.089844 -4.042969 C 4.875 -3.707031 4.585938 -3.433594 4.226563 -3.222656 C 3.859375 -3.011719 3.464844 -2.90625 3.039063 -2.910156 C 2.324219 -2.90625 1.722656 -3.164063 1.234375 -3.683594 C 0.738281 -4.195313 0.492188 -4.875 0.496094 -5.722656 C 0.492188 -6.59375 0.75 -7.296875 1.265625 -7.828125 C 1.78125 -8.359375 2.425781 -8.625 3.199219 -8.625 C 3.753906 -8.625 4.261719 -8.472656 4.730469 -8.171875 C 5.191406 -7.871094 5.542969 -7.441406 5.785156 -6.886719 C 6.019531 -6.324219 6.140625 -5.519531 6.144531 -4.46875 C 6.140625 -3.371094 6.019531 -2.496094 5.785156 -1.847656 C 5.542969 -1.191406 5.191406 -0.699219 4.722656 -0.363281 C 4.253906 -0.0273438 3.703125 0.140625 3.070313 0.144531 C 2.398438 0.140625 1.847656 -0.0429688 1.421875 -0.414063 C 0.996094 -0.785156 0.742188 -1.308594 0.65625 -1.984375 Z M 4.972656 -5.777344 C 4.96875 -6.378906 4.808594 -6.855469 4.488281 -7.214844 C 4.167969 -7.566406 3.78125 -7.746094 3.328125 -7.75 C 2.859375 -7.746094 2.449219 -7.554688 2.101563 -7.175781 C 1.753906 -6.789063 1.582031 -6.292969 1.582031 -5.6875 C 1.582031 -5.136719 1.746094 -4.691406 2.074219 -4.355469 C 2.402344 -4.011719 2.808594 -3.84375 3.296875 -3.84375 C 3.785156 -3.84375 4.1875 -4.011719 4.5 -4.355469 C 4.8125 -4.691406 4.96875 -5.167969 4.972656 -5.777344 Z M 4.972656 -5.777344 "/>
</symbol>
<symbol overflow="visible" id="glyph0-10">
<path style="stroke:none;" d="M 0.777344 0 L 0.777344 -6.222656 L 1.726563 -6.222656 L 1.726563 -5.277344 C 1.964844 -5.71875 2.1875 -6.011719 2.398438 -6.152344 C 2.601563 -6.292969 2.828125 -6.363281 3.074219 -6.363281 C 3.429688 -6.363281 3.792969 -6.25 4.160156 -6.023438 L 3.796875 -5.042969 C 3.539063 -5.195313 3.28125 -5.273438 3.023438 -5.273438 C 2.789063 -5.273438 2.578125 -5.203125 2.398438 -5.0625 C 2.210938 -4.921875 2.082031 -4.730469 2.007813 -4.488281 C 1.886719 -4.113281 1.828125 -3.703125 1.832031 -3.257813 L 1.832031 0 Z M 0.777344 0 "/>
</symbol>
<symbol overflow="visible" id="glyph0-11">
<path style="stroke:none;" d="M 4.851563 -0.765625 C 4.460938 -0.433594 4.082031 -0.199219 3.722656 -0.0625 C 3.355469 0.0742188 2.96875 0.140625 2.558594 0.140625 C 1.875 0.140625 1.351563 -0.0234375 0.984375 -0.359375 C 0.617188 -0.6875 0.433594 -1.117188 0.433594 -1.640625 C 0.433594 -1.945313 0.5 -2.222656 0.640625 -2.472656 C 0.773438 -2.722656 0.957031 -2.921875 1.183594 -3.078125 C 1.410156 -3.226563 1.664063 -3.34375 1.945313 -3.425781 C 2.148438 -3.476563 2.460938 -3.53125 2.882813 -3.585938 C 3.734375 -3.6875 4.359375 -3.808594 4.761719 -3.949219 C 4.765625 -4.089844 4.769531 -4.179688 4.769531 -4.222656 C 4.769531 -4.648438 4.667969 -4.953125 4.46875 -5.132813 C 4.199219 -5.367188 3.800781 -5.484375 3.269531 -5.488281 C 2.769531 -5.484375 2.402344 -5.398438 2.167969 -5.226563 C 1.933594 -5.054688 1.757813 -4.746094 1.644531 -4.304688 L 0.613281 -4.445313 C 0.703125 -4.886719 0.855469 -5.242188 1.074219 -5.515625 C 1.285156 -5.78125 1.597656 -5.992188 2.007813 -6.140625 C 2.410156 -6.289063 2.882813 -6.363281 3.421875 -6.363281 C 3.953125 -6.363281 4.382813 -6.300781 4.714844 -6.175781 C 5.046875 -6.050781 5.292969 -5.890625 5.449219 -5.703125 C 5.605469 -5.507813 5.714844 -5.269531 5.777344 -4.984375 C 5.808594 -4.800781 5.824219 -4.476563 5.828125 -4.011719 L 5.828125 -2.605469 C 5.824219 -1.625 5.847656 -1.003906 5.894531 -0.746094 C 5.941406 -0.480469 6.03125 -0.234375 6.164063 0 L 5.0625 0 C 4.953125 -0.21875 4.882813 -0.472656 4.851563 -0.765625 Z M 4.761719 -3.121094 C 4.375 -2.960938 3.800781 -2.828125 3.039063 -2.722656 C 2.605469 -2.65625 2.300781 -2.585938 2.121094 -2.511719 C 1.941406 -2.429688 1.800781 -2.316406 1.703125 -2.167969 C 1.605469 -2.019531 1.558594 -1.851563 1.558594 -1.667969 C 1.558594 -1.382813 1.664063 -1.148438 1.875 -0.964844 C 2.085938 -0.773438 2.398438 -0.679688 2.8125 -0.683594 C 3.21875 -0.679688 3.578125 -0.769531 3.894531 -0.949219 C 4.210938 -1.128906 4.445313 -1.371094 4.59375 -1.679688 C 4.703125 -1.917969 4.757813 -2.269531 4.761719 -2.734375 Z M 4.761719 -3.121094 "/>
</symbol>
<symbol overflow="visible" id="glyph0-12">
<path style="stroke:none;" d="M 0.789063 0 L 0.789063 -6.222656 L 1.738281 -6.222656 L 1.738281 -5.335938 C 2.195313 -6.019531 2.855469 -6.363281 3.71875 -6.363281 C 4.089844 -6.363281 4.433594 -6.292969 4.753906 -6.160156 C 5.066406 -6.019531 5.304688 -5.84375 5.460938 -5.628906 C 5.617188 -5.40625 5.726563 -5.148438 5.789063 -4.851563 C 5.828125 -4.65625 5.847656 -4.3125 5.847656 -3.824219 L 5.847656 0 L 4.792969 0 L 4.792969 -3.785156 C 4.792969 -4.214844 4.75 -4.535156 4.667969 -4.746094 C 4.585938 -4.957031 4.441406 -5.125 4.230469 -5.257813 C 4.019531 -5.382813 3.773438 -5.449219 3.496094 -5.449219 C 3.046875 -5.449219 2.660156 -5.304688 2.332031 -5.019531 C 2.003906 -4.734375 1.839844 -4.195313 1.84375 -3.398438 L 1.84375 0 Z M 0.789063 0 "/>
</symbol>
<symbol overflow="visible" id="glyph0-13">
<path style="stroke:none;" d="M 4.828125 0 L 4.828125 -0.785156 C 4.429688 -0.167969 3.847656 0.140625 3.085938 0.140625 C 2.589844 0.140625 2.132813 0.00390625 1.71875 -0.269531 C 1.296875 -0.542969 0.976563 -0.921875 0.75 -1.414063 C 0.523438 -1.898438 0.410156 -2.464844 0.410156 -3.105469 C 0.410156 -3.722656 0.511719 -4.285156 0.71875 -4.792969 C 0.925781 -5.300781 1.238281 -5.6875 1.652344 -5.957031 C 2.066406 -6.226563 2.527344 -6.363281 3.039063 -6.363281 C 3.410156 -6.363281 3.742188 -6.28125 4.039063 -6.125 C 4.328125 -5.960938 4.570313 -5.757813 4.757813 -5.507813 L 4.757813 -8.589844 L 5.804688 -8.589844 L 5.804688 0 Z M 1.492188 -3.105469 C 1.488281 -2.308594 1.65625 -1.710938 1.996094 -1.316406 C 2.328125 -0.921875 2.726563 -0.726563 3.1875 -0.726563 C 3.648438 -0.726563 4.039063 -0.914063 4.359375 -1.289063 C 4.679688 -1.664063 4.839844 -2.238281 4.84375 -3.015625 C 4.839844 -3.863281 4.675781 -4.488281 4.351563 -4.890625 C 4.019531 -5.285156 3.617188 -5.484375 3.140625 -5.488281 C 2.671875 -5.484375 2.277344 -5.292969 1.964844 -4.914063 C 1.644531 -4.527344 1.488281 -3.925781 1.492188 -3.105469 Z M 1.492188 -3.105469 "/>
</symbol>
<symbol overflow="visible" id="glyph0-14">
<path style="stroke:none;" d="M 0.796875 -7.375 L 0.796875 -8.589844 L 1.851563 -8.589844 L 1.851563 -7.375 Z M 0.796875 0 L 0.796875 -6.222656 L 1.851563 -6.222656 L 1.851563 0 Z M 0.796875 0 "/>
</symbol>
<symbol overflow="visible" id="glyph0-15">
<path style="stroke:none;" d="M 0.367188 -1.855469 L 1.410156 -2.019531 C 1.46875 -1.601563 1.632813 -1.28125 1.898438 -1.058594 C 2.164063 -0.835938 2.539063 -0.726563 3.023438 -0.726563 C 3.507813 -0.726563 3.867188 -0.824219 4.101563 -1.019531 C 4.335938 -1.214844 4.453125 -1.445313 4.453125 -1.714844 C 4.453125 -1.953125 4.347656 -2.140625 4.140625 -2.277344 C 3.996094 -2.367188 3.636719 -2.488281 3.0625 -2.636719 C 2.285156 -2.832031 1.75 -3 1.453125 -3.140625 C 1.15625 -3.28125 0.929688 -3.476563 0.773438 -3.734375 C 0.617188 -3.984375 0.539063 -4.265625 0.542969 -4.570313 C 0.539063 -4.84375 0.601563 -5.097656 0.734375 -5.339844 C 0.859375 -5.574219 1.035156 -5.773438 1.253906 -5.929688 C 1.417969 -6.046875 1.640625 -6.148438 1.921875 -6.234375 C 2.203125 -6.320313 2.507813 -6.363281 2.835938 -6.363281 C 3.320313 -6.363281 3.746094 -6.292969 4.121094 -6.152344 C 4.488281 -6.011719 4.761719 -5.820313 4.9375 -5.578125 C 5.113281 -5.335938 5.234375 -5.015625 5.300781 -4.617188 L 4.269531 -4.476563 C 4.21875 -4.796875 4.082031 -5.046875 3.863281 -5.226563 C 3.636719 -5.40625 3.320313 -5.496094 2.910156 -5.496094 C 2.421875 -5.496094 2.074219 -5.414063 1.871094 -5.253906 C 1.660156 -5.09375 1.558594 -4.90625 1.5625 -4.691406 C 1.558594 -4.554688 1.601563 -4.433594 1.691406 -4.324219 C 1.773438 -4.207031 1.910156 -4.113281 2.097656 -4.042969 C 2.199219 -4.003906 2.507813 -3.914063 3.027344 -3.773438 C 3.773438 -3.570313 4.292969 -3.40625 4.589844 -3.28125 C 4.878906 -3.15625 5.109375 -2.972656 5.28125 -2.730469 C 5.445313 -2.488281 5.53125 -2.1875 5.535156 -1.828125 C 5.53125 -1.476563 5.429688 -1.144531 5.226563 -0.832031 C 5.023438 -0.519531 4.726563 -0.277344 4.339844 -0.113281 C 3.953125 0.0585938 3.515625 0.140625 3.027344 0.140625 C 2.21875 0.140625 1.601563 -0.0273438 1.179688 -0.363281 C 0.75 -0.699219 0.480469 -1.195313 0.367188 -1.855469 Z M 0.367188 -1.855469 "/>
</symbol>
<symbol overflow="visible" id="glyph0-16">
<path style="stroke:none;" d="M 3.09375 -0.941406 L 3.246094 -0.0117188 C 2.949219 0.0507813 2.683594 0.0820313 2.449219 0.0820313 C 2.066406 0.0820313 1.769531 0.0234375 1.558594 -0.0976563 C 1.347656 -0.21875 1.199219 -0.378906 1.113281 -0.574219 C 1.027344 -0.769531 0.984375 -1.183594 0.984375 -1.820313 L 0.984375 -5.402344 L 0.210938 -5.402344 L 0.210938 -6.222656 L 0.984375 -6.222656 L 0.984375 -7.761719 L 2.03125 -8.394531 L 2.03125 -6.222656 L 3.09375 -6.222656 L 3.09375 -5.402344 L 2.03125 -5.402344 L 2.03125 -1.761719 C 2.027344 -1.460938 2.046875 -1.269531 2.085938 -1.183594 C 2.125 -1.097656 2.183594 -1.027344 2.269531 -0.976563 C 2.347656 -0.925781 2.46875 -0.902344 2.628906 -0.902344 C 2.742188 -0.902344 2.898438 -0.914063 3.09375 -0.941406 Z M 3.09375 -0.941406 "/>
</symbol>
<symbol overflow="visible" id="glyph0-17">
<path style="stroke:none;" d="M -0.179688 2.382813 L -0.179688 1.621094 L 6.808594 1.621094 L 6.808594 2.382813 Z M -0.179688 2.382813 "/>
</symbol>
<symbol overflow="visible" id="glyph0-18">
<path style="stroke:none;" d="M 5.050781 -2.003906 L 6.140625 -1.867188 C 5.96875 -1.230469 5.648438 -0.738281 5.183594 -0.386719 C 4.71875 -0.0351563 4.125 0.140625 3.402344 0.140625 C 2.492188 0.140625 1.769531 -0.136719 1.238281 -0.699219 C 0.699219 -1.253906 0.433594 -2.042969 0.4375 -3.058594 C 0.433594 -4.105469 0.703125 -4.917969 1.246094 -5.496094 C 1.78125 -6.074219 2.480469 -6.363281 3.34375 -6.363281 C 4.175781 -6.363281 4.855469 -6.078125 5.382813 -5.511719 C 5.910156 -4.945313 6.175781 -4.148438 6.175781 -3.121094 C 6.175781 -3.054688 6.171875 -2.960938 6.167969 -2.839844 L 1.527344 -2.839844 C 1.5625 -2.15625 1.753906 -1.632813 2.105469 -1.269531 C 2.449219 -0.90625 2.886719 -0.726563 3.410156 -0.726563 C 3.792969 -0.726563 4.121094 -0.828125 4.398438 -1.03125 C 4.667969 -1.234375 4.886719 -1.558594 5.050781 -2.003906 Z M 1.585938 -3.707031 L 5.0625 -3.707031 C 5.015625 -4.226563 4.882813 -4.621094 4.664063 -4.886719 C 4.328125 -5.292969 3.890625 -5.496094 3.355469 -5.496094 C 2.867188 -5.496094 2.460938 -5.332031 2.132813 -5.007813 C 1.804688 -4.683594 1.621094 -4.25 1.585938 -3.707031 Z M 1.585938 -3.707031 "/>
</symbol>
<symbol overflow="visible" id="glyph0-19">
<path style="stroke:none;" d="M 1.089844 0 L 1.089844 -1.199219 L 2.289063 -1.199219 L 2.289063 0 Z M 1.089844 0 "/>
</symbol>
<symbol overflow="visible" id="glyph0-20">
<path style="stroke:none;" d="M 0.0859375 0 L 2.359375 -3.234375 L 0.257813 -6.222656 L 1.574219 -6.222656 L 2.53125 -4.761719 C 2.710938 -4.484375 2.855469 -4.253906 2.964844 -4.066406 C 3.136719 -4.324219 3.292969 -4.550781 3.4375 -4.75 L 4.488281 -6.222656 L 5.746094 -6.222656 L 3.597656 -3.292969 L 5.910156 0 L 4.617188 0 L 3.339844 -1.933594 L 3 -2.453125 L 1.363281 0 Z M 0.0859375 0 "/>
</symbol>
<symbol overflow="visible" id="glyph1-0">
<path style="stroke:none;" d="M 0.628906 -3.21875 L 1.878906 -3.328125 C 1.9375 -2.828125 2.074219 -2.414063 2.292969 -2.09375 C 2.503906 -1.769531 2.839844 -1.511719 3.300781 -1.316406 C 3.753906 -1.117188 4.269531 -1.019531 4.839844 -1.019531 C 5.34375 -1.019531 5.789063 -1.09375 6.179688 -1.242188 C 6.566406 -1.390625 6.855469 -1.597656 7.042969 -1.863281 C 7.230469 -2.125 7.324219 -2.410156 7.328125 -2.71875 C 7.324219 -3.03125 7.234375 -3.304688 7.054688 -3.542969 C 6.871094 -3.777344 6.570313 -3.976563 6.152344 -4.136719 C 5.882813 -4.238281 5.285156 -4.398438 4.367188 -4.625 C 3.445313 -4.84375 2.800781 -5.054688 2.433594 -5.25 C 1.949219 -5.5 1.59375 -5.808594 1.363281 -6.183594 C 1.125 -6.550781 1.007813 -6.96875 1.011719 -7.429688 C 1.007813 -7.933594 1.152344 -8.40625 1.441406 -8.847656 C 1.730469 -9.285156 2.148438 -9.617188 2.699219 -9.847656 C 3.25 -10.074219 3.863281 -10.1875 4.539063 -10.191406 C 5.277344 -10.1875 5.933594 -10.070313 6.503906 -9.832031 C 7.070313 -9.59375 7.503906 -9.242188 7.8125 -8.777344 C 8.117188 -8.308594 8.28125 -7.78125 8.304688 -7.199219 L 7.035156 -7.101563 C 6.960938 -7.734375 6.730469 -8.210938 6.339844 -8.539063 C 5.945313 -8.859375 5.363281 -9.023438 4.59375 -9.023438 C 3.789063 -9.023438 3.203125 -8.875 2.839844 -8.582031 C 2.46875 -8.285156 2.285156 -7.929688 2.289063 -7.519531 C 2.285156 -7.15625 2.414063 -6.863281 2.679688 -6.632813 C 2.929688 -6.398438 3.597656 -6.15625 4.679688 -5.914063 C 5.753906 -5.667969 6.492188 -5.457031 6.898438 -5.277344 C 7.476563 -5.007813 7.90625 -4.667969 8.1875 -4.253906 C 8.460938 -3.839844 8.601563 -3.363281 8.605469 -2.828125 C 8.601563 -2.292969 8.449219 -1.792969 8.148438 -1.324219 C 7.839844 -0.851563 7.402344 -0.484375 6.832031 -0.222656 C 6.261719 0.0390625 5.617188 0.167969 4.902344 0.171875 C 3.992188 0.167969 3.230469 0.0390625 2.621094 -0.222656 C 2.003906 -0.488281 1.523438 -0.886719 1.179688 -1.417969 C 0.828125 -1.949219 0.644531 -2.546875 0.628906 -3.21875 Z M 0.628906 -3.21875 "/>
</symbol>
<symbol overflow="visible" id="glyph1-1">
<path style="stroke:none;" d="M 5.660156 -0.894531 C 5.203125 -0.503906 4.761719 -0.230469 4.34375 -0.0742188 C 3.917969 0.0859375 3.46875 0.164063 2.988281 0.164063 C 2.1875 0.164063 1.574219 -0.0273438 1.148438 -0.417969 C 0.71875 -0.804688 0.503906 -1.304688 0.507813 -1.914063 C 0.503906 -2.265625 0.585938 -2.589844 0.75 -2.886719 C 0.910156 -3.179688 1.121094 -3.414063 1.382813 -3.59375 C 1.644531 -3.769531 1.9375 -3.90625 2.269531 -4 C 2.507813 -4.058594 2.875 -4.121094 3.363281 -4.183594 C 4.355469 -4.300781 5.085938 -4.441406 5.558594 -4.609375 C 5.558594 -4.773438 5.558594 -4.878906 5.5625 -4.929688 C 5.558594 -5.425781 5.445313 -5.78125 5.214844 -5.988281 C 4.898438 -6.265625 4.429688 -6.402344 3.8125 -6.40625 C 3.230469 -6.402344 2.804688 -6.300781 2.53125 -6.101563 C 2.253906 -5.894531 2.050781 -5.535156 1.921875 -5.023438 L 0.71875 -5.1875 C 0.824219 -5.699219 1.003906 -6.117188 1.257813 -6.433594 C 1.503906 -6.75 1.867188 -6.992188 2.34375 -7.164063 C 2.816406 -7.332031 3.363281 -7.417969 3.992188 -7.421875 C 4.609375 -7.417969 5.113281 -7.34375 5.503906 -7.203125 C 5.886719 -7.054688 6.171875 -6.871094 6.359375 -6.652344 C 6.539063 -6.429688 6.667969 -6.152344 6.742188 -5.816406 C 6.777344 -5.605469 6.796875 -5.226563 6.800781 -4.683594 L 6.800781 -3.042969 C 6.796875 -1.894531 6.824219 -1.171875 6.878906 -0.871094 C 6.933594 -0.566406 7.035156 -0.277344 7.191406 0 L 5.90625 0 C 5.777344 -0.253906 5.695313 -0.550781 5.660156 -0.894531 Z M 5.558594 -3.644531 C 5.109375 -3.460938 4.4375 -3.304688 3.546875 -3.179688 C 3.039063 -3.105469 2.683594 -3.023438 2.472656 -2.933594 C 2.261719 -2.839844 2.097656 -2.707031 1.988281 -2.53125 C 1.871094 -2.355469 1.816406 -2.160156 1.820313 -1.949219 C 1.816406 -1.617188 1.941406 -1.34375 2.191406 -1.128906 C 2.4375 -0.90625 2.800781 -0.796875 3.28125 -0.800781 C 3.753906 -0.796875 4.175781 -0.898438 4.546875 -1.109375 C 4.914063 -1.3125 5.183594 -1.597656 5.359375 -1.960938 C 5.488281 -2.238281 5.554688 -2.648438 5.558594 -3.191406 Z M 5.558594 -3.644531 "/>
</symbol>
<symbol overflow="visible" id="glyph1-2">
<path style="stroke:none;" d="M 0.921875 0 L 0.921875 -7.257813 L 2.023438 -7.257813 L 2.023438 -6.242188 C 2.25 -6.59375 2.554688 -6.878906 2.933594 -7.097656 C 3.308594 -7.308594 3.738281 -7.417969 4.226563 -7.421875 C 4.757813 -7.417969 5.199219 -7.304688 5.546875 -7.085938 C 5.886719 -6.859375 6.128906 -6.550781 6.273438 -6.152344 C 6.847656 -6.996094 7.59375 -7.417969 8.515625 -7.421875 C 9.234375 -7.417969 9.789063 -7.21875 10.175781 -6.824219 C 10.5625 -6.421875 10.757813 -5.808594 10.757813 -4.984375 L 10.757813 0 L 9.535156 0 L 9.535156 -4.574219 C 9.53125 -5.0625 9.492188 -5.417969 9.414063 -5.636719 C 9.332031 -5.851563 9.1875 -6.023438 8.980469 -6.160156 C 8.769531 -6.289063 8.523438 -6.355469 8.242188 -6.359375 C 7.730469 -6.355469 7.308594 -6.1875 6.972656 -5.847656 C 6.636719 -5.507813 6.46875 -4.964844 6.46875 -4.21875 L 6.46875 0 L 5.234375 0 L 5.234375 -4.71875 C 5.230469 -5.261719 5.132813 -5.671875 4.933594 -5.949219 C 4.730469 -6.21875 4.402344 -6.355469 3.953125 -6.359375 C 3.601563 -6.355469 3.28125 -6.265625 2.988281 -6.085938 C 2.695313 -5.902344 2.480469 -5.636719 2.351563 -5.285156 C 2.214844 -4.933594 2.148438 -4.425781 2.152344 -3.765625 L 2.152344 0 Z M 0.921875 0 "/>
</symbol>
<symbol overflow="visible" id="glyph1-3">
<path style="stroke:none;" d="M 0.921875 2.78125 L 0.921875 -7.257813 L 2.042969 -7.257813 L 2.042969 -6.316406 C 2.304688 -6.683594 2.601563 -6.957031 2.9375 -7.144531 C 3.265625 -7.324219 3.671875 -7.417969 4.148438 -7.421875 C 4.765625 -7.417969 5.3125 -7.257813 5.789063 -6.945313 C 6.261719 -6.625 6.617188 -6.175781 6.863281 -5.59375 C 7.101563 -5.011719 7.222656 -4.375 7.226563 -3.683594 C 7.222656 -2.9375 7.089844 -2.269531 6.824219 -1.675781 C 6.554688 -1.082031 6.167969 -0.625 5.664063 -0.308594 C 5.152344 0.0078125 4.617188 0.164063 4.0625 0.164063 C 3.648438 0.164063 3.28125 0.078125 2.957031 -0.09375 C 2.628906 -0.265625 2.359375 -0.484375 2.152344 -0.75 L 2.152344 2.78125 Z M 2.039063 -3.589844 C 2.039063 -2.652344 2.226563 -1.960938 2.605469 -1.515625 C 2.980469 -1.066406 3.4375 -0.84375 3.976563 -0.847656 C 4.519531 -0.84375 4.988281 -1.074219 5.382813 -1.539063 C 5.769531 -2 5.964844 -2.71875 5.96875 -3.691406 C 5.964844 -4.613281 5.773438 -5.304688 5.398438 -5.769531 C 5.015625 -6.226563 4.5625 -6.457031 4.03125 -6.460938 C 3.507813 -6.457031 3.042969 -6.210938 2.640625 -5.726563 C 2.238281 -5.234375 2.039063 -4.523438 2.039063 -3.589844 Z M 2.039063 -3.589844 "/>
</symbol>
<symbol overflow="visible" id="glyph1-4">
<path style="stroke:none;" d="M 0.894531 0 L 0.894531 -10.023438 L 2.125 -10.023438 L 2.125 0 Z M 0.894531 0 "/>
</symbol>
<symbol overflow="visible" id="glyph1-5">
<path style="stroke:none;" d="M 5.890625 -2.335938 L 7.164063 -2.179688 C 6.960938 -1.4375 6.589844 -0.859375 6.046875 -0.449219 C 5.503906 -0.0390625 4.8125 0.164063 3.972656 0.164063 C 2.910156 0.164063 2.066406 -0.160156 1.445313 -0.816406 C 0.820313 -1.464844 0.507813 -2.382813 0.511719 -3.570313 C 0.507813 -4.785156 0.824219 -5.734375 1.453125 -6.410156 C 2.082031 -7.082031 2.898438 -7.417969 3.902344 -7.421875 C 4.871094 -7.417969 5.664063 -7.085938 6.28125 -6.429688 C 6.894531 -5.765625 7.199219 -4.839844 7.203125 -3.644531 C 7.199219 -3.570313 7.199219 -3.460938 7.199219 -3.316406 L 1.785156 -3.316406 C 1.828125 -2.515625 2.054688 -1.902344 2.460938 -1.480469 C 2.867188 -1.054688 3.371094 -0.84375 3.976563 -0.847656 C 4.425781 -0.84375 4.8125 -0.960938 5.132813 -1.203125 C 5.453125 -1.4375 5.703125 -1.816406 5.890625 -2.335938 Z M 1.851563 -4.328125 L 5.90625 -4.328125 C 5.851563 -4.933594 5.695313 -5.390625 5.441406 -5.703125 C 5.046875 -6.171875 4.539063 -6.410156 3.917969 -6.414063 C 3.351563 -6.410156 2.875 -6.21875 2.492188 -5.84375 C 2.101563 -5.460938 1.890625 -4.957031 1.851563 -4.328125 Z M 1.851563 -4.328125 "/>
</symbol>
<symbol overflow="visible" id="glyph1-6">
<path style="stroke:none;" d=""/>
</symbol>
<symbol overflow="visible" id="glyph1-7">
<path style="stroke:none;" d="M 0.929688 -8.605469 L 0.929688 -10.023438 L 2.160156 -10.023438 L 2.160156 -8.605469 Z M 0.929688 0 L 0.929688 -7.257813 L 2.160156 -7.257813 L 2.160156 0 Z M 0.929688 0 "/>
</symbol>
<symbol overflow="visible" id="glyph1-8">
<path style="stroke:none;" d="M 0.273438 0 L 0.273438 -1 L 4.894531 -6.304688 C 4.367188 -6.273438 3.90625 -6.257813 3.507813 -6.261719 L 0.546875 -6.261719 L 0.546875 -7.257813 L 6.480469 -7.257813 L 6.480469 -6.445313 L 2.550781 -1.839844 L 1.789063 -1 C 2.335938 -1.035156 2.855469 -1.054688 3.34375 -1.058594 L 6.699219 -1.058594 L 6.699219 0 Z M 0.273438 0 "/>
</symbol>
<symbol overflow="visible" id="glyph1-9">
<path style="stroke:none;" d="M 0.921875 0 L 0.921875 -7.257813 L 2.03125 -7.257813 L 2.03125 -6.226563 C 2.558594 -7.019531 3.328125 -7.417969 4.339844 -7.421875 C 4.773438 -7.417969 5.175781 -7.339844 5.546875 -7.1875 C 5.910156 -7.027344 6.183594 -6.820313 6.371094 -6.570313 C 6.550781 -6.3125 6.679688 -6.011719 6.753906 -5.660156 C 6.796875 -5.433594 6.820313 -5.035156 6.820313 -4.464844 L 6.820313 0 L 5.59375 0 L 5.59375 -4.414063 C 5.589844 -4.914063 5.542969 -5.289063 5.449219 -5.539063 C 5.351563 -5.785156 5.179688 -5.984375 4.9375 -6.136719 C 4.691406 -6.28125 4.40625 -6.355469 4.082031 -6.359375 C 3.554688 -6.355469 3.101563 -6.191406 2.722656 -5.859375 C 2.339844 -5.523438 2.148438 -4.890625 2.152344 -3.964844 L 2.152344 0 Z M 0.921875 0 "/>
</symbol>
<symbol overflow="visible" id="glyph1-10">
<path style="stroke:none;" d="M 0.429688 -2.167969 L 1.648438 -2.359375 C 1.710938 -1.867188 1.902344 -1.492188 2.21875 -1.234375 C 2.527344 -0.972656 2.964844 -0.84375 3.527344 -0.847656 C 4.089844 -0.84375 4.507813 -0.957031 4.785156 -1.191406 C 5.054688 -1.417969 5.191406 -1.691406 5.195313 -2.003906 C 5.191406 -2.28125 5.070313 -2.5 4.832031 -2.660156 C 4.660156 -2.769531 4.242188 -2.90625 3.574219 -3.078125 C 2.671875 -3.300781 2.046875 -3.5 1.699219 -3.667969 C 1.347656 -3.832031 1.082031 -4.058594 0.90625 -4.355469 C 0.722656 -4.644531 0.632813 -4.972656 0.636719 -5.332031 C 0.632813 -5.652344 0.707031 -5.949219 0.855469 -6.230469 C 1.003906 -6.503906 1.203125 -6.734375 1.460938 -6.917969 C 1.648438 -7.054688 1.910156 -7.171875 2.246094 -7.273438 C 2.574219 -7.367188 2.929688 -7.417969 3.308594 -7.421875 C 3.875 -7.417969 4.375 -7.335938 4.808594 -7.175781 C 5.234375 -7.007813 5.550781 -6.785156 5.761719 -6.507813 C 5.964844 -6.226563 6.109375 -5.851563 6.1875 -5.386719 L 4.984375 -5.222656 C 4.925781 -5.589844 4.765625 -5.882813 4.507813 -6.097656 C 4.242188 -6.304688 3.875 -6.410156 3.398438 -6.414063 C 2.832031 -6.410156 2.425781 -6.316406 2.1875 -6.132813 C 1.941406 -5.941406 1.820313 -5.722656 1.824219 -5.476563 C 1.820313 -5.3125 1.871094 -5.167969 1.976563 -5.046875 C 2.070313 -4.910156 2.226563 -4.800781 2.445313 -4.71875 C 2.566406 -4.667969 2.929688 -4.5625 3.535156 -4.402344 C 4.402344 -4.167969 5.011719 -3.980469 5.355469 -3.832031 C 5.699219 -3.683594 5.96875 -3.464844 6.164063 -3.183594 C 6.359375 -2.898438 6.457031 -2.550781 6.460938 -2.132813 C 6.457031 -1.71875 6.335938 -1.332031 6.101563 -0.972656 C 5.859375 -0.609375 5.515625 -0.328125 5.066406 -0.132813 C 4.613281 0.0664063 4.101563 0.164063 3.535156 0.164063 C 2.585938 0.164063 1.867188 -0.03125 1.375 -0.421875 C 0.878906 -0.8125 0.5625 -1.394531 0.429688 -2.167969 Z M 0.429688 -2.167969 "/>
</symbol>
<symbol overflow="visible" id="glyph1-11">
<path style="stroke:none;" d="M 3.609375 -1.101563 L 3.789063 -0.015625 C 3.4375 0.0585938 3.128906 0.09375 2.859375 0.09375 C 2.410156 0.09375 2.0625 0.0234375 1.816406 -0.117188 C 1.570313 -0.257813 1.394531 -0.441406 1.296875 -0.671875 C 1.195313 -0.902344 1.148438 -1.386719 1.148438 -2.125 L 1.148438 -6.304688 L 0.246094 -6.304688 L 0.246094 -7.257813 L 1.148438 -7.257813 L 1.148438 -9.058594 L 2.371094 -9.796875 L 2.371094 -7.257813 L 3.609375 -7.257813 L 3.609375 -6.304688 L 2.371094 -6.304688 L 2.371094 -2.058594 C 2.367188 -1.703125 2.386719 -1.476563 2.433594 -1.378906 C 2.472656 -1.277344 2.546875 -1.199219 2.648438 -1.140625 C 2.746094 -1.082031 2.886719 -1.054688 3.070313 -1.054688 C 3.203125 -1.054688 3.382813 -1.070313 3.609375 -1.101563 Z M 3.609375 -1.101563 "/>
</symbol>
<symbol overflow="visible" id="glyph1-12">
<path style="stroke:none;" d="M 5.660156 -2.660156 L 6.871094 -2.5 C 6.734375 -1.664063 6.394531 -1.011719 5.855469 -0.542969 C 5.308594 -0.0703125 4.640625 0.164063 3.847656 0.164063 C 2.851563 0.164063 2.054688 -0.160156 1.453125 -0.808594 C 0.847656 -1.457031 0.542969 -2.386719 0.546875 -3.601563 C 0.542969 -4.382813 0.675781 -5.070313 0.9375 -5.660156 C 1.195313 -6.246094 1.589844 -6.683594 2.121094 -6.980469 C 2.652344 -7.269531 3.230469 -7.417969 3.855469 -7.421875 C 4.644531 -7.417969 5.289063 -7.21875 5.789063 -6.824219 C 6.289063 -6.421875 6.609375 -5.855469 6.753906 -5.125 L 5.558594 -4.941406 C 5.441406 -5.425781 5.238281 -5.792969 4.953125 -6.042969 C 4.660156 -6.285156 4.3125 -6.410156 3.902344 -6.414063 C 3.28125 -6.410156 2.777344 -6.1875 2.390625 -5.746094 C 2.003906 -5.296875 1.808594 -4.59375 1.8125 -3.636719 C 1.808594 -2.65625 1.996094 -1.945313 2.371094 -1.507813 C 2.742188 -1.0625 3.230469 -0.84375 3.835938 -0.847656 C 4.316406 -0.84375 4.71875 -0.992188 5.042969 -1.289063 C 5.367188 -1.585938 5.574219 -2.042969 5.660156 -2.660156 Z M 5.660156 -2.660156 "/>
</symbol>
<symbol overflow="visible" id="glyph2-0">
<path style="stroke:none;" d="M -4.882813 -0.675781 C -6.539063 -0.671875 -7.839844 -1.121094 -8.785156 -2.015625 C -9.722656 -2.90625 -10.195313 -4.058594 -10.199219 -5.476563 C -10.195313 -6.398438 -9.972656 -7.230469 -9.535156 -7.976563 C -9.089844 -8.71875 -8.476563 -9.285156 -7.6875 -9.675781 C -6.894531 -10.0625 -5.996094 -10.257813 -4.996094 -10.261719 C -3.976563 -10.257813 -3.066406 -10.054688 -2.269531 -9.644531 C -1.464844 -9.234375 -0.859375 -8.652344 -0.445313 -7.902344 C -0.0351563 -7.148438 0.167969 -6.335938 0.171875 -5.46875 C 0.167969 -4.523438 -0.0546875 -3.679688 -0.511719 -2.9375 C -0.964844 -2.191406 -1.589844 -1.628906 -2.378906 -1.25 C -3.167969 -0.863281 -4 -0.671875 -4.882813 -0.675781 Z M -4.859375 -2.042969 C -3.648438 -2.039063 -2.699219 -2.363281 -2.003906 -3.015625 C -1.308594 -3.664063 -0.960938 -4.480469 -0.964844 -5.460938 C -0.960938 -6.460938 -1.3125 -7.28125 -2.015625 -7.925781 C -2.71875 -8.570313 -3.714844 -8.894531 -5.003906 -8.894531 C -5.816406 -8.894531 -6.527344 -8.753906 -7.140625 -8.480469 C -7.746094 -8.199219 -8.21875 -7.796875 -8.554688 -7.269531 C -8.890625 -6.734375 -9.058594 -6.140625 -9.058594 -5.484375 C -9.058594 -4.542969 -8.734375 -3.734375 -8.089844 -3.058594 C -7.445313 -2.378906 -6.367188 -2.039063 -4.859375 -2.042969 Z M -4.859375 -2.042969 "/>
</symbol>
<symbol overflow="visible" id="glyph2-1">
<path style="stroke:none;" d="M 0 -2.058594 L 0 -0.914063 L -10.023438 -0.917969 L -10.023438 -2.148438 L -6.445313 -2.148438 C -7.09375 -2.664063 -7.417969 -3.328125 -7.421875 -4.136719 C -7.417969 -4.582031 -7.328125 -5.003906 -7.152344 -5.402344 C -6.96875 -5.800781 -6.714844 -6.128906 -6.394531 -6.386719 C -6.066406 -6.644531 -5.675781 -6.84375 -5.214844 -6.992188 C -4.753906 -7.132813 -4.261719 -7.207031 -3.738281 -7.210938 C -2.492188 -7.207031 -1.527344 -6.898438 -0.851563 -6.289063 C -0.171875 -5.671875 0.164063 -4.933594 0.164063 -4.074219 C 0.164063 -3.214844 -0.191406 -2.542969 -0.910156 -2.058594 Z M -3.683594 -2.042969 C -2.8125 -2.039063 -2.183594 -2.15625 -1.796875 -2.398438 C -1.160156 -2.78125 -0.84375 -3.308594 -0.847656 -3.972656 C -0.84375 -4.507813 -1.078125 -4.96875 -1.546875 -5.363281 C -2.015625 -5.753906 -2.710938 -5.953125 -3.636719 -5.953125 C -4.582031 -5.953125 -5.28125 -5.765625 -5.734375 -5.390625 C -6.183594 -5.015625 -6.410156 -4.558594 -6.414063 -4.027344 C -6.410156 -3.484375 -6.175781 -3.019531 -5.710938 -2.628906 C -5.242188 -2.234375 -4.566406 -2.039063 -3.683594 -2.042969 Z M -3.683594 -2.042969 "/>
</symbol>
<symbol overflow="visible" id="glyph2-2">
<path style="stroke:none;" d="M -8.59375 -0.917969 L -10.023438 -0.917969 L -10.023438 -2.148438 L -8.59375 -2.148438 Z M 2.816406 0.644531 L 1.769531 0.410156 C 1.832031 0.164063 1.863281 -0.0273438 1.867188 -0.171875 C 1.863281 -0.417969 1.78125 -0.605469 1.617188 -0.730469 C 1.449219 -0.851563 1.03125 -0.914063 0.371094 -0.914063 L -7.257813 -0.917969 L -7.257813 -2.148438 L 0.398438 -2.148438 C 1.289063 -2.144531 1.910156 -2.027344 2.261719 -1.796875 C 2.714844 -1.496094 2.941406 -1.003906 2.945313 -0.320313 C 2.941406 0.0117188 2.898438 0.332031 2.816406 0.644531 Z M 2.816406 0.644531 "/>
</symbol>
<symbol overflow="visible" id="glyph2-3">
<path style="stroke:none;" d="M -2.335938 -5.890625 L -2.179688 -7.164063 C -1.4375 -6.960938 -0.859375 -6.589844 -0.449219 -6.046875 C -0.0390625 -5.503906 0.164063 -4.8125 0.164063 -3.972656 C 0.164063 -2.910156 -0.160156 -2.066406 -0.816406 -1.445313 C -1.464844 -0.820313 -2.382813 -0.507813 -3.570313 -0.511719 C -4.785156 -0.507813 -5.734375 -0.824219 -6.410156 -1.453125 C -7.082031 -2.082031 -7.417969 -2.898438 -7.421875 -3.902344 C -7.417969 -4.871094 -7.085938 -5.664063 -6.429688 -6.28125 C -5.765625 -6.894531 -4.839844 -7.199219 -3.644531 -7.203125 C -3.570313 -7.199219 -3.460938 -7.199219 -3.316406 -7.199219 L -3.316406 -1.785156 C -2.515625 -1.828125 -1.902344 -2.054688 -1.480469 -2.460938 C -1.054688 -2.867188 -0.84375 -3.371094 -0.847656 -3.976563 C -0.84375 -4.425781 -0.960938 -4.8125 -1.203125 -5.132813 C -1.4375 -5.453125 -1.816406 -5.703125 -2.335938 -5.890625 Z M -4.328125 -1.851563 L -4.328125 -5.90625 C -4.933594 -5.851563 -5.390625 -5.695313 -5.703125 -5.441406 C -6.171875 -5.046875 -6.410156 -4.539063 -6.414063 -3.917969 C -6.410156 -3.351563 -6.21875 -2.875 -5.84375 -2.492188 C -5.460938 -2.101563 -4.957031 -1.890625 -4.328125 -1.851563 Z M -4.328125 -1.851563 "/>
</symbol>
<symbol overflow="visible" id="glyph2-4">
<path style="stroke:none;" d="M -2.660156 -5.660156 L -2.5 -6.871094 C -1.664063 -6.734375 -1.011719 -6.394531 -0.542969 -5.855469 C -0.0703125 -5.308594 0.164063 -4.640625 0.164063 -3.847656 C 0.164063 -2.851563 -0.160156 -2.054688 -0.808594 -1.453125 C -1.457031 -0.847656 -2.386719 -0.542969 -3.601563 -0.546875 C -4.382813 -0.542969 -5.070313 -0.675781 -5.660156 -0.9375 C -6.246094 -1.195313 -6.683594 -1.589844 -6.980469 -2.121094 C -7.269531 -2.652344 -7.417969 -3.230469 -7.421875 -3.855469 C -7.417969 -4.644531 -7.21875 -5.289063 -6.824219 -5.789063 C -6.421875 -6.289063 -5.855469 -6.609375 -5.125 -6.753906 L -4.941406 -5.558594 C -5.425781 -5.441406 -5.792969 -5.238281 -6.042969 -4.953125 C -6.285156 -4.660156 -6.410156 -4.3125 -6.414063 -3.902344 C -6.410156 -3.28125 -6.1875 -2.777344 -5.746094 -2.390625 C -5.296875 -2.003906 -4.59375 -1.808594 -3.636719 -1.8125 C -2.65625 -1.808594 -1.945313 -1.996094 -1.507813 -2.371094 C -1.0625 -2.742188 -0.84375 -3.230469 -0.847656 -3.835938 C -0.84375 -4.316406 -0.992188 -4.71875 -1.289063 -5.042969 C -1.585938 -5.367188 -2.042969 -5.574219 -2.660156 -5.660156 Z M -2.660156 -5.660156 "/>
</symbol>
<symbol overflow="visible" id="glyph2-5">
<path style="stroke:none;" d="M -1.101563 -3.609375 L -0.0117188 -3.789063 C 0.0585938 -3.4375 0.09375 -3.128906 0.0976563 -2.859375 C 0.09375 -2.410156 0.0273438 -2.0625 -0.113281 -1.816406 C -0.253906 -1.570313 -0.441406 -1.394531 -0.671875 -1.296875 C -0.902344 -1.195313 -1.386719 -1.148438 -2.125 -1.148438 L -6.304688 -1.148438 L -6.304688 -0.246094 L -7.257813 -0.246094 L -7.257813 -1.148438 L -9.058594 -1.148438 L -9.796875 -2.371094 L -7.257813 -2.371094 L -7.257813 -3.609375 L -6.304688 -3.609375 L -6.304688 -2.371094 L -2.058594 -2.371094 C -1.703125 -2.367188 -1.476563 -2.386719 -1.378906 -2.433594 C -1.277344 -2.472656 -1.199219 -2.546875 -1.140625 -2.648438 C -1.078125 -2.746094 -1.046875 -2.886719 -1.050781 -3.070313 C -1.046875 -3.203125 -1.066406 -3.382813 -1.101563 -3.609375 Z M -1.101563 -3.609375 "/>
</symbol>
<symbol overflow="visible" id="glyph2-6">
<path style="stroke:none;" d="M -8.605469 -0.929688 L -10.023438 -0.929688 L -10.023438 -2.160156 L -8.605469 -2.160156 Z M 0 -0.929688 L -7.257813 -0.929688 L -7.257813 -2.160156 L 0 -2.160156 Z M 0 -0.929688 "/>
</symbol>
<symbol overflow="visible" id="glyph2-7">
<path style="stroke:none;" d="M 0 -2.9375 L -7.257813 -0.179688 L -7.257813 -1.476563 L -2.914063 -3.035156 C -2.4375 -3.203125 -1.949219 -3.355469 -1.449219 -3.5 C -1.828125 -3.605469 -2.289063 -3.757813 -2.828125 -3.957031 L -7.257813 -5.570313 L -7.257813 -6.835938 L 0 -4.085938 Z M 0 -2.9375 "/>
</symbol>
<symbol overflow="visible" id="glyph2-8">
<path style="stroke:none;" d=""/>
</symbol>
<symbol overflow="visible" id="glyph2-9">
<path style="stroke:none;" d="M 0 -3.945313 L -10.023438 -0.0625 L -10.023438 -1.496094 L -2.742188 -4.101563 C -2.15625 -4.308594 -1.609375 -4.484375 -1.101563 -4.628906 C -1.648438 -4.78125 -2.195313 -4.960938 -2.742188 -5.167969 L -10.023438 -7.875 L -10.023438 -9.226563 L 0 -5.304688 Z M 0 -3.945313 "/>
</symbol>
<symbol overflow="visible" id="glyph2-10">
<path style="stroke:none;" d="M -0.894531 -5.660156 C -0.503906 -5.203125 -0.230469 -4.761719 -0.0742188 -4.34375 C 0.0859375 -3.917969 0.164063 -3.46875 0.164063 -2.988281 C 0.164063 -2.1875 -0.0273438 -1.574219 -0.417969 -1.148438 C -0.804688 -0.71875 -1.304688 -0.503906 -1.914063 -0.507813 C -2.265625 -0.503906 -2.589844 -0.585938 -2.886719 -0.75 C -3.179688 -0.910156 -3.414063 -1.121094 -3.59375 -1.382813 C -3.769531 -1.644531 -3.90625 -1.9375 -4 -2.269531 C -4.058594 -2.507813 -4.121094 -2.875 -4.183594 -3.363281 C -4.300781 -4.355469 -4.441406 -5.085938 -4.609375 -5.558594 C -4.773438 -5.558594 -4.878906 -5.558594 -4.929688 -5.5625 C -5.425781 -5.558594 -5.78125 -5.445313 -5.988281 -5.214844 C -6.265625 -4.898438 -6.402344 -4.429688 -6.40625 -3.816406 C -6.402344 -3.230469 -6.300781 -2.804688 -6.101563 -2.53125 C -5.894531 -2.257813 -5.535156 -2.054688 -5.023438 -1.921875 L -5.1875 -0.71875 C -5.699219 -0.824219 -6.117188 -1.003906 -6.433594 -1.257813 C -6.75 -1.503906 -6.992188 -1.867188 -7.164063 -2.34375 C -7.332031 -2.816406 -7.417969 -3.363281 -7.421875 -3.992188 C -7.417969 -4.609375 -7.34375 -5.113281 -7.203125 -5.503906 C -7.054688 -5.886719 -6.871094 -6.171875 -6.652344 -6.359375 C -6.429688 -6.539063 -6.152344 -6.667969 -5.816406 -6.742188 C -5.605469 -6.777344 -5.226563 -6.796875 -4.683594 -6.800781 L -3.042969 -6.800781 C -1.894531 -6.796875 -1.171875 -6.824219 -0.871094 -6.878906 C -0.566406 -6.933594 -0.277344 -7.035156 0 -7.191406 L 0 -5.90625 C -0.253906 -5.777344 -0.550781 -5.695313 -0.894531 -5.660156 Z M -3.644531 -5.558594 C -3.460938 -5.109375 -3.304688 -4.4375 -3.179688 -3.546875 C -3.105469 -3.039063 -3.023438 -2.683594 -2.933594 -2.472656 C -2.839844 -2.261719 -2.707031 -2.097656 -2.53125 -1.988281 C -2.355469 -1.871094 -2.160156 -1.816406 -1.949219 -1.820313 C -1.617188 -1.816406 -1.34375 -1.941406 -1.128906 -2.191406 C -0.90625 -2.4375 -0.796875 -2.800781 -0.800781 -3.28125 C -0.796875 -3.753906 -0.898438 -4.175781 -1.109375 -4.546875 C -1.3125 -4.914063 -1.597656 -5.183594 -1.960938 -5.359375 C -2.238281 -5.488281 -2.648438 -5.554688 -3.191406 -5.558594 Z M -3.644531 -5.558594 "/>
</symbol>
<symbol overflow="visible" id="glyph2-11">
<path style="stroke:none;" d="M 0 -0.894531 L -10.023438 -0.894531 L -10.023438 -2.125 L 0 -2.125 Z M 0 -0.894531 "/>
</symbol>
<symbol overflow="visible" id="glyph2-12">
<path style="stroke:none;" d="M 0 -5.679688 L -1.066406 -5.679688 C -0.246094 -5.109375 0.164063 -4.34375 0.164063 -3.375 C 0.164063 -2.945313 0.0820313 -2.542969 -0.0820313 -2.175781 C -0.246094 -1.800781 -0.449219 -1.527344 -0.699219 -1.347656 C -0.945313 -1.167969 -1.25 -1.042969 -1.613281 -0.972656 C -1.851563 -0.917969 -2.234375 -0.890625 -2.761719 -0.894531 L -7.257813 -0.894531 L -7.257813 -2.125 L -3.234375 -2.125 C -2.589844 -2.121094 -2.15625 -2.148438 -1.933594 -2.203125 C -1.609375 -2.277344 -1.355469 -2.4375 -1.171875 -2.691406 C -0.984375 -2.941406 -0.890625 -3.253906 -0.894531 -3.625 C -0.890625 -3.988281 -0.984375 -4.332031 -1.175781 -4.660156 C -1.363281 -4.980469 -1.621094 -5.210938 -1.949219 -5.347656 C -2.273438 -5.480469 -2.746094 -5.546875 -3.371094 -5.550781 L -7.257813 -5.550781 L -7.257813 -6.78125 L 0 -6.78125 Z M 0 -5.679688 "/>
</symbol>
<symbol overflow="visible" id="glyph3-0">
<path style="stroke:none;" d="M 0.546875 -5.09375 C 0.542969 -6.515625 0.933594 -7.722656 1.71875 -8.710938 C 2.496094 -9.695313 3.542969 -10.1875 4.851563 -10.191406 C 6.292969 -10.1875 7.394531 -9.742188 8.15625 -8.851563 C 8.914063 -7.957031 9.292969 -6.703125 9.296875 -5.09375 C 9.292969 -3.476563 8.894531 -2.195313 8.101563 -1.25 C 7.304688 -0.300781 6.175781 0.167969 4.71875 0.171875 C 3.367188 0.167969 2.335938 -0.296875 1.621094 -1.234375 C 0.902344 -2.171875 0.542969 -3.457031 0.546875 -5.09375 Z M 2.390625 -5.09375 C 2.390625 -3.917969 2.585938 -3.011719 2.984375 -2.371094 C 3.378906 -1.726563 3.957031 -1.40625 4.71875 -1.40625 C 5.601563 -1.40625 6.28125 -1.71875 6.75 -2.351563 C 7.21875 -2.976563 7.453125 -3.890625 7.453125 -5.09375 C 7.453125 -7.4375 6.585938 -8.613281 4.851563 -8.613281 C 4.058594 -8.613281 3.449219 -8.292969 3.027344 -7.660156 C 2.601563 -7.019531 2.390625 -6.164063 2.390625 -5.09375 Z M 2.390625 -5.09375 "/>
</symbol>
<symbol overflow="visible" id="glyph3-1">
<path style="stroke:none;" d="M 2.132813 -0.402344 L 1.75 0.136719 L 0.785156 0.136719 L 0.785156 -10.046875 L 2.496094 -10.460938 L 2.496094 -7.039063 C 2.949219 -7.3125 3.445313 -7.453125 3.984375 -7.457031 C 5.054688 -7.453125 5.917969 -7.113281 6.578125 -6.441406 C 7.230469 -5.761719 7.558594 -4.898438 7.5625 -3.84375 C 7.558594 -2.617188 7.226563 -1.644531 6.570313 -0.933594 C 5.90625 -0.21875 5.011719 0.132813 3.882813 0.136719 C 3.199219 0.132813 2.617188 -0.0429688 2.132813 -0.402344 Z M 2.496094 -5.578125 L 2.496094 -1.757813 C 2.746094 -1.460938 3.085938 -1.3125 3.515625 -1.3125 C 4.335938 -1.3125 4.917969 -1.507813 5.265625 -1.898438 C 5.605469 -2.289063 5.777344 -2.914063 5.78125 -3.78125 C 5.777344 -5.261719 5.066406 -6.003906 3.648438 -6.007813 C 3.140625 -6.003906 2.757813 -5.863281 2.496094 -5.578125 Z M 2.496094 -5.578125 "/>
</symbol>
<symbol overflow="visible" id="glyph3-2">
<path style="stroke:none;" d="M 3.046875 -10.15625 C 3.320313 -10.152344 3.554688 -10.058594 3.75 -9.867188 C 3.941406 -9.671875 4.035156 -9.4375 4.039063 -9.167969 C 4.035156 -8.890625 3.941406 -8.65625 3.75 -8.464844 C 3.554688 -8.269531 3.320313 -8.171875 3.046875 -8.175781 C 2.773438 -8.171875 2.539063 -8.269531 2.347656 -8.464844 C 2.152344 -8.65625 2.054688 -8.890625 2.058594 -9.167969 C 2.054688 -9.4375 2.152344 -9.671875 2.347656 -9.867188 C 2.539063 -10.058594 2.773438 -10.152344 3.046875 -10.15625 Z M -0.0820313 2.871094 L -0.0820313 1.347656 C 0.828125 1.347656 1.441406 1.238281 1.765625 1.019531 C 2.085938 0.800781 2.25 0.414063 2.25 -0.144531 L 2.25 -5.914063 L 0.929688 -5.914063 L 0.929688 -7.320313 L 3.957031 -7.320313 L 3.957031 -0.171875 C 3.953125 0.878906 3.625 1.644531 2.96875 2.136719 C 2.308594 2.625 1.292969 2.871094 -0.0820313 2.871094 Z M -0.0820313 2.871094 "/>
</symbol>
<symbol overflow="visible" id="glyph3-3">
<path style="stroke:none;" d="M 7.457031 -3.136719 L 2.226563 -3.136719 C 2.257813 -2.550781 2.457031 -2.097656 2.828125 -1.777344 C 3.195313 -1.449219 3.691406 -1.289063 4.320313 -1.292969 C 5.09375 -1.289063 5.6875 -1.492188 6.097656 -1.898438 L 6.761719 -0.59375 C 6.160156 -0.105469 5.261719 0.132813 4.066406 0.136719 C 2.949219 0.132813 2.066406 -0.191406 1.417969 -0.84375 C 0.769531 -1.496094 0.445313 -2.40625 0.445313 -3.582031 C 0.445313 -4.730469 0.800781 -5.664063 1.515625 -6.382813 C 2.226563 -7.09375 3.082031 -7.453125 4.082031 -7.457031 C 5.140625 -7.453125 5.992188 -7.136719 6.636719 -6.507813 C 7.277344 -5.871094 7.597656 -5.0625 7.601563 -4.085938 C 7.597656 -3.875 7.550781 -3.558594 7.457031 -3.136719 Z M 2.289063 -4.421875 L 5.886719 -4.421875 C 5.765625 -5.492188 5.171875 -6.027344 4.109375 -6.03125 C 3.128906 -6.027344 2.523438 -5.492188 2.289063 -4.421875 Z M 2.289063 -4.421875 "/>
</symbol>
<symbol overflow="visible" id="glyph3-4">
<path style="stroke:none;" d="M 6.664063 -6.742188 L 5.933594 -5.460938 C 5.53125 -5.839844 4.992188 -6.027344 4.320313 -6.03125 C 3.671875 -6.027344 3.160156 -5.8125 2.785156 -5.382813 C 2.40625 -4.949219 2.21875 -4.351563 2.222656 -3.59375 C 2.21875 -2.054688 2.949219 -1.289063 4.414063 -1.292969 C 5.046875 -1.289063 5.605469 -1.5 6.089844 -1.921875 L 6.71875 -0.574219 C 6.222656 -0.261719 5.789063 -0.0664063 5.417969 0.0117188 C 5.042969 0.09375 4.605469 0.132813 4.101563 0.136719 C 2.96875 0.132813 2.074219 -0.191406 1.425781 -0.851563 C 0.769531 -1.507813 0.445313 -2.421875 0.445313 -3.59375 C 0.445313 -4.742188 0.800781 -5.675781 1.515625 -6.390625 C 2.230469 -7.097656 3.207031 -7.453125 4.445313 -7.457031 C 5.292969 -7.453125 6.03125 -7.214844 6.664063 -6.742188 Z M 6.664063 -6.742188 "/>
</symbol>
<symbol overflow="visible" id="glyph3-5">
<path style="stroke:none;" d="M 1.183594 -5.945313 L 0.335938 -5.945313 L 0.335938 -7.320313 L 1.183594 -7.320313 L 1.183594 -8.8125 L 2.890625 -9.441406 L 2.890625 -7.320313 L 4.902344 -7.320313 L 4.902344 -5.945313 L 2.890625 -5.945313 L 2.890625 -2.742188 C 2.886719 -2.214844 2.96875 -1.84375 3.136719 -1.628906 C 3.296875 -1.410156 3.585938 -1.300781 4 -1.304688 C 4.40625 -1.300781 4.789063 -1.414063 5.148438 -1.640625 L 5.148438 -0.0703125 C 4.75 0.0664063 4.183594 0.132813 3.453125 0.136719 C 2.71875 0.132813 2.160156 -0.0703125 1.769531 -0.480469 C 1.378906 -0.894531 1.183594 -1.480469 1.183594 -2.242188 Z M 1.183594 -5.945313 "/>
</symbol>
<symbol overflow="visible" id="glyph3-6">
<path style="stroke:none;" d="M 2.261719 -10.15625 C 2.535156 -10.152344 2.765625 -10.058594 2.960938 -9.867188 C 3.152344 -9.671875 3.25 -9.4375 3.253906 -9.167969 C 3.25 -8.890625 3.152344 -8.65625 2.960938 -8.464844 C 2.765625 -8.269531 2.535156 -8.171875 2.261719 -8.175781 C 1.988281 -8.171875 1.753906 -8.269531 1.5625 -8.464844 C 1.367188 -8.65625 1.269531 -8.890625 1.273438 -9.167969 C 1.269531 -9.4375 1.367188 -9.671875 1.5625 -9.867188 C 1.753906 -10.058594 1.988281 -10.152344 2.261719 -10.15625 Z M 1.382813 0 L 1.382813 -5.921875 L 0.445313 -5.921875 L 0.445313 -7.320313 L 3.109375 -7.320313 L 3.109375 0 Z M 1.382813 0 "/>
</symbol>
<symbol overflow="visible" id="glyph3-7">
<path style="stroke:none;" d="M 3.957031 0.136719 L 3.34375 0.136719 L 0.0351563 -7.320313 L 1.90625 -7.320313 L 3.65625 -2.851563 L 5.539063 -7.320313 L 7.347656 -7.320313 Z M 3.957031 0.136719 "/>
</symbol>
<symbol overflow="visible" id="glyph3-8">
<path style="stroke:none;" d=""/>
</symbol>
<symbol overflow="visible" id="glyph3-9">
<path style="stroke:none;" d="M 4.996094 -0.730469 C 4.839844 -0.472656 4.570313 -0.265625 4.1875 -0.105469 C 3.800781 0.0546875 3.398438 0.132813 2.980469 0.136719 C 2.1875 0.132813 1.566406 -0.0585938 1.121094 -0.453125 C 0.667969 -0.84375 0.445313 -1.40625 0.445313 -2.132813 C 0.445313 -2.980469 0.761719 -3.640625 1.398438 -4.121094 C 2.03125 -4.597656 2.933594 -4.839844 4.109375 -4.839844 C 4.304688 -4.839844 4.542969 -4.804688 4.820313 -4.738281 C 4.816406 -5.597656 4.273438 -6.027344 3.1875 -6.03125 C 2.542969 -6.027344 2.003906 -5.921875 1.570313 -5.707031 L 1.203125 -7.035156 C 1.789063 -7.3125 2.488281 -7.453125 3.300781 -7.457031 C 4.414063 -7.453125 5.234375 -7.199219 5.753906 -6.695313 C 6.273438 -6.183594 6.53125 -5.222656 6.535156 -3.808594 L 6.535156 -2.242188 C 6.53125 -1.265625 6.730469 -0.652344 7.125 -0.402344 C 6.980469 -0.15625 6.820313 -0.0078125 6.648438 0.0507813 C 6.472656 0.105469 6.273438 0.132813 6.054688 0.136719 C 5.804688 0.132813 5.585938 0.046875 5.394531 -0.136719 C 5.195313 -0.316406 5.0625 -0.515625 4.996094 -0.730469 Z M 4.832031 -3.445313 C 4.539063 -3.503906 4.320313 -3.53125 4.175781 -3.535156 C 2.824219 -3.53125 2.148438 -3.089844 2.152344 -2.207031 C 2.148438 -1.546875 2.53125 -1.21875 3.296875 -1.222656 C 4.316406 -1.21875 4.828125 -1.730469 4.832031 -2.761719 Z M 4.832031 -3.445313 "/>
</symbol>
<symbol overflow="visible" id="glyph3-10">
<path style="stroke:none;" d="M 1.21875 -10.046875 L 2.925781 -10.460938 L 2.925781 -2.226563 C 2.921875 -1.324219 3.191406 -0.785156 3.734375 -0.617188 C 3.464844 -0.113281 3.015625 0.132813 2.378906 0.136719 C 1.605469 0.132813 1.21875 -0.402344 1.21875 -1.476563 Z M 1.21875 -10.046875 "/>
</symbol>
<symbol overflow="visible" id="glyph3-11">
<path style="stroke:none;" d="M 5.640625 0.0078125 L 5.640625 -0.609375 C 5.394531 -0.402344 5.0625 -0.226563 4.640625 -0.0820313 C 4.21875 0.0625 3.828125 0.132813 3.472656 0.136719 C 1.769531 0.132813 0.917969 -0.765625 0.921875 -2.570313 L 0.921875 -7.320313 L 2.632813 -7.320313 L 2.632813 -2.699219 C 2.628906 -1.757813 3.050781 -1.289063 3.898438 -1.292969 C 4.28125 -1.289063 4.640625 -1.390625 4.976563 -1.59375 C 5.304688 -1.792969 5.527344 -2.023438 5.640625 -2.289063 L 5.640625 -7.320313 L 7.347656 -7.320313 L 7.347656 0.0078125 Z M 5.640625 0.0078125 "/>
</symbol>
<symbol overflow="visible" id="glyph3-12">
<path style="stroke:none;" d="M 0.375 1.878906 L 1.457031 0.546875 C 2.050781 1.089844 2.714844 1.363281 3.453125 1.367188 C 3.941406 1.363281 4.347656 1.292969 4.667969 1.148438 C 4.984375 1 5.144531 0.796875 5.148438 0.546875 C 5.144531 0.113281 4.789063 -0.0976563 4.085938 -0.101563 C 3.890625 -0.0976563 3.605469 -0.0742188 3.230469 -0.03125 C 2.847656 0.015625 2.566406 0.0351563 2.378906 0.0351563 C 1.203125 0.0351563 0.613281 -0.386719 0.617188 -1.230469 C 0.613281 -1.472656 0.710938 -1.707031 0.910156 -1.941406 C 1.101563 -2.167969 1.332031 -2.339844 1.59375 -2.453125 C 0.757813 -2.992188 0.339844 -3.761719 0.34375 -4.757813 C 0.339844 -5.539063 0.625 -6.1875 1.203125 -6.703125 C 1.773438 -7.214844 2.480469 -7.46875 3.320313 -7.472656 C 3.972656 -7.46875 4.523438 -7.347656 4.96875 -7.101563 L 5.640625 -7.882813 L 6.820313 -6.808594 L 6.007813 -6.214844 C 6.289063 -5.78125 6.433594 -5.273438 6.433594 -4.695313 C 6.433594 -3.859375 6.175781 -3.195313 5.667969 -2.695313 C 5.15625 -2.195313 4.515625 -1.945313 3.746094 -1.949219 C 3.621094 -1.945313 3.457031 -1.957031 3.253906 -1.984375 L 2.972656 -2.023438 C 2.9375 -2.019531 2.816406 -1.972656 2.605469 -1.875 C 2.390625 -1.777344 2.285156 -1.675781 2.289063 -1.570313 C 2.285156 -1.386719 2.441406 -1.292969 2.761719 -1.296875 C 2.898438 -1.292969 3.136719 -1.328125 3.472656 -1.398438 C 3.804688 -1.464844 4.089844 -1.5 4.328125 -1.503906 C 5.988281 -1.5 6.820313 -0.835938 6.820313 0.5 C 6.820313 1.234375 6.488281 1.816406 5.824219 2.238281 C 5.160156 2.660156 4.355469 2.871094 3.417969 2.871094 C 2.292969 2.871094 1.28125 2.539063 0.375 1.878906 Z M 2.085938 -4.75 C 2.085938 -4.316406 2.203125 -3.96875 2.445313 -3.707031 C 2.679688 -3.445313 3.003906 -3.316406 3.410156 -3.316406 C 3.816406 -3.316406 4.128906 -3.441406 4.347656 -3.699219 C 4.566406 -3.949219 4.675781 -4.300781 4.675781 -4.75 C 4.675781 -5.117188 4.558594 -5.429688 4.324219 -5.6875 C 4.089844 -5.941406 3.785156 -6.070313 3.410156 -6.070313 C 3.019531 -6.070313 2.699219 -5.945313 2.453125 -5.699219 C 2.207031 -5.453125 2.085938 -5.136719 2.085938 -4.75 Z M 2.085938 -4.75 "/>
</symbol>
<symbol overflow="visible" id="glyph3-13">
<path style="stroke:none;" d="M 5.632813 0 L 5.632813 -4.230469 C 5.628906 -4.855469 5.511719 -5.308594 5.273438 -5.597656 C 5.03125 -5.882813 4.640625 -6.027344 4.101563 -6.03125 C 3.851563 -6.027344 3.582031 -5.957031 3.296875 -5.816406 C 3.011719 -5.671875 2.789063 -5.496094 2.632813 -5.289063 L 2.632813 0 L 0.921875 0 L 0.921875 -7.320313 L 2.152344 -7.320313 L 2.46875 -6.636719 C 2.929688 -7.179688 3.617188 -7.453125 4.523438 -7.457031 C 5.394531 -7.453125 6.082031 -7.191406 6.585938 -6.671875 C 7.089844 -6.148438 7.339844 -5.421875 7.34375 -4.492188 L 7.34375 0 Z M 5.632813 0 "/>
</symbol>
<symbol overflow="visible" id="glyph3-14">
<path style="stroke:none;" d="M 5.632813 0 L 5.632813 -0.445313 C 5.488281 -0.289063 5.25 -0.152344 4.914063 -0.0351563 C 4.574219 0.078125 4.226563 0.132813 3.867188 0.136719 C 2.84375 0.132813 2.039063 -0.1875 1.457031 -0.832031 C 0.871094 -1.480469 0.578125 -2.382813 0.582031 -3.539063 C 0.578125 -4.695313 0.914063 -5.636719 1.589844 -6.367188 C 2.257813 -7.089844 3.101563 -7.453125 4.117188 -7.457031 C 4.667969 -7.453125 5.171875 -7.339844 5.632813 -7.117188 L 5.632813 -10.046875 L 7.34375 -10.460938 L 7.34375 0 Z M 5.632813 -5.570313 C 5.265625 -5.859375 4.886719 -6.003906 4.492188 -6.007813 C 3.804688 -6.003906 3.277344 -5.796875 2.910156 -5.382813 C 2.539063 -4.964844 2.355469 -4.367188 2.359375 -3.589844 C 2.355469 -2.0625 3.089844 -1.300781 4.558594 -1.304688 C 4.722656 -1.300781 4.921875 -1.351563 5.164063 -1.453125 C 5.398438 -1.550781 5.554688 -1.648438 5.632813 -1.75 Z M 5.632813 -5.570313 "/>
</symbol>
<symbol overflow="visible" id="glyph3-15">
<path style="stroke:none;" d="M 5.003906 -8.757813 C 4.628906 -8.878906 4.339844 -8.941406 4.140625 -8.941406 C 3.816406 -8.941406 3.542969 -8.800781 3.316406 -8.523438 C 3.089844 -8.246094 2.976563 -7.90625 2.980469 -7.5 C 2.976563 -7.4375 2.980469 -7.375 2.988281 -7.320313 L 4.503906 -7.320313 L 4.503906 -5.914063 L 3.015625 -5.914063 L 3.015625 0 L 1.304688 0 L 1.304688 -5.914063 L 0.238281 -5.914063 L 0.238281 -7.320313 L 1.3125 -7.320313 C 1.347656 -8.214844 1.613281 -8.941406 2.109375 -9.492188 C 2.601563 -10.042969 3.238281 -10.316406 4.027344 -10.320313 C 4.425781 -10.316406 4.921875 -10.230469 5.507813 -10.054688 Z M 5.003906 -8.757813 "/>
</symbol>
<symbol overflow="visible" id="glyph3-16">
<path style="stroke:none;" d="M 5.15625 -5.726563 C 4.847656 -5.925781 4.511719 -6.027344 4.148438 -6.03125 C 3.75 -6.027344 3.398438 -5.847656 3.09375 -5.488281 C 2.785156 -5.125 2.628906 -4.6875 2.632813 -4.171875 L 2.632813 0 L 0.921875 0 L 0.921875 -7.320313 L 2.632813 -7.320313 L 2.632813 -6.652344 C 3.109375 -7.183594 3.746094 -7.453125 4.539063 -7.457031 C 5.121094 -7.453125 5.566406 -7.363281 5.878906 -7.191406 Z M 5.15625 -5.726563 "/>
</symbol>
<symbol overflow="visible" id="glyph3-17">
<path style="stroke:none;" d="M 0.472656 -0.472656 L 1.078125 -1.832031 C 1.585938 -1.421875 2.160156 -1.21875 2.808594 -1.222656 C 3.472656 -1.21875 3.808594 -1.457031 3.808594 -1.933594 C 3.808594 -2.210938 3.707031 -2.4375 3.507813 -2.617188 C 3.304688 -2.792969 2.914063 -3.003906 2.335938 -3.246094 C 1.074219 -3.769531 0.445313 -4.503906 0.445313 -5.449219 C 0.445313 -6.082031 0.683594 -6.574219 1.167969 -6.925781 C 1.648438 -7.277344 2.269531 -7.453125 3.023438 -7.457031 C 3.78125 -7.453125 4.496094 -7.28125 5.167969 -6.945313 L 4.675781 -5.617188 C 4.300781 -5.933594 3.78125 -6.09375 3.117188 -6.097656 C 2.519531 -6.09375 2.21875 -5.855469 2.222656 -5.386719 C 2.21875 -5.195313 2.316406 -5.027344 2.515625 -4.878906 C 2.707031 -4.726563 3.128906 -4.527344 3.773438 -4.277344 C 4.414063 -4.023438 4.875 -3.714844 5.160156 -3.355469 C 5.441406 -2.992188 5.582031 -2.558594 5.585938 -2.050781 C 5.582031 -1.371094 5.332031 -0.835938 4.828125 -0.445313 C 4.324219 -0.0585938 3.636719 0.132813 2.773438 0.136719 C 2.28125 0.132813 1.890625 0.09375 1.601563 0.015625 C 1.304688 -0.0625 0.929688 -0.222656 0.472656 -0.472656 Z M 0.472656 -0.472656 "/>
</symbol>
<symbol overflow="visible" id="glyph3-18">
<path style="stroke:none;" d="M 9.398438 0 L 9.398438 -4.585938 C 9.398438 -5.546875 8.96875 -6.027344 8.109375 -6.03125 C 7.851563 -6.027344 7.605469 -5.953125 7.371094 -5.804688 C 7.132813 -5.652344 6.964844 -5.480469 6.871094 -5.285156 L 6.871094 0 L 5.160156 0 L 5.160156 -4.851563 C 5.15625 -5.210938 5.042969 -5.496094 4.824219 -5.710938 C 4.597656 -5.921875 4.285156 -6.027344 3.882813 -6.03125 C 3.667969 -6.027344 3.433594 -5.949219 3.183594 -5.789063 C 2.925781 -5.628906 2.742188 -5.453125 2.632813 -5.265625 L 2.632813 0 L 0.921875 0 L 0.921875 -7.320313 L 2.097656 -7.320313 L 2.445313 -6.679688 C 2.914063 -7.195313 3.527344 -7.453125 4.285156 -7.457031 C 5.253906 -7.453125 5.988281 -7.1875 6.480469 -6.664063 C 6.691406 -6.902344 6.988281 -7.097656 7.375 -7.242188 C 7.753906 -7.382813 8.136719 -7.453125 8.523438 -7.457031 C 9.339844 -7.453125 9.976563 -7.21875 10.429688 -6.753906 C 10.882813 -6.285156 11.109375 -5.644531 11.109375 -4.832031 L 11.109375 0 Z M 9.398438 0 "/>
</symbol>
<symbol overflow="visible" id="glyph3-19">
<path style="stroke:none;" d="M 2.496094 -0.183594 L 2.496094 2.871094 L 0.785156 2.871094 L 0.785156 -7.320313 L 2.496094 -7.320313 L 2.496094 -6.828125 C 2.921875 -7.242188 3.445313 -7.453125 4.074219 -7.457031 C 6.402344 -7.453125 7.570313 -6.167969 7.574219 -3.601563 C 7.570313 -2.402344 7.246094 -1.480469 6.605469 -0.832031 C 5.957031 -0.1875 5.078125 0.132813 3.964844 0.136719 C 3.421875 0.132813 2.933594 0.03125 2.496094 -0.183594 Z M 2.496094 -5.53125 L 2.496094 -1.679688 C 2.804688 -1.425781 3.164063 -1.300781 3.582031 -1.304688 C 4.367188 -1.300781 4.933594 -1.488281 5.28125 -1.867188 C 5.621094 -2.242188 5.792969 -2.835938 5.796875 -3.648438 C 5.792969 -4.511719 5.625 -5.121094 5.285156 -5.476563 C 4.941406 -5.828125 4.375 -6.003906 3.589844 -6.007813 C 3.175781 -6.003906 2.8125 -5.847656 2.496094 -5.53125 Z M 2.496094 -5.53125 "/>
</symbol>
<symbol overflow="visible" id="glyph3-20">
<path style="stroke:none;" d="M 0.445313 0 L 0.445313 -0.582031 L 4.414063 -5.832031 L 0.511719 -5.832031 L 0.511719 -7.320313 L 6.910156 -7.320313 L 6.910156 -6.71875 L 3.082031 -1.492188 L 6.953125 -1.492188 L 6.953125 0 Z M 0.445313 0 "/>
</symbol>
<symbol overflow="visible" id="glyph3-21">
<path style="stroke:none;" d="M 1.1875 -0.894531 C 1.183594 -1.234375 1.304688 -1.523438 1.546875 -1.765625 C 1.785156 -2 2.074219 -2.121094 2.421875 -2.125 C 2.757813 -2.121094 3.046875 -2 3.289063 -1.765625 C 3.523438 -1.523438 3.644531 -1.234375 3.648438 -0.894531 C 3.644531 -0.550781 3.523438 -0.257813 3.289063 -0.0195313 C 3.046875 0.222656 2.757813 0.339844 2.421875 0.34375 C 2.074219 0.339844 1.785156 0.222656 1.546875 -0.0195313 C 1.304688 -0.257813 1.183594 -0.550781 1.1875 -0.894531 Z M 1.1875 -0.894531 "/>
</symbol>
</g>
<clipPath id="clip1">
  <path d="M 52.453125 151.921875 L 346.398438 151.921875 L 346.398438 336.011719 L 52.453125 336.011719 Z M 52.453125 151.921875 "/>
</clipPath>
</defs>
<g id="surface1316">
<rect x="0" y="0" width="504" height="504" style="fill:rgb(100%,100%,100%);fill-opacity:1;stroke:none;"/>
<g clip-path="url(#clip1)" clip-rule="nonzero">
<path style="fill:none;stroke-width:1.066978;stroke-linecap:butt;stroke-linejoin:round;stroke:rgb(97.254902%,46.27451%,42.745098%);stroke-opacity:1;stroke-miterlimit:1;" d="M 65.769531 290.539063 L 99.058594 291.605469 L 165.636719 291.871094 L 332.085938 291.871094 "/>
<path style="fill:none;stroke-width:1.066978;stroke-linecap:butt;stroke-linejoin:round;stroke:rgb(76.862745%,60.392157%,0%);stroke-opacity:1;stroke-miterlimit:1;" d="M 65.769531 285.414063 L 332.085938 285.414063 "/>
<path style="fill:none;stroke-width:1.066978;stroke-linecap:butt;stroke-linejoin:round;stroke:rgb(32.54902%,70.588235%,0%);stroke-opacity:1;stroke-miterlimit:1;" d="M 65.769531 257.785156 L 332.085938 257.785156 "/>
<path style="fill:none;stroke-width:1.066978;stroke-linecap:butt;stroke-linejoin:round;stroke:rgb(0%,75.294118%,58.039216%);stroke-opacity:1;stroke-miterlimit:1;" d="M 65.769531 300.394531 L 99.058594 300.792969 L 165.636719 301.660156 L 332.085938 302.191406 "/>
<path style="fill:none;stroke-width:1.066978;stroke-linecap:butt;stroke-linejoin:round;stroke:rgb(0%,71.372549%,92.156863%);stroke-opacity:1;stroke-miterlimit:1;" d="M 65.769531 229.289063 L 99.058594 232.75 L 165.636719 232.816406 L 332.085938 232.816406 "/>
<path style="fill:none;stroke-width:1.066978;stroke-linecap:butt;stroke-linejoin:round;stroke:rgb(64.705882%,54.117647%,100%);stroke-opacity:1;stroke-miterlimit:1;" d="M 65.769531 277.757813 L 165.636719 277.957031 L 332.085938 278.089844 "/>
<path style="fill:none;stroke-width:1.066978;stroke-linecap:butt;stroke-linejoin:round;stroke:rgb(98.431373%,38.039216%,84.313725%);stroke-opacity:1;stroke-miterlimit:1;" d="M 65.769531 169.316406 L 99.058594 177.957031 L 165.636719 193.070313 L 332.085938 197.996094 "/>
</g>
<path style="fill:none;stroke-width:1.066978;stroke-linecap:butt;stroke-linejoin:round;stroke:rgb(0%,0%,0%);stroke-opacity:1;stroke-miterlimit:10;" d="M 52.453125 335.015625 L 52.453125 151.921875 "/>
<g style="fill:rgb(0%,0%,0%);fill-opacity:1;">
  <use xlink:href="#glyph0-0" x="39.304688" y="330.988281"/>
</g>
<g style="fill:rgb(0%,0%,0%);fill-opacity:1;">
  <use xlink:href="#glyph0-1" x="25.957031" y="297.699219"/>
  <use xlink:href="#glyph0-0" x="32.629747" y="297.699219"/>
  <use xlink:href="#glyph0-0" x="39.302463" y="297.699219"/>
</g>
<g style="fill:rgb(0%,0%,0%);fill-opacity:1;">
  <use xlink:href="#glyph0-2" x="25.957031" y="264.40625"/>
  <use xlink:href="#glyph0-0" x="32.629747" y="264.40625"/>
  <use xlink:href="#glyph0-0" x="39.302463" y="264.40625"/>
</g>
<g style="fill:rgb(0%,0%,0%);fill-opacity:1;">
  <use xlink:href="#glyph0-3" x="25.957031" y="231.117188"/>
  <use xlink:href="#glyph0-0" x="32.629747" y="231.117188"/>
  <use xlink:href="#glyph0-0" x="39.302463" y="231.117188"/>
</g>
<g style="fill:rgb(0%,0%,0%);fill-opacity:1;">
  <use xlink:href="#glyph0-4" x="25.957031" y="197.828125"/>
  <use xlink:href="#glyph0-0" x="32.629747" y="197.828125"/>
  <use xlink:href="#glyph0-0" x="39.302463" y="197.828125"/>
</g>
<g style="fill:rgb(0%,0%,0%);fill-opacity:1;">
  <use xlink:href="#glyph0-5" x="25.957031" y="164.539063"/>
  <use xlink:href="#glyph0-0" x="32.629747" y="164.539063"/>
  <use xlink:href="#glyph0-0" x="39.302463" y="164.539063"/>
</g>
<path style="fill:none;stroke-width:1.066978;stroke-linecap:butt;stroke-linejoin:round;stroke:rgb(0%,0%,0%);stroke-opacity:1;stroke-miterlimit:10;" d="M 48.964844 326.691406 L 52.453125 326.691406 "/>
<path style="fill:none;stroke-width:1.066978;stroke-linecap:butt;stroke-linejoin:round;stroke:rgb(0%,0%,0%);stroke-opacity:1;stroke-miterlimit:10;" d="M 48.964844 293.402344 L 52.453125 293.402344 "/>
<path style="fill:none;stroke-width:1.066978;stroke-linecap:butt;stroke-linejoin:round;stroke:rgb(0%,0%,0%);stroke-opacity:1;stroke-miterlimit:10;" d="M 48.964844 260.113281 L 52.453125 260.113281 "/>
<path style="fill:none;stroke-width:1.066978;stroke-linecap:butt;stroke-linejoin:round;stroke:rgb(0%,0%,0%);stroke-opacity:1;stroke-miterlimit:10;" d="M 48.964844 226.824219 L 52.453125 226.824219 "/>
<path style="fill:none;stroke-width:1.066978;stroke-linecap:butt;stroke-linejoin:round;stroke:rgb(0%,0%,0%);stroke-opacity:1;stroke-miterlimit:10;" d="M 48.964844 193.535156 L 52.453125 193.535156 "/>
<path style="fill:none;stroke-width:1.066978;stroke-linecap:butt;stroke-linejoin:round;stroke:rgb(0%,0%,0%);stroke-opacity:1;stroke-miterlimit:10;" d="M 48.964844 160.246094 L 52.453125 160.246094 "/>
<path style="fill:none;stroke-width:1.066978;stroke-linecap:butt;stroke-linejoin:round;stroke:rgb(0%,0%,0%);stroke-opacity:1;stroke-miterlimit:10;" d="M 52.453125 335.015625 L 345.398438 335.015625 "/>
<path style="fill:none;stroke-width:1.066978;stroke-linecap:butt;stroke-linejoin:round;stroke:rgb(0%,0%,0%);stroke-opacity:1;stroke-miterlimit:10;" d="M 65.769531 338.5 L 65.769531 335.015625 "/>
<path style="fill:none;stroke-width:1.066978;stroke-linecap:butt;stroke-linejoin:round;stroke:rgb(0%,0%,0%);stroke-opacity:1;stroke-miterlimit:10;" d="M 99.058594 338.5 L 99.058594 335.015625 "/>
<path style="fill:none;stroke-width:1.066978;stroke-linecap:butt;stroke-linejoin:round;stroke:rgb(0%,0%,0%);stroke-opacity:1;stroke-miterlimit:10;" d="M 132.347656 338.5 L 132.347656 335.015625 "/>
<path style="fill:none;stroke-width:1.066978;stroke-linecap:butt;stroke-linejoin:round;stroke:rgb(0%,0%,0%);stroke-opacity:1;stroke-miterlimit:10;" d="M 165.636719 338.5 L 165.636719 335.015625 "/>
<path style="fill:none;stroke-width:1.066978;stroke-linecap:butt;stroke-linejoin:round;stroke:rgb(0%,0%,0%);stroke-opacity:1;stroke-miterlimit:10;" d="M 198.925781 338.5 L 198.925781 335.015625 "/>
<path style="fill:none;stroke-width:1.066978;stroke-linecap:butt;stroke-linejoin:round;stroke:rgb(0%,0%,0%);stroke-opacity:1;stroke-miterlimit:10;" d="M 232.214844 338.5 L 232.214844 335.015625 "/>
<path style="fill:none;stroke-width:1.066978;stroke-linecap:butt;stroke-linejoin:round;stroke:rgb(0%,0%,0%);stroke-opacity:1;stroke-miterlimit:10;" d="M 265.503906 338.5 L 265.503906 335.015625 "/>
<path style="fill:none;stroke-width:1.066978;stroke-linecap:butt;stroke-linejoin:round;stroke:rgb(0%,0%,0%);stroke-opacity:1;stroke-miterlimit:10;" d="M 298.792969 338.5 L 298.792969 335.015625 "/>
<path style="fill:none;stroke-width:1.066978;stroke-linecap:butt;stroke-linejoin:round;stroke:rgb(0%,0%,0%);stroke-opacity:1;stroke-miterlimit:10;" d="M 332.085938 338.5 L 332.085938 335.015625 "/>
<g style="fill:rgb(0%,0%,0%);fill-opacity:1;">
  <use xlink:href="#glyph0-2" x="55.761719" y="350.078125"/>
  <use xlink:href="#glyph0-0" x="62.434435" y="350.078125"/>
  <use xlink:href="#glyph0-0" x="69.10715" y="350.078125"/>
</g>
<g style="fill:rgb(0%,0%,0%);fill-opacity:1;">
  <use xlink:href="#glyph0-3" x="89.050781" y="350.078125"/>
  <use xlink:href="#glyph0-0" x="95.723497" y="350.078125"/>
  <use xlink:href="#glyph0-0" x="102.396213" y="350.078125"/>
</g>
<g style="fill:rgb(0%,0%,0%);fill-opacity:1;">
  <use xlink:href="#glyph0-4" x="122.339844" y="350.078125"/>
  <use xlink:href="#glyph0-0" x="129.01256" y="350.078125"/>
  <use xlink:href="#glyph0-0" x="135.685275" y="350.078125"/>
</g>
<g style="fill:rgb(0%,0%,0%);fill-opacity:1;">
  <use xlink:href="#glyph0-5" x="155.628906" y="350.078125"/>
  <use xlink:href="#glyph0-0" x="162.301622" y="350.078125"/>
  <use xlink:href="#glyph0-0" x="168.974338" y="350.078125"/>
</g>
<g style="fill:rgb(0%,0%,0%);fill-opacity:1;">
  <use xlink:href="#glyph0-6" x="188.917969" y="350.078125"/>
  <use xlink:href="#glyph0-0" x="195.590685" y="350.078125"/>
  <use xlink:href="#glyph0-0" x="202.2634" y="350.078125"/>
</g>
<g style="fill:rgb(0%,0%,0%);fill-opacity:1;">
  <use xlink:href="#glyph0-7" x="222.207031" y="350.078125"/>
  <use xlink:href="#glyph0-0" x="228.879747" y="350.078125"/>
  <use xlink:href="#glyph0-0" x="235.552463" y="350.078125"/>
</g>
<g style="fill:rgb(0%,0%,0%);fill-opacity:1;">
  <use xlink:href="#glyph0-8" x="255.496094" y="350.078125"/>
  <use xlink:href="#glyph0-0" x="262.16881" y="350.078125"/>
  <use xlink:href="#glyph0-0" x="268.841525" y="350.078125"/>
</g>
<g style="fill:rgb(0%,0%,0%);fill-opacity:1;">
  <use xlink:href="#glyph0-9" x="288.785156" y="350.078125"/>
  <use xlink:href="#glyph0-0" x="295.457872" y="350.078125"/>
  <use xlink:href="#glyph0-0" x="302.130588" y="350.078125"/>
</g>
<g style="fill:rgb(0%,0%,0%);fill-opacity:1;">
  <use xlink:href="#glyph0-1" x="318.742188" y="350.078125"/>
  <use xlink:href="#glyph0-0" x="325.414903" y="350.078125"/>
  <use xlink:href="#glyph0-0" x="332.087619" y="350.078125"/>
  <use xlink:href="#glyph0-0" x="338.760335" y="350.078125"/>
</g>
<g style="fill:rgb(0%,0%,0%);fill-opacity:1;">
  <use xlink:href="#glyph1-0" x="159.628906" y="366.078125"/>
  <use xlink:href="#glyph1-1" x="168.966797" y="366.078125"/>
  <use xlink:href="#glyph1-2" x="176.75293" y="366.078125"/>
  <use xlink:href="#glyph1-3" x="188.415039" y="366.078125"/>
  <use xlink:href="#glyph1-4" x="196.201172" y="366.078125"/>
  <use xlink:href="#glyph1-5" x="199.311523" y="366.078125"/>
  <use xlink:href="#glyph1-6" x="207.097656" y="366.078125"/>
  <use xlink:href="#glyph1-0" x="210.987305" y="366.078125"/>
  <use xlink:href="#glyph1-7" x="220.325195" y="366.078125"/>
  <use xlink:href="#glyph1-8" x="223.435547" y="366.078125"/>
  <use xlink:href="#glyph1-5" x="230.435547" y="366.078125"/>
</g>
<g style="fill:rgb(0%,0%,0%);fill-opacity:1;">
  <use xlink:href="#glyph2-0" x="19.984375" y="292.496094"/>
  <use xlink:href="#glyph2-1" x="19.984375" y="281.606445"/>
  <use xlink:href="#glyph2-2" x="19.984375" y="273.820313"/>
  <use xlink:href="#glyph2-3" x="19.984375" y="270.709961"/>
  <use xlink:href="#glyph2-4" x="19.984375" y="262.923828"/>
  <use xlink:href="#glyph2-5" x="19.984375" y="255.923828"/>
  <use xlink:href="#glyph2-6" x="19.984375" y="252.03418"/>
  <use xlink:href="#glyph2-7" x="19.984375" y="248.923828"/>
  <use xlink:href="#glyph2-3" x="19.984375" y="241.923828"/>
  <use xlink:href="#glyph2-8" x="19.984375" y="234.137695"/>
  <use xlink:href="#glyph2-9" x="19.984375" y="230.248047"/>
  <use xlink:href="#glyph2-10" x="19.984375" y="220.910156"/>
  <use xlink:href="#glyph2-11" x="19.984375" y="213.124023"/>
  <use xlink:href="#glyph2-12" x="19.984375" y="210.013672"/>
  <use xlink:href="#glyph2-3" x="19.984375" y="202.227539"/>
</g>
<g style="fill:rgb(0%,0%,0%);fill-opacity:1;">
  <use xlink:href="#glyph1-7" x="353.902344" y="195.921875"/>
  <use xlink:href="#glyph1-9" x="357.012695" y="195.921875"/>
  <use xlink:href="#glyph1-10" x="364.798828" y="195.921875"/>
  <use xlink:href="#glyph1-11" x="371.798828" y="195.921875"/>
  <use xlink:href="#glyph1-1" x="375.688477" y="195.921875"/>
  <use xlink:href="#glyph1-9" x="383.474609" y="195.921875"/>
  <use xlink:href="#glyph1-12" x="391.260742" y="195.921875"/>
  <use xlink:href="#glyph1-5" x="398.260742" y="195.921875"/>
</g>
<path style="fill:none;stroke-width:1.066978;stroke-linecap:butt;stroke-linejoin:round;stroke:rgb(97.254902%,46.27451%,42.745098%);stroke-opacity:1;stroke-miterlimit:10;" d="M 355.34375 207.441406 L 366.863281 207.441406 "/>
<path style="fill:none;stroke-width:1.066978;stroke-linecap:butt;stroke-linejoin:round;stroke:rgb(76.862745%,60.392157%,0%);stroke-opacity:1;stroke-miterlimit:10;" d="M 355.34375 221.839844 L 366.863281 221.839844 "/>
<path style="fill:none;stroke-width:1.066978;stroke-linecap:butt;stroke-linejoin:round;stroke:rgb(32.54902%,70.588235%,0%);stroke-opacity:1;stroke-miterlimit:10;" d="M 355.34375 236.238281 L 366.863281 236.238281 "/>
<path style="fill:none;stroke-width:1.066978;stroke-linecap:butt;stroke-linejoin:round;stroke:rgb(0%,75.294118%,58.039216%);stroke-opacity:1;stroke-miterlimit:10;" d="M 355.34375 250.640625 L 366.863281 250.640625 "/>
<path style="fill:none;stroke-width:1.066978;stroke-linecap:butt;stroke-linejoin:round;stroke:rgb(0%,71.372549%,92.156863%);stroke-opacity:1;stroke-miterlimit:10;" d="M 355.34375 265.039063 L 366.863281 265.039063 "/>
<path style="fill:none;stroke-width:1.066978;stroke-linecap:butt;stroke-linejoin:round;stroke:rgb(64.705882%,54.117647%,100%);stroke-opacity:1;stroke-miterlimit:10;" d="M 355.34375 279.441406 L 366.863281 279.441406 "/>
<path style="fill:none;stroke-width:1.066978;stroke-linecap:butt;stroke-linejoin:round;stroke:rgb(98.431373%,38.039216%,84.313725%);stroke-opacity:1;stroke-miterlimit:10;" d="M 355.34375 293.839844 L 366.863281 293.839844 "/>
<g style="fill:rgb(0%,0%,0%);fill-opacity:1;">
  <use xlink:href="#glyph0-10" x="370.464844" y="211.734375"/>
  <use xlink:href="#glyph0-11" x="374.460271" y="211.734375"/>
  <use xlink:href="#glyph0-12" x="381.132987" y="211.734375"/>
  <use xlink:href="#glyph0-13" x="387.805703" y="211.734375"/>
  <use xlink:href="#glyph0-14" x="394.478419" y="211.734375"/>
  <use xlink:href="#glyph0-12" x="397.14399" y="211.734375"/>
  <use xlink:href="#glyph0-15" x="403.816706" y="211.734375"/>
  <use xlink:href="#glyph0-16" x="409.815706" y="211.734375"/>
  <use xlink:href="#glyph0-17" x="413.149135" y="211.734375"/>
  <use xlink:href="#glyph0-1" x="419.821851" y="211.734375"/>
  <use xlink:href="#glyph0-0" x="426.494566" y="211.734375"/>
  <use xlink:href="#glyph0-17" x="433.167282" y="211.734375"/>
  <use xlink:href="#glyph0-5" x="439.839998" y="211.734375"/>
  <use xlink:href="#glyph0-16" x="446.512714" y="211.734375"/>
  <use xlink:href="#glyph0-18" x="449.846143" y="211.734375"/>
  <use xlink:href="#glyph0-15" x="456.518858" y="211.734375"/>
  <use xlink:href="#glyph0-16" x="462.517858" y="211.734375"/>
  <use xlink:href="#glyph0-19" x="465.851287" y="211.734375"/>
  <use xlink:href="#glyph0-16" x="469.184716" y="211.734375"/>
  <use xlink:href="#glyph0-20" x="472.518145" y="211.734375"/>
  <use xlink:href="#glyph0-16" x="478.517145" y="211.734375"/>
</g>
<g style="fill:rgb(0%,0%,0%);fill-opacity:1;">
  <use xlink:href="#glyph0-10" x="370.464844" y="226.132813"/>
  <use xlink:href="#glyph0-11" x="374.460271" y="226.132813"/>
  <use xlink:href="#glyph0-12" x="381.132987" y="226.132813"/>
  <use xlink:href="#glyph0-13" x="387.805703" y="226.132813"/>
  <use xlink:href="#glyph0-14" x="394.478419" y="226.132813"/>
  <use xlink:href="#glyph0-12" x="397.14399" y="226.132813"/>
  <use xlink:href="#glyph0-15" x="403.816706" y="226.132813"/>
  <use xlink:href="#glyph0-16" x="409.815706" y="226.132813"/>
  <use xlink:href="#glyph0-17" x="413.149135" y="226.132813"/>
  <use xlink:href="#glyph0-1" x="419.821851" y="226.132813"/>
  <use xlink:href="#glyph0-5" x="426.494566" y="226.132813"/>
  <use xlink:href="#glyph0-17" x="433.167282" y="226.132813"/>
  <use xlink:href="#glyph0-1" x="439.839998" y="226.132813"/>
  <use xlink:href="#glyph0-0" x="446.512714" y="226.132813"/>
  <use xlink:href="#glyph0-16" x="453.18543" y="226.132813"/>
  <use xlink:href="#glyph0-18" x="456.518858" y="226.132813"/>
  <use xlink:href="#glyph0-15" x="463.191574" y="226.132813"/>
  <use xlink:href="#glyph0-16" x="469.190574" y="226.132813"/>
  <use xlink:href="#glyph0-19" x="472.524003" y="226.132813"/>
  <use xlink:href="#glyph0-16" x="475.857432" y="226.132813"/>
  <use xlink:href="#glyph0-20" x="479.19086" y="226.132813"/>
  <use xlink:href="#glyph0-16" x="485.18986" y="226.132813"/>
</g>
<g style="fill:rgb(0%,0%,0%);fill-opacity:1;">
  <use xlink:href="#glyph0-10" x="370.464844" y="240.535156"/>
  <use xlink:href="#glyph0-11" x="374.460271" y="240.535156"/>
  <use xlink:href="#glyph0-12" x="381.132987" y="240.535156"/>
  <use xlink:href="#glyph0-13" x="387.805703" y="240.535156"/>
  <use xlink:href="#glyph0-14" x="394.478419" y="240.535156"/>
  <use xlink:href="#glyph0-12" x="397.14399" y="240.535156"/>
  <use xlink:href="#glyph0-15" x="403.816706" y="240.535156"/>
  <use xlink:href="#glyph0-16" x="409.815706" y="240.535156"/>
  <use xlink:href="#glyph0-17" x="413.149135" y="240.535156"/>
  <use xlink:href="#glyph0-1" x="419.821851" y="240.535156"/>
  <use xlink:href="#glyph0-5" x="426.494566" y="240.535156"/>
  <use xlink:href="#glyph0-17" x="433.167282" y="240.535156"/>
  <use xlink:href="#glyph0-5" x="439.839998" y="240.535156"/>
  <use xlink:href="#glyph0-16" x="446.512714" y="240.535156"/>
  <use xlink:href="#glyph0-18" x="449.846143" y="240.535156"/>
  <use xlink:href="#glyph0-15" x="456.518858" y="240.535156"/>
  <use xlink:href="#glyph0-16" x="462.517858" y="240.535156"/>
  <use xlink:href="#glyph0-19" x="465.851287" y="240.535156"/>
  <use xlink:href="#glyph0-16" x="469.184716" y="240.535156"/>
  <use xlink:href="#glyph0-20" x="472.518145" y="240.535156"/>
  <use xlink:href="#glyph0-16" x="478.517145" y="240.535156"/>
</g>
<g style="fill:rgb(0%,0%,0%);fill-opacity:1;">
  <use xlink:href="#glyph0-10" x="370.464844" y="254.933594"/>
  <use xlink:href="#glyph0-11" x="374.460271" y="254.933594"/>
  <use xlink:href="#glyph0-12" x="381.132987" y="254.933594"/>
  <use xlink:href="#glyph0-13" x="387.805703" y="254.933594"/>
  <use xlink:href="#glyph0-14" x="394.478419" y="254.933594"/>
  <use xlink:href="#glyph0-12" x="397.14399" y="254.933594"/>
  <use xlink:href="#glyph0-15" x="403.816706" y="254.933594"/>
  <use xlink:href="#glyph0-16" x="409.815706" y="254.933594"/>
  <use xlink:href="#glyph0-17" x="413.149135" y="254.933594"/>
  <use xlink:href="#glyph0-2" x="419.821851" y="254.933594"/>
  <use xlink:href="#glyph0-0" x="426.494566" y="254.933594"/>
  <use xlink:href="#glyph0-17" x="433.167282" y="254.933594"/>
  <use xlink:href="#glyph0-1" x="439.839998" y="254.933594"/>
  <use xlink:href="#glyph0-0" x="446.512714" y="254.933594"/>
  <use xlink:href="#glyph0-16" x="453.18543" y="254.933594"/>
  <use xlink:href="#glyph0-18" x="456.518858" y="254.933594"/>
  <use xlink:href="#glyph0-15" x="463.191574" y="254.933594"/>
  <use xlink:href="#glyph0-16" x="469.190574" y="254.933594"/>
  <use xlink:href="#glyph0-19" x="472.524003" y="254.933594"/>
  <use xlink:href="#glyph0-16" x="475.857432" y="254.933594"/>
  <use xlink:href="#glyph0-20" x="479.19086" y="254.933594"/>
  <use xlink:href="#glyph0-16" x="485.18986" y="254.933594"/>
</g>
<g style="fill:rgb(0%,0%,0%);fill-opacity:1;">
  <use xlink:href="#glyph0-10" x="370.464844" y="269.335938"/>
  <use xlink:href="#glyph0-11" x="374.460271" y="269.335938"/>
  <use xlink:href="#glyph0-12" x="381.132987" y="269.335938"/>
  <use xlink:href="#glyph0-13" x="387.805703" y="269.335938"/>
  <use xlink:href="#glyph0-14" x="394.478419" y="269.335938"/>
  <use xlink:href="#glyph0-12" x="397.14399" y="269.335938"/>
  <use xlink:href="#glyph0-15" x="403.816706" y="269.335938"/>
  <use xlink:href="#glyph0-16" x="409.815706" y="269.335938"/>
  <use xlink:href="#glyph0-17" x="413.149135" y="269.335938"/>
  <use xlink:href="#glyph0-2" x="419.821851" y="269.335938"/>
  <use xlink:href="#glyph0-0" x="426.494566" y="269.335938"/>
  <use xlink:href="#glyph0-17" x="433.167282" y="269.335938"/>
  <use xlink:href="#glyph0-5" x="439.839998" y="269.335938"/>
  <use xlink:href="#glyph0-16" x="446.512714" y="269.335938"/>
  <use xlink:href="#glyph0-18" x="449.846143" y="269.335938"/>
  <use xlink:href="#glyph0-15" x="456.518858" y="269.335938"/>
  <use xlink:href="#glyph0-16" x="462.517858" y="269.335938"/>
  <use xlink:href="#glyph0-19" x="465.851287" y="269.335938"/>
  <use xlink:href="#glyph0-16" x="469.184716" y="269.335938"/>
  <use xlink:href="#glyph0-20" x="472.518145" y="269.335938"/>
  <use xlink:href="#glyph0-16" x="478.517145" y="269.335938"/>
</g>
<g style="fill:rgb(0%,0%,0%);fill-opacity:1;">
  <use xlink:href="#glyph0-10" x="370.464844" y="283.734375"/>
  <use xlink:href="#glyph0-11" x="374.460271" y="283.734375"/>
  <use xlink:href="#glyph0-12" x="381.132987" y="283.734375"/>
  <use xlink:href="#glyph0-13" x="387.805703" y="283.734375"/>
  <use xlink:href="#glyph0-14" x="394.478419" y="283.734375"/>
  <use xlink:href="#glyph0-12" x="397.14399" y="283.734375"/>
  <use xlink:href="#glyph0-15" x="403.816706" y="283.734375"/>
  <use xlink:href="#glyph0-16" x="409.815706" y="283.734375"/>
  <use xlink:href="#glyph0-17" x="413.149135" y="283.734375"/>
  <use xlink:href="#glyph0-2" x="419.821851" y="283.734375"/>
  <use xlink:href="#glyph0-5" x="426.494566" y="283.734375"/>
  <use xlink:href="#glyph0-17" x="433.167282" y="283.734375"/>
  <use xlink:href="#glyph0-1" x="439.839998" y="283.734375"/>
  <use xlink:href="#glyph0-0" x="446.512714" y="283.734375"/>
  <use xlink:href="#glyph0-16" x="453.18543" y="283.734375"/>
  <use xlink:href="#glyph0-18" x="456.518858" y="283.734375"/>
  <use xlink:href="#glyph0-15" x="463.191574" y="283.734375"/>
  <use xlink:href="#glyph0-16" x="469.190574" y="283.734375"/>
  <use xlink:href="#glyph0-19" x="472.524003" y="283.734375"/>
  <use xlink:href="#glyph0-16" x="475.857432" y="283.734375"/>
  <use xlink:href="#glyph0-20" x="479.19086" y="283.734375"/>
  <use xlink:href="#glyph0-16" x="485.18986" y="283.734375"/>
</g>
<g style="fill:rgb(0%,0%,0%);fill-opacity:1;">
  <use xlink:href="#glyph0-10" x="370.464844" y="298.132813"/>
  <use xlink:href="#glyph0-11" x="374.460271" y="298.132813"/>
  <use xlink:href="#glyph0-12" x="381.132987" y="298.132813"/>
  <use xlink:href="#glyph0-13" x="387.805703" y="298.132813"/>
  <use xlink:href="#glyph0-14" x="394.478419" y="298.132813"/>
  <use xlink:href="#glyph0-12" x="397.14399" y="298.132813"/>
  <use xlink:href="#glyph0-15" x="403.816706" y="298.132813"/>
  <use xlink:href="#glyph0-16" x="409.815706" y="298.132813"/>
  <use xlink:href="#glyph0-17" x="413.149135" y="298.132813"/>
  <use xlink:href="#glyph0-2" x="419.821851" y="298.132813"/>
  <use xlink:href="#glyph0-5" x="426.494566" y="298.132813"/>
  <use xlink:href="#glyph0-17" x="433.167282" y="298.132813"/>
  <use xlink:href="#glyph0-5" x="439.839998" y="298.132813"/>
  <use xlink:href="#glyph0-16" x="446.512714" y="298.132813"/>
  <use xlink:href="#glyph0-18" x="449.846143" y="298.132813"/>
  <use xlink:href="#glyph0-15" x="456.518858" y="298.132813"/>
  <use xlink:href="#glyph0-16" x="462.517858" y="298.132813"/>
  <use xlink:href="#glyph0-19" x="465.851287" y="298.132813"/>
  <use xlink:href="#glyph0-16" x="469.184716" y="298.132813"/>
  <use xlink:href="#glyph0-20" x="472.518145" y="298.132813"/>
  <use xlink:href="#glyph0-16" x="478.517145" y="298.132813"/>
</g>
<g style="fill:rgb(0%,0%,0%);fill-opacity:1;">
  <use xlink:href="#glyph3-0" x="52.453125" y="144.949219"/>
  <use xlink:href="#glyph3-1" x="62.296875" y="144.949219"/>
  <use xlink:href="#glyph3-2" x="70.438477" y="144.949219"/>
  <use xlink:href="#glyph3-3" x="75.572266" y="144.949219"/>
  <use xlink:href="#glyph3-4" x="83.618164" y="144.949219"/>
  <use xlink:href="#glyph3-5" x="90.782227" y="144.949219"/>
  <use xlink:href="#glyph3-6" x="96.333008" y="144.949219"/>
  <use xlink:href="#glyph3-7" x="100.509766" y="144.949219"/>
  <use xlink:href="#glyph3-3" x="107.892578" y="144.949219"/>
  <use xlink:href="#glyph3-8" x="115.938477" y="144.949219"/>
  <use xlink:href="#glyph3-7" x="120.15625" y="144.949219"/>
  <use xlink:href="#glyph3-9" x="127.539063" y="144.949219"/>
  <use xlink:href="#glyph3-10" x="134.99707" y="144.949219"/>
  <use xlink:href="#glyph3-11" x="139.125977" y="144.949219"/>
  <use xlink:href="#glyph3-3" x="147.397461" y="144.949219"/>
  <use xlink:href="#glyph3-8" x="155.443359" y="144.949219"/>
  <use xlink:href="#glyph3-12" x="159.661133" y="144.949219"/>
  <use xlink:href="#glyph3-6" x="166.688477" y="144.949219"/>
  <use xlink:href="#glyph3-7" x="170.865234" y="144.949219"/>
  <use xlink:href="#glyph3-3" x="178.248047" y="144.949219"/>
  <use xlink:href="#glyph3-13" x="186.293945" y="144.949219"/>
  <use xlink:href="#glyph3-8" x="194.558594" y="144.949219"/>
  <use xlink:href="#glyph3-14" x="198.776367" y="144.949219"/>
  <use xlink:href="#glyph3-6" x="206.904297" y="144.949219"/>
  <use xlink:href="#glyph3-15" x="211.081055" y="144.949219"/>
  <use xlink:href="#glyph3-15" x="216.255859" y="144.949219"/>
  <use xlink:href="#glyph3-3" x="221.430664" y="144.949219"/>
  <use xlink:href="#glyph3-16" x="229.476563" y="144.949219"/>
  <use xlink:href="#glyph3-3" x="235.458008" y="144.949219"/>
  <use xlink:href="#glyph3-13" x="243.503906" y="144.949219"/>
  <use xlink:href="#glyph3-5" x="251.768555" y="144.949219"/>
  <use xlink:href="#glyph3-8" x="257.319336" y="144.949219"/>
  <use xlink:href="#glyph3-17" x="261.537109" y="144.949219"/>
  <use xlink:href="#glyph3-9" x="267.566406" y="144.949219"/>
  <use xlink:href="#glyph3-18" x="275.024414" y="144.949219"/>
  <use xlink:href="#glyph3-19" x="287.055664" y="144.949219"/>
  <use xlink:href="#glyph3-10" x="295.210938" y="144.949219"/>
  <use xlink:href="#glyph3-3" x="299.339844" y="144.949219"/>
  <use xlink:href="#glyph3-17" x="307.385742" y="144.949219"/>
  <use xlink:href="#glyph3-6" x="313.415039" y="144.949219"/>
  <use xlink:href="#glyph3-20" x="317.591797" y="144.949219"/>
  <use xlink:href="#glyph3-3" x="324.988281" y="144.949219"/>
  <use xlink:href="#glyph3-17" x="333.03418" y="144.949219"/>
  <use xlink:href="#glyph3-21" x="339.063477" y="144.949219"/>
  <use xlink:href="#glyph3-8" x="344.204102" y="144.949219"/>
</g>
</g>
</svg>
