instance samplesize time_preprocessing time_solving obj
randinst_10_5test.txt 200 0.578 0.0736 105.0
randinst_15_5test.txt 200 2.0814 0.6484 207.0
randinst_20_5test.txt 200 2.5733 3.8648 282.0
randinst_25_5test.txt 200 4.9436 9.9469 452.0
randinst_15_10test.txt 200 4.0447 0.1224 124.0
randinst_20_10test.txt 200 0.8405 0.1941 80.0
randinst_25_10test.txt 200 6.9163 2.4442 147.0
randinst_10_5test.txt 200 0.6231 0.072 115.0
randinst_15_5test.txt 200 1.9321 0.5965 207.0
randinst_20_5test.txt 200 2.776 2.6046 291.0
randinst_25_5test.txt 200 4.285 7.3931 453.0
randinst_15_10test.txt 200 3.9716 0.2046 124.0
randinst_20_10test.txt 200 0.7827 0.1726 80.0
randinst_25_10test.txt 200 7.3601 2.2849 147.0
randinst_10_5test.txt 200 1.0572 0.08 109.0
randinst_15_5test.txt 200 2.0033 0.3808 207.0
randinst_20_5test.txt 200 2.8072 0.9301 282.0
randinst_15_10test.txt 200 5.1156 0.1446 124.0
randinst_20_10test.txt 200 0.7952 0.6175 78.0
randinst_25_10test.txt 200 7.1027 1.3647 147.0
randinst_10_5test.txt 200 0.6936 0.0635 106.0
randinst_15_5test.txt 200 2.1689 0.4952 207.0
randinst_20_5test.txt 200 2.9533 4.5346 317.0
randinst_25_5test.txt 200 4.3333 12.945 479.0
randinst_15_10test.txt 200 4.2712 0.1293 124.0
randinst_20_10test.txt 200 1.0244 0.2984 79.0
randinst_25_10test.txt 200 7.3821 2.4619 147.0
randinst_10_5test.txt 200 0.8373 0.0818 108.0
randinst_15_5test.txt 200 1.9401 0.8745 207.0
randinst_20_5test.txt 200 3.1039 3.0627 291.0
randinst_25_5test.txt 200 4.7704 12.8585 507.0
randinst_15_10test.txt 200 4.2978 0.1327 124.0
randinst_20_10test.txt 200 1.2796 0.2345 78.0
randinst_25_10test.txt 200 7.5969 1.792 147.0
randinst_10_5test.txt 300 1.636 0.1048 108.0
randinst_15_5test.txt 300 4.3439 1.4843 207.0
randinst_20_5test.txt 300 6.3665 2.4837 282.0
randinst_25_5test.txt 300 11.1708 23.544 451.0
randinst_15_10test.txt 300 9.3776 0.1924 124.0
randinst_20_10test.txt 300 1.7456 0.3005 78.0
randinst_25_10test.txt 300 16.7073 1.6091 146.0
randinst_10_5test.txt 300 1.3808 0.0926 104.0
randinst_15_5test.txt 300 4.4692 0.3945 207.0
randinst_20_5test.txt 300 5.8782 3.8886 283.0
randinst_25_5test.txt 300 9.8577 81.5408 453.0
randinst_15_10test.txt 300 7.8737 0.1787 124.0
randinst_20_10test.txt 300 1.5829 0.3953 77.0
randinst_25_10test.txt 300 15.3898 2.8884 147.0
randinst_10_5test.txt 300 1.971 0.1437 105.0
randinst_15_5test.txt 300 4.4699 0.9438 207.0
randinst_20_5test.txt 300 6.2683 2.6801 282.0
randinst_25_5test.txt 300 10.6308 26.9613 452.0
randinst_15_10test.txt 300 12.0108 0.2253 124.0
randinst_20_10test.txt 300 2.0804 0.4819 78.0
randinst_25_10test.txt 300 16.7483 1.9281 147.0
randinst_10_5test.txt 300 1.65 0.126 105.0
randinst_15_5test.txt 300 5.1453 0.458 207.0
randinst_20_5test.txt 300 7.3281 3.361 282.0
randinst_25_5test.txt 300 10.2896 105.9905 452.0
randinst_15_10test.txt 300 9.8819 0.1912 124.0
randinst_20_10test.txt 300 2.1106 0.857 78.0
randinst_25_10test.txt 300 16.7971 4.9106 147.0
randinst_10_5test.txt 300 1.6681 0.1029 105.0
randinst_15_5test.txt 300 4.7207 1.7125 207.0
randinst_20_5test.txt 300 6.7017 5.2963 282.0
randinst_25_5test.txt 300 9.7106 18.96 426.0
randinst_15_10test.txt 300 9.5789 0.2888 124.0
randinst_20_10test.txt 300 2.6167 0.2947 78.0
randinst_25_10test.txt 300 14.8343 4.0999 147.0
randinst_10_5test.txt 500 4.6024 0.1881 107.0
randinst_15_5test.txt 500 14.2557 0.4737 207.0
randinst_20_5test.txt 500 16.7511 7.413 282.0
randinst_25_5test.txt 500 30.9986 26.8603 398.0
randinst_15_10test.txt 500 24.6885 0.375 124.0
randinst_20_10test.txt 500 5.2654 0.455 77.0
randinst_25_10test.txt 500 46.7745 2.3778 146.0
randinst_10_5test.txt 500 4.4592 0.1445 104.0
randinst_15_5test.txt 500 13.5432 0.5609 207.0
randinst_20_5test.txt 500 17.915 4.1237 282.0
randinst_25_5test.txt 500 26.9986 15.1397 386.0
randinst_15_10test.txt 500 24.7457 0.3559 124.0
randinst_20_10test.txt 500 4.9306 0.588 74.0
randinst_25_10test.txt 500 45.8697 2.8392 146.0
randinst_10_5test.txt 500 5.4696 0.1515 104.0
randinst_15_5test.txt 500 14.2134 0.4513 207.0
randinst_20_5test.txt 500 17.2285 3.5211 282.0
randinst_25_5test.txt 500 31.3489 150.3984 410.0
randinst_15_10test.txt 500 30.5352 0.4654 124.0
randinst_20_10test.txt 500 6.0008 0.5169 75.0
randinst_25_10test.txt 500 48.0778 1.4726 147.0
randinst_10_5test.txt 500 5.4101 0.1383 104.0
randinst_15_5test.txt 500 13.0174 1.2871 207.0
randinst_20_5test.txt 500 18.2005 1.4471 282.0
randinst_25_5test.txt 500 28.5301 81.8964 411.0
randinst_15_10test.txt 500 27.5772 0.36 124.0
randinst_20_10test.txt 500 5.4085 0.6158 76.0
randinst_25_10test.txt 500 49.5683 3.1479 146.0
randinst_10_5test.txt 500 5.9058 0.1561 104.0
randinst_15_5test.txt 500 13.5508 0.6371 207.0
randinst_20_5test.txt 500 18.0126 1.9064 282.0
randinst_25_5test.txt 500 29.119 38.3398 402.0
randinst_15_10test.txt 500 29.5781 0.3786 124.0
randinst_20_10test.txt 500 7.3612 0.4482 74.0
randinst_25_10test.txt 500 48.2828 4.1232 147.0
randinst_10_5test.txt 1000 19.1347 0.2639 104.0
randinst_15_5test.txt 1000 55.5437 0.9197 207.0
randinst_20_5test.txt 1000 64.5413 4.2228 282.0
randinst_25_5test.txt 1000 124.9465 49.7363 384.0
randinst_15_10test.txt 1000 100.112 0.8146 124.0
randinst_20_10test.txt 1000 23.3992 0.7573 74.0
randinst_25_10test.txt 1000 179.821 3.878 146.0
randinst_10_5test.txt 1000 18.522 0.2667 104.0
randinst_15_5test.txt 1000 56.8576 1.0578 207.0
randinst_20_5test.txt 1000 75.9387 4.361 282.0
randinst_25_5test.txt 1000 116.9468 46.902 384.0
randinst_15_10test.txt 1000 97.6835 0.7311 124.0
randinst_20_10test.txt 1000 19.0521 0.7492 74.0
randinst_25_10test.txt 1000 185.9242 3.4646 146.0
randinst_10_5test.txt 1000 20.2016 0.2687 105.0
randinst_15_5test.txt 1000 55.1209 0.9974 207.0
randinst_20_5test.txt 1000 67.2692 9.487 282.0
randinst_25_5test.txt 1000 123.402 105.6814 393.0
randinst_15_10test.txt 1000 109.3023 0.899 124.0
randinst_20_10test.txt 1000 23.2818 1.1189 73.0
randinst_25_10test.txt 1000 191.0235 5.4098 146.0
randinst_10_5test.txt 1000 21.5013 0.2364 105.0
randinst_15_5test.txt 1000 56.7257 0.8624 207.0
randinst_20_5test.txt 1000 70.6751 3.4718 282.0
randinst_25_5test.txt 1000 113.5154 65.5382 383.0
randinst_15_10test.txt 1000 108.51 1.0816 124.0
randinst_20_10test.txt 1000 23.0462 0.8849 74.0
randinst_25_10test.txt 1000 189.9699 6.9685 146.0
randinst_10_5test.txt 1000 21.4274 0.2783 105.0
randinst_15_5test.txt 1000 56.9765 1.0119 207.0
randinst_20_5test.txt 1000 71.972 4.0204 282.0
randinst_25_5test.txt 1000 113.584 96.1338 389.0
randinst_15_10test.txt 1000 106.348 1.3801 124.0
randinst_20_10test.txt 1000 25.2119 0.7502 73.0
randinst_25_10test.txt 1000 200.9997 4.8266 146.0
randinst_10_5test.txt 200 0.5815 0.0744 105.0
randinst_15_5test.txt 200 2.0808 0.6397 207.0
randinst_20_5test.txt 200 2.5735 3.8853 282.0
randinst_25_5test.txt 200 4.9521 9.9024 452.0
randinst_15_10test.txt 200 4.0523 0.1182 124.0
randinst_20_10test.txt 200 0.8473 0.1959 80.0
randinst_25_10test.txt 200 6.9286 2.469 147.0
randinst_10_5test.txt 200 0.6226 0.0707 115.0
randinst_15_5test.txt 200 1.9099 0.6029 207.0
randinst_20_5test.txt 200 2.7671 2.6368 291.0
randinst_25_5test.txt 200 4.2818 7.4257 453.0
randinst_15_10test.txt 200 3.9737 0.2067 124.0
randinst_20_10test.txt 200 0.7824 0.1733 80.0
randinst_25_10test.txt 200 7.3517 2.287 147.0
randinst_10_5test.txt 200 1.0543 0.0771 109.0
randinst_15_5test.txt 200 2.0058 0.3895 207.0
randinst_20_5test.txt 200 2.8085 0.9163 282.0
randinst_15_10test.txt 200 5.1098 0.1503 124.0
randinst_20_10test.txt 200 0.7999 0.612 78.0
randinst_25_10test.txt 200 7.1017 1.3804 147.0
randinst_10_5test.txt 200 0.6939 0.0601 106.0
randinst_15_5test.txt 200 2.1689 0.5066 207.0
randinst_20_5test.txt 200 2.9476 5.2191 317.0
randinst_25_5test.txt 200 4.2844 14.8438 479.0
randinst_15_10test.txt 200 4.2668 0.129 124.0
randinst_20_10test.txt 200 1.0232 0.3065 79.0
randinst_25_10test.txt 200 7.3863 2.4654 147.0
randinst_10_5test.txt 200 0.8384 0.0794 108.0
randinst_15_5test.txt 200 1.9397 0.8609 207.0
randinst_20_5test.txt 200 3.0985 3.0728 291.0
randinst_25_5test.txt 200 4.7802 12.7741 507.0
randinst_15_10test.txt 200 4.2967 0.1299 124.0
randinst_20_10test.txt 200 1.2791 0.2326 78.0
randinst_25_10test.txt 200 7.5493 1.7651 147.0
