instance samplesize time_preprocessing time_solving
randinst_10_5_fixedtest.txt 200 0.3849 0.0783
randinst_15_5_fixedtest.txt 200 1.7096 0.2968
randinst_20_5_fixedtest.txt 200 0.0213 0.7489
randinst_25_5_fixedtest.txt 200 0.0352 3.2466
randinst_15_10_fixedtest.txt 200 3.7023 0.1247
randinst_20_10_fixedtest.txt 200 0.6607 0.1367
randinst_25_10_fixedtest.txt 200 0.0667 0.1139
randinst_10_5_fixedtest.txt 300 0.9262 0.1467
randinst_15_5_fixedtest.txt 300 3.7934 0.5719
randinst_20_5_fixedtest.txt 300 0.0418 1.8486
randinst_25_5_fixedtest.txt 300 0.06 5.5458
randinst_15_10_fixedtest.txt 300 7.621 0.185
randinst_20_10_fixedtest.txt 300 1.5414 0.2707
randinst_25_10_fixedtest.txt 300 0.1427 0.2005
randinst_10_5_fixedtest.txt 500 2.5742 0.19
randinst_15_5_fixedtest.txt 500 10.9541 0.4529
randinst_20_5_fixedtest.txt 500 0.0812 0.8435
randinst_25_5_fixedtest.txt 500 0.1198 7.1823
randinst_15_10_fixedtest.txt 500 20.738 0.3001
randinst_20_10_fixedtest.txt 500 4.3996 0.4171
randinst_25_10_fixedtest.txt 500 0.3535 0.4064
randinst_10_5_fixedtest.txt 1000 10.5381 0.2166
randinst_15_5_fixedtest.txt 1000 43.7568 0.8526
randinst_20_5_fixedtest.txt 1000 0.2494 2.881
randinst_25_5_fixedtest.txt 1000 0.3073 11.227
randinst_15_10_fixedtest.txt 1000 82.4577 0.7005
randinst_20_10_fixedtest.txt 1000 18.3098 0.7849
randinst_25_10_fixedtest.txt 1000 2.4508 0.9499