\begin{tikzpicture}
\draw[fill={rgb:red,2;green,5;yellow,0}]  node[above=50pt,left=20pt, right=0, text width=5em] {Case: 1};
\draw[line width=1mm,->,>=stealth]  (4.5,0.5) -- (5.5,0.5);
\draw[fill={rgb:red,2;green,5;yellow,0}]  node[above=15pt, right=170, text width=10em] {$z_{ijk}  = 1\ \land \ x_{ijk} =1 $\\$o_k \geq o_j+c^+$\\$o_k \geq o_j$\\$o_k \leq o_j + c^+$};
\draw[fill={rgb:red,2;green,5;yellow,0}] (0,0) rectangle (1,1) node[below=15pt,left=20pt, right=0, text width=5em] {$j$};
\draw[fill={rgb:red,3;green,2;yellow,2}] (1,0) rectangle (3,1) node[below=15pt,left=55pt, right=0, text width=5em] {$recharge$};
\draw[fill={rgb:red,2;green,5;yellow,0}] (3,0) rectangle (4,1) node[below=15pt,left=20pt, right=0, text width=5em] {$k$};

\draw[fill={rgb:red,2;green,5;yellow,0}]  node[below=40pt,left=20pt, right=0, text width=5em] {Case: 2};
\draw[line width=1mm,->,>=stealth]  (4.5,-2.5) -- (5.5,-2.5);
\draw[fill={rgb:red,2;green,5;yellow,0}]  node[below=70pt, right=170, text width=10em] {$z_{ijk}  = 0\ \land \ x_{ijk} =1 $\\$o_k \geq o_j$\\$o_k \geq -P$\\$o_k \leq o_j$};
\draw[fill={rgb:red,2;green,5;yellow,0}] (0,-3) rectangle (1,-2) node[below=15pt,left=20pt, right=0, text width=5em] {$j$};
\draw[fill={rgb:red,2;green,5;yellow,0}] (1,-3) rectangle (2,-2) node[below=15pt,left=20pt, right=0, text width=5em] {$k$};

\draw[fill={rgb:red,2;green,5;yellow,0}]  node[below=120pt,left=20pt, right=0, text width=5em] {Case: 3};
\draw[line width=1mm,->,>=stealth]  (4.5,-5.5) -- (5.5,-5.5);
\draw[fill={rgb:red,2;green,5;yellow,0}]  node[below=160pt, right=170, text width=10em] {$z_{ijk}  = 0\ \land \ x_{ijk} =0 $\\$o_k \geq -P+o_j$\\$o_k \geq -P+o_j$\\$o_k \leq P+o_j$};
\draw[fill={rgb:red,2;green,5;yellow,0}] (0,-6) rectangle (1,-5) node[below=15pt,left=20pt, right=0, text width=5em] {$j$};
\draw[fill={rgb:red,2;green,5;yellow,0}] (1,-6) rectangle (2,-5) node[below=15pt,left=28pt, right=0, text width=5em] {$\neq k$};
\end{tikzpicture}