-#
7
3
-p
0
25
10
23
6
20
10
15
0
-M
2280
-st
0
0
7
0
5
6
9
0
0
-d
2500
2500
2500
2500
2500
2859
2500
2500
2500
-s
0 10 13 12 13 12 11 12 1
11 0 11 12 13 19 11 14 13
12 12 0 14 13 12 11 12 13
14 14 15 0 13 12 11 15 12
16 13 13 12 0 12 15 14 15
13 15 16 12 13 0 16 12 13
15 14 13 21 13 12 0 5 14
15 14 13 21 13 12 12 0 14
1 10 13 12 13 12 11 13 0
-b
100
50
25
50
-l
100
100
100
-c
0
34
34
33
34
38
23
45
0
-mst
1
1
1